Name                           Status         Salary Pay Basis  Position Title
====================================================================================================================================
Jones, Crystal B.              Employee        84855 Per Annum  "ASSISTANT SUPERVISOR
Sher, Susan S.                 Employee       172200 Per Annum  "ASSISTANT TO THE PRESIDENT
Schiliro, Philip M.            Employee       172200 Per Annum  "ASSISTANT TO THE PRESIDENT AND DIRECTOR
Sutton, Nikki E.               Employee        47500 Per Annum  "ASSOCIATE DIRECTOR
Oleske, James M.               Employee       114000 Per Annum  "CHIEF OF STAFF
Tseggai, Gannet L.             Employee        66300 Per Annum  "COMMUNICATIONS ADVISOR
Shah, Sonal R.                 Employee       120000 Per Annum  "DEPUTY ASSISTANT TO THE PRESIDENT AND DIRECTOR
Sabochik, Katelyn A.           Employee        62500 Per Annum  "DEPUTY DIRECTOR
Cuellar, Martin E.             Employee        91800 Per Annum  "DEPUTY DIRECTOR
Olson, Elizabeth H.            Employee        76500 Per Annum  "DEPUTY DIRECTOR
Bernard, Sarah C.              Employee        70000 Per Annum  "DIRECTOR 
Dunn, Lauren P.                Employee        50000 Per Annum  "POLICY ASSISTANT
Sweeney, Sean F.               Employee       120000 Per Annum  "SPECIAL ASSISTANT TO THE PRESIDENT AND DIRECTOR
Campbell, Frances L.           Employee       100904 Per Annum  "SUPERVISOR
Faulman, Michael T.            Employee        42000 Per Annum  ADVANCE COORDINATOR
Utech, Daniel G.               Detailee       130000 Per Annum  ADVISOR   
McGinnis, Patricia G.          Employee            0 Per Annum  ADVISOR   
Hegde, Shilpa S.               Employee        42000 Per Annum  ANALYST   
Metcalf, Ryan D.               Employee        42000 Per Annum  ANALYST   
Posey, Stacie M.               Employee        42000 Per Annum  ANALYST   
Castillo, Laura M.             Employee        42000 Per Annum  ANALYST   
Campos, David R.               Employee        42000 Per Annum  ANALYST   
Robertson, Ian T.              Employee        42000 Per Annum  ANALYST   
Schaub, Matthew J.             Employee        42000 Per Annum  ANALYST   
Ayling, Lindsay A.             Employee        42000 Per Annum  ANALYST   
Grant, Kathryn A.              Employee        42000 Per Annum  ANALYST   
White, Cleo                    Detailee        65393 Per Annum  ANALYST   
Dorsett, Craig M.              Employee        42000 Per Annum  ANALYST   
Kumar, Pravin D.               Employee        50000 Per Annum  ASSISTANT COUNSEL FOR NOMINATIONS
Stracko, Jill A.               Employee        51000 Per Annum  ASSISTANT DIRECTOR
Finlen, Shawn T.               Employee        50000 Per Annum  ASSISTANT DIRECTOR
Gardaphe, Frederico C.         Employee        50000 Per Annum  ASSISTANT DIRECTOR
Stoev, Ivan                    Employee        50000 Per Annum  ASSISTANT DIRECTOR
Narechania, Saumya N.          Employee        50000 Per Annum  ASSISTANT DIRECTOR
Hornsby, Michael A.            Employee        66300 Per Annum  ASSISTANT DIRECTOR
Liddell-Westefeld, Christopher Employee        50000 Per Annum  ASSISTANT DIRECTOR
Thomas, III, Edwin R.          Employee        97936 Per Annum  ASSISTANT EXECUTIVE CLERK
McCathran, William W.          Employee       106839 Per Annum  ASSISTANT EXECUTIVE CLERK
Brundage, Amy J.               Employee        78000 Per Annum  ASSISTANT PRESS SECRETARY
Cherlin, Reid H.               Employee        78000 Per Annum  ASSISTANT PRESS SECRETARY
Vietor, Thomas F.              Employee        78000 Per Annum  ASSISTANT PRESS SECRETARY
Shapiro, Nicholas S.           Employee        78000 Per Annum  ASSISTANT PRESS SECRETARY
LaBolt, Benjamin C.            Employee        78000 Per Annum  ASSISTANT PRESS SECRETARY
Canery, Beverly D.             Employee        58511 Per Annum  ASSISTANT SHIFT LEADER
Claude, Lilia H.               Employee        58511 Per Annum  ASSISTANT SHIFT LEADER
Sass, Joan C.                  Employee        56791 Per Annum  ASSISTANT SHIFT LEADER
Graham, Lottie B.              Employee        63673 Per Annum  ASSISTANT SHIFT LEADER
Attili, Candice L.             Employee        58511 Per Annum  ASSISTANT SHIFT LEADER
Baskerville, Jr., Chester A.   Employee        47532 Per Annum  ASSISTANT SHIFT LEADER
O'Connor, Kyle P.              Employee        42000 Per Annum  ASSISTANT SPEECHWRITER
Chiodo, Theodore A.            Employee        60000 Per Annum  ASSISTANT STAFF SECRETARY
Kim, Anna S.                   Employee        60000 Per Annum  ASSISTANT STAFF SECRETARY
Hurley, Caitlin G.             Employee        60000 Per Annum  ASSISTANT STAFF SECRETARY
Walsh, Joan L.                 Employee        60000 Per Annum  ASSISTANT STAFF SECRETARY
Parker, Doris D.               Employee        79864 Per Annum  ASSISTANT SUPERVISOR OF CLASSIFICATION
Taggart, Jr., Hugh T.          Employee        92341 Per Annum  ASSISTANT SUPERVISOR OF SEARCH AND FILE
Williams, Sherman A.           Employee        74958 Per Annum  ASSISTANT TO THE EXECUTIVE CLERK
Neiman, Wanda M.               Employee        74958 Per Annum  ASSISTANT TO THE EXECUTIVE CLERK
Lu, Christopher P.             Employee       172200 Per Annum  ASSISTANT TO THE PRESIDENT AND CABINET SECRETARY
Emanuel, Rahm I.               Employee       172200 Per Annum  ASSISTANT TO THE PRESIDENT AND CHIEF OF STAFF
Bauer, Robert F.               Employee       172200 Per Annum  ASSISTANT TO THE PRESIDENT AND COUNSEL TO THE PRESIDENT
Messina, James A.              Employee       172200 Per Annum  ASSISTANT TO THE PRESIDENT AND DEPUTY CHIEF OF STAFF FOR OPERATIONS
Sutphen, Mona K.               Employee       172200 Per Annum  ASSISTANT TO THE PRESIDENT AND DEPUTY CHIEF OF STAFF FOR POLICY
Donilon, Thomas E.             Employee       172200 Per Annum  ASSISTANT TO THE PRESIDENT AND DEPUTY NATIONAL SECURITY ADVISOR
Pfeiffer, Howard D.            Employee       172200 Per Annum  ASSISTANT TO THE PRESIDENT AND DIRECTOR OF COMMUNICATIONS
Gaspard, Patrick H.            Employee       172200 Per Annum  ASSISTANT TO THE PRESIDENT AND DIRECTOR OF POLITICAL AFFAIRS
Mastromonaco, Alyssa M.        Employee       172200 Per Annum  ASSISTANT TO THE PRESIDENT AND DIRECTOR OF SCHEDULING AND ADVANCE
Favreau, Jonathan E.           Employee       172200 Per Annum  ASSISTANT TO THE PRESIDENT AND DIRECTOR OF SPEECHWRITING
Barnes, Melody C.              Employee       172200 Per Annum  ASSISTANT TO THE PRESIDENT AND DIRECTOR OF THE DOMESTIC POLICY COUNCIL
Gibbs, Robert L.               Employee       172200 Per Annum  ASSISTANT TO THE PRESIDENT AND PRESS SECRETARY
Rouse, Peter M.                Employee       172200 Per Annum  ASSISTANT TO THE PRESIDENT AND SENIOR ADVISOR
Axelrod, David M.              Employee       172200 Per Annum  ASSISTANT TO THE PRESIDENT AND SENIOR ADVISOR
Brown, Elizabeth M.            Employee       172200 Per Annum  ASSISTANT TO THE PRESIDENT AND STAFF SECRETARY
Summers, Lawrence H.           Employee       172200 Per Annum  ASSISTANT TO THE PRESIDENT FOR ECONOMIC POLICY AND DIRECTOR OF THE NATIONAL ECONOMIC COUNCIL
Browner, Carol M.              Employee       172200 Per Annum  ASSISTANT TO THE PRESIDENT FOR ENERGY AND CLIMATE CHANGE
Brennan, John O.               Employee       172200 Per Annum  ASSISTANT TO THE PRESIDENT FOR HOMELAND SECURITY AND COUNTERTERRORISM
Kiley, Bradley J.              Employee       162900 Per Annum  ASSISTANT TO THE PRESIDENT FOR MANAGEMENT AND ADMINISTRATION
Cutter, Stephanie              Employee       172200 Per Annum  ASSISTANT TO THE PRESIDENT FOR SPECIAL PROJECTS
Gottry, Heather C.             Detailee       136134 Per Annum  ASSOCIATE COUNSEL TO THE PRESIDENT
Fiscus, Taylor R.              Employee        45000 Per Annum  ASSOCIATE DIRECTOR
Schulman, Kori S.              Employee        48450 Per Annum  ASSOCIATE DIRECTOR
Tamarin, Nathanael P.          Employee        96900 Per Annum  ASSOCIATE DIRECTOR
Juska, Monika                  Employee        45000 Per Annum  ASSOCIATE DIRECTOR
Bauer, Nicholas T.             Employee        55000 Per Annum  ASSOCIATE DIRECTOR
Reed, Ian P.                   Employee        45900 Per Annum  ASSOCIATE DIRECTOR
Wade, David L.                 Employee        55000 Per Annum  ASSOCIATE DIRECTOR
Sathe, Smrthi                  Employee        70000 Per Annum  ASSOCIATE DIRECTOR
Pourmorad, Araz                Employee        45000 Per Annum  ASSOCIATE DIRECTOR
Richardson, Karen E.           Detailee        92001 Per Annum  ASSOCIATE DIRECTOR
Stephens, Semonti M.           Employee        53550 Per Annum  ASSOCIATE DIRECTOR AND DEPUTY PRESS SECRETARY TO THE FIRST LADY
Donovan, Michael W.            Employee        45900 Per Annum  ASSOCIATE DIRECTOR AND SCHEDULING RESEARCHER
Cohen, Elizabeth S             Employee        45900 Per Annum  ASSOCIATE DIRECTOR AND SCHEDULING RESEARCHER
Quinn, Brian P.                Employee        45000 Per Annum  ASSOCIATE DIRECTOR AND TRAVEL MANAGER
Tate-Gilmore, Ashley R.        Employee        45900 Per Annum  ASSOCIATE DIRECTOR AND TRAVEL MANAGER
Hennigan, Margo E.             Employee        45900 Per Annum  ASSOCIATE DIRECTOR AND TRAVEL MANAGER
Whichard, IV, David J.         Employee        45900 Per Annum  ASSOCIATE DIRECTOR AND TRIP COORDINATOR
Campbell, Grant E.             Employee        45900 Per Annum  ASSOCIATE DIRECTOR AND TRIP COORDINATOR
Dyer, Deesha A.                Employee        45000 Per Annum  ASSOCIATE DIRECTOR FOR SCHEDULING CORRESPONDENCE
Vogel, Matthew A.              Employee        71400 Per Annum  ASSOCIATE DIRECTOR OF COMMUNICATIONS FOR ECONOMICS
Lipsky, Joshua S.              Employee        45000 Per Annum  ASSOCIATE DIRECTOR OF PRESS ADVANCE 
Finkenbinder, Benjamin N.      Employee        45900 Per Annum  ASSOCIATE DIRECTOR OF PRESS ADVANCE AND PRESS POOL WRANGLER
Hogan, Katherine J.            Employee        45900 Per Annum  ASSOCIATE DIRECTOR OF PRESS ADVANCE AND PRESS POOL WRANGLER
Cushman, Chase M.              Employee        45900 Per Annum  ASSOCIATE DIRECTOR OF SCHEDULING
Nelson, Elizabeth W.           Employee        45900 Per Annum  ASSOCIATE DIRECTOR OF SCHEDULING
Lorjuste, Gregory              Employee        45900 Per Annum  ASSOCIATE DIRECTOR OF SCHEDULING
Beverly, Alaina C.             Employee        71400 Per Annum  ASSOCIATE DIRECTOR OF URBAN AFFAIRS
Kommareddi, Madhuri            Employee        71400 Per Annum  ASSOCIATE STAFF SECRETARY
Williams, Marie J.             Employee        55000 Per Annum  BOARDS AND COMMISSIONS DIRECTOR
Gottlieb, Graham D.            Employee        42000 Per Annum  BOARDS AND COMMISSIONS STAFF ASSISTANT
Odintz, Joshua D.              Detailee       155500 Per Annum  CHIEF TAX COUNSEL
Bressler, Steven Y.            Detailee       148510 Per Annum  CLEARANCE ADVISOR
Baldassaro, Frederick J.       Detailee       122744 Per Annum  COMMUNICATIONS DIRECTOR
Ledbetter, Howli J.            Employee        42000 Per Annum  COORDINATOR
Lewis, Georgette T.            Employee        45000 Per Annum  COORDINATOR
Lynn, Anthony V.               Employee        45000 Per Annum  COORDINATOR
Anello, Russell M.             Employee        66300 Per Annum  COUNSEL   
DeParle, Nancy-Ann Min         Employee       158500 Per Annum  COUNSELOR TO THE PRESIDENT AND DIRECTOR OF THE WHITE HOUSE OFFICE FOR HEALTH CARE REFORM
Furman, Jason L.               Employee       147500 Per Annum  DEPUTY ASSISTANT TO THE PRESIDENT  FOR ECONOMIC POLICY
Lippert, Mark W.               Employee       147500 Per Annum  DEPUTY ASSISTANT TO THE PRESIDENT AND CHIEF OF STAFF FOR NATIONAL SECURITY OPERATIONS
Smith, Elizabeth S.            Employee       130000 Per Annum  DEPUTY ASSISTANT TO THE PRESIDENT AND DEPUTY CABINET SECRETARY
DeRosa, Mary B.                Employee       158500 Per Annum  DEPUTY ASSISTANT TO THE PRESIDENT AND DEPUTY COUNSEL TO THE PRESIDENT
Verrilli, Donald B.            Employee       158500 Per Annum  DEPUTY ASSISTANT TO THE PRESIDENT AND DEPUTY COUNSEL TO THE PRESIDENT
Davies, Susan M.               Employee       158500 Per Annum  DEPUTY ASSISTANT TO THE PRESIDENT AND DEPUTY COUNSEL TO THE PRESIDENT
Ruemmler, Kathryn H.           Employee       158500 Per Annum  DEPUTY ASSISTANT TO THE PRESIDENT AND DEPUTY COUNSEL TO THE PRESIDENT
Psaki, Jennifer R.             Employee       150000 Per Annum  DEPUTY ASSISTANT TO THE PRESIDENT AND DEPUTY DIRECTOR OF COMMUNICATIONS
Higginbottom, Heather A.       Employee       150000 Per Annum  DEPUTY ASSISTANT TO THE PRESIDENT AND DEPUTY DIRECTOR OF THE DOMESTIC POLICY COUNCIL
Rundlet, Peter F.              Employee       158500 Per Annum  DEPUTY ASSISTANT TO THE PRESIDENT AND DEPUTY STAFF SECRETARY
Beliveau, Emmett S.            Employee       130000 Per Annum  DEPUTY ASSISTANT TO THE PRESIDENT AND DIRECTOR OF ADVANCE AND OPERATIONS
Crutchfield, Danielle M.       Employee       130000 Per Annum  DEPUTY ASSISTANT TO THE PRESIDENT AND DIRECTOR OF APPOINTMENTS AND SCHEDULING
Muñoz, Cecilia                Employee       153500 Per Annum  DEPUTY ASSISTANT TO THE PRESIDENT AND DIRECTOR OF INTERGOVERNMENTAL AFFAIRS
Frye, Jocelyn C.               Employee       140000 Per Annum  DEPUTY ASSISTANT TO THE PRESIDENT AND DIRECTOR OF POLICY AND PROJECTS FOR THE FIRST LADY
Hogan, Nancy D.                Employee       145000 Per Annum  DEPUTY ASSISTANT TO THE PRESIDENT AND DIRECTOR OF PRESIDENTIAL PERSONNEL
Tchen, Christina M.            Employee       153500 Per Annum  DEPUTY ASSISTANT TO THE PRESIDENT AND DIRECTOR OF THE OFFICE OF PUBLIC ENGAGEMENT
McDonough, Denis R.            Employee       147500 Per Annum  DEPUTY ASSISTANT TO THE PRESIDENT AND NATIONAL SECURITY COUNCIL CHIEF OF STAFF
Nabors, Robert L.              Employee       162500 Per Annum  DEPUTY ASSISTANT TO THE PRESIDENT AND SENIOR ADVISOR TO THE CHIEF OF STAFF
Smoot, Julianna S.             Employee       150000 Per Annum  DEPUTY ASSISTANT TO THE PRESIDENT AND WHITE HOUSE SOCIAL SECRETARY
Farrell, Diana                 Employee       147500 Per Annum  DEPUTY ASSISTANT TO THE PRESIDENT FOR ECONOMIC POLICY
Zichal, Heather R.             Employee       100000 Per Annum  DEPUTY ASSISTANT TO THE PRESIDENT FOR ENERGY AND CLIMATE CHANGE
Konwinski, Lisa M.             Employee       158500 Per Annum  DEPUTY ASSISTANT TO THE PRESIDENT FOR LEGISLATIVE AFFAIRS
Turton, Daniel A.              Employee       158500 Per Annum  DEPUTY ASSISTANT TO THE PRESIDENT FOR LEGISLATIVE AFFAIRS AND HOUSE LIAISON
Maher, Shawn P.                Employee       158500 Per Annum  DEPUTY ASSISTANT TO THE PRESIDENT FOR LEGISLATIVE AFFAIRS AND SENATE LIAISION
De Sio, Jr., Henry F.          Employee       153300 Per Annum  DEPUTY ASSISTANT TO THE PRESIDENT FOR MANAGEMENT AND ADMINISTRATION
Green, Jason G.                Employee        99000 Per Annum  DEPUTY ASSOCIATE COUNSEL
Bassin, Ian M.                 Employee        99000 Per Annum  DEPUTY ASSOCIATE COUNSEL
Roberts, Blake C.              Employee        99000 Per Annum  DEPUTY ASSOCIATE COUNSEL
Kramer, Douglas J.             Detailee       155500 Per Annum  DEPUTY ASSOCIATE COUNSEL FOR PRESIDENTIAL PERSONNEL
Mack, William B.               Employee        80000 Per Annum  DEPUTY ASSOCIATE COUNSEL FOR PRESIDENTIAL PERSONNEL
Firestone, Daren H.            Detailee       105211 Per Annum  DEPUTY ASSOCIATE COUNSEL FOR PRESIDENTIAL PERSONNEL
Mehrbani, Rodin A.             Employee        80000 Per Annum  DEPUTY ASSOCIATE COUNSEL FOR PRESIDENTIAL PERSONNEL
Markovitz, Alison J.           Employee        80000 Per Annum  DEPUTY ASSOCIATE COUNSEL FOR PRESIDENTIAL PERSONNEL
Edwards, Lisa W.               Detailee       155500 Per Annum  DEPUTY ASSOCIATE COUNSEL FOR PRESIDENTIAL PERSONNEL
Jabbour, Mona K.               Employee        80000 Per Annum  DEPUTY ASSOCIATE COUNSEL FOR PRESIDENTIAL PERSONNEL 
Offerman, Mary F.              Employee        45000 Per Annum  DEPUTY ASSOCIATE DIRECTOR
Odio, Carlos P.                Employee        56100 Per Annum  DEPUTY ASSOCIATE DIRECTOR
Jawando, William O.            Detailee        89033 Per Annum  DEPUTY ASSOCIATE DIRECTOR
Tubman, Samantha J.            Employee        49000 Per Annum  DEPUTY ASSOCIATE DIRECTOR
Koo, Stacy J.                  Employee        55000 Per Annum  DEPUTY ASSOCIATE DIRECTOR
Jackson, Deilia A. L.          Employee        42000 Per Annum  DEPUTY ASSOCIATE DIRECTOR OF CORRESPONDENCE FOR THE FIRST LADY
Rathod, Nicholas S.            Employee        71400 Per Annum  DEPUTY ASSOCIATE DIRECTOR OF INTERGOVERNMENTAL AFFAIRS
Blake, Michael A.              Employee        61200 Per Annum  DEPUTY ASSOCIATE DIRECTOR OF INTERGOVERNMENTAL AFFAIRS
Gillette, Jodi A.              Employee        71400 Per Annum  DEPUTY ASSOCIATE DIRECTOR OF INTERGOVERNMENTAL AFFAIRS
Valencia, Stephanie M.         Employee        61200 Per Annum  DEPUTY ASSOCIATE DIRECTOR OF PUBLIC ENGAGEMENT
Monteiro, Darron P.            Employee        61200 Per Annum  DEPUTY ASSOCIATE DIRECTOR OF PUBLIC ENGAGEMENT
Cizner, Jennifer C.            Employee        85680 Per Annum  DEPUTY CHIEF OF STAFF FOR PRESIDENTIAL PERSONNEL
Stephens, Jeffrey M.           Employee        75000 Per Annum  DEPUTY DIRECTOR
Olmos, Margaret C.             Employee        65000 Per Annum  DEPUTY DIRECTOR
Hash, Michael M.               Detailee       179700 Per Annum  DEPUTY DIRECTOR
Reinstein, Joseph B.           Employee        66300 Per Annum  DEPUTY DIRECTOR AND DEPUTY SOCIAL SECRETARY
Burnough, Erinn J.             Employee        66300 Per Annum  DEPUTY DIRECTOR AND DEPUTY SOCIAL SECRETARY
Larus, Anne K.                 Employee        56100 Per Annum  DEPUTY DIRECTOR AND HOTEL PROGRAM MANAGER
Paulsen, Joseph B.             Employee        56100 Per Annum  DEPUTY DIRECTOR AND SURROGATE SCHEDULER
Wilson, Samuel A.              Employee        45000 Per Annum  DEPUTY DIRECTOR FOR BROADCAST MEDIA
Bedingfield, Katherine J.      Employee        90000 Per Annum  DEPUTY DIRECTOR FOR MEDIA AFFAIRS
Kohnke, Lisa J.                Employee        60000 Per Annum  DEPUTY DIRECTOR OF ADVANCE AND SPECIAL EVENTS FOR THE OFFICE OF INTERGOVERNMENTAL AFFAIRS AND PUBLIC ENGAGEMENT
Fitts, Alan 0.                 Employee        61200 Per Annum  DEPUTY DIRECTOR OF ADVANCE AND TRIP DIRECTOR FOR THE FIRST LADY
Phadke, Shilpa                 Employee        80000 Per Annum  DEPUTY DIRECTOR OF CABINET AFFAIRS
Kimball, Astri B.              Employee        85000 Per Annum  DEPUTY DIRECTOR OF CABINET AFFAIRS
Greenawalt, Andrei M.          Employee        80000 Per Annum  DEPUTY DIRECTOR OF CABINET AFFAIRS
Greene, Norman A.              Employee        66300 Per Annum  DEPUTY DIRECTOR OF FINANCE
McGrath, Shaun L.              Employee        93840 Per Annum  DEPUTY DIRECTOR OF INTERGOVERNMENTAL AFFAIRS
Agnew, David P.                Employee        93840 Per Annum  DEPUTY DIRECTOR OF INTERGOVERNMENTAL AFFAIRS
Terry, Joelle L.               Employee        65000 Per Annum  DEPUTY DIRECTOR OF MESSAGE EVENTS
Sanders, Trooper               Employee        85000 Per Annum  DEPUTY DIRECTOR OF POLICY AND PROJECTS FOR THE FIRST LADY
Bond, Brian K.                 Employee        93840 Per Annum  DEPUTY DIRECTOR OF PUBLIC ENGAGEMENT
Raizk, Paul S.                 Employee       113605 Per Annum  DEPUTY DIRECTOR OF RECORDS MANAGEMENT
Skoczek, Timothy R.            Employee        45000 Per Annum  DEPUTY DIRECTOR OF RESPONSE
Goodman, Jennifer              Employee        63240 Per Annum  DEPUTY DIRECTOR OF SCHEDULING AND EVENTS COORDINATOR FOR THE FIRST LADY
Wright, Jessica N.             Employee        96900 Per Annum  DEPUTY DIRECTOR OF SCHEDULING FOR THE PRESIDENT
Kalbaugh, David E.             Employee       129758 Per Annum  DEPUTY EXECUTIVE CLERK
Santucci, Laura G.             Employee        70000 Per Annum  DEPUTY REGIONAL POLITICAL DIRECTOR
Setser, Bradley W.             Employee       110500 Per Annum  DIRECTOR  
Lelyveld, Catherine M.         Employee        85680 Per Annum  DIRECTOR AND PRESS SECRETARY TO THE FIRST LADY
Ealons, Corey A.               Employee        79560 Per Annum  DIRECTOR OF AFRICAN AMERICAN MEDIA
Papas, Nicholas W.             Detailee        92001 Per Annum  DIRECTOR OF COMMUNICATIONS FOR THE OFFICE OF HEALTH REFORM
Chambers, Caroline M.          Employee       120000 Per Annum  DIRECTOR OF CONFIRMATIONS
Lechtenberg, Tyler A           Employee        50000 Per Annum  DIRECTOR OF CORRESPONDENCE FOR THE FIRST LADY
Mackey, Erin E.                Employee        66300 Per Annum  DIRECTOR OF FINANCE
Miranda, Luis A.               Employee        78000 Per Annum  DIRECTOR OF HISPANIC MEDIA
Turk, Andrea E.                Employee        50000 Per Annum  DIRECTOR OF INFORMATION SERVICES
Lee, Jesse C.                  Employee        71400 Per Annum  DIRECTOR OF ONLINE PROGRAMS
Mueller, Lindsay E.            Employee        66300 Per Annum  DIRECTOR OF OPERATIONS
Sobel, Charlie J.              Employee        55000 Per Annum  DIRECTOR OF OPERATIONS
Lillie, Catherine E.           Employee        70000 Per Annum  DIRECTOR OF PRESS ADVANCE
Droege, Philip C.              Employee       140259 Per Annum  DIRECTOR OF RECORDS MANAGEMENT
Starkey, Frances M.            Employee        80000 Per Annum  DIRECTOR OF SCHEDULING AND ADVANCE FOR THE FIRST LADY
Bhowmik, Rachana               Employee       100000 Per Annum  DIRECTOR OF SPECIAL PROJECTS AND SPECIAL ASSISTANT TO THE OFFICE OF THE CHIEF OF STAFF
Simas, David M.                Employee       100000 Per Annum  DIRECTOR OF SPECIAL PROJECTS AND SPECIAL ASSISTANT TO THE SENIOR ADVISOR
Paige, Lauren R.               Employee        62000 Per Annum  DIRECTOR OF SPECIAL PROJECTS FOR COMMUNICATIONS
Inouye, Shinichi               Employee        78000 Per Annum  DIRECTOR OF SPECIALITY MEDIA
Ryan, Timothy J.               Employee        71400 Per Annum  DIRECTOR OF TECHNOLOGY
Crowley, Jeffrey S.            Employee       102000 Per Annum  DIRECTOR OF THE OFFICE OF NATIONAL AIDS POLICY AND SENIOR ADVISOR ON DISABILITY POLICY
Newell, Peter J.               Employee        71400 Per Annum  DIRECTOR OF TRAVEL OFFICE
Schafer, Ellie S.              Employee        71400 Per Annum  DIRECTOR OF VISITORS OFFICE
Jones, Elizabeth A.            Employee       100000 Per Annum  DIRECTOR OF WHITE HOUSE ADMINISTRATION
McNeal, Melissa K.             Employee        51000 Per Annum  DIRECTOR OF WHITE HOUSE INTERNSHIP PROGRAM
Sahgal, Rishi R.               Employee        66300 Per Annum  DIRECTOR OF WHITE HOUSE PERSONNEL
Harper, Ryan M.                Employee        56100 Per Annum  DOMESTIC DIRECTOR
Hanson, Terry P.               Employee        42000 Per Annum  DOMESTIC STAFF ASSISTANT
Flatgard, Benjamin W.          Employee        55000 Per Annum  ECONOMICS DIRECTOR
Cunningham, Vinson T.          Employee        42000 Per Annum  ECONOMICS STAFF ASSISTANT
Rivadeneira, Shirley C.        Employee        55000 Per Annum  ENERGY AND ENVIRONMENT DIRECTOR
Donovan, William J.            Employee        42000 Per Annum  ENERGY AND ENVIRONMENT STAFF ASSISTANT
Dalheim, Karen L.              Detailee       148510 Per Annum  ETHICS ADVISOR
Rittner, Kathleen A.           Detailee       144868 Per Annum  ETHICS ADVISOR
Nguyen, Alexander T. H.        Detailee       102829 Per Annum  ETHICS ADVISOR
Carrier, Ethan A.              Detailee        94969 Per Annum  ETHICS ADVISOR
Whitty, Patrick M.             Employee        45000 Per Annum  EXECUTIVE ASSISTANT
Hable, Abigail K.              Employee        45000 Per Annum  EXECUTIVE ASSISTANT
Pojman, Natalie R.             Employee        45900 Per Annum  EXECUTIVE ASSISTANT
Thorbjornsen, Lauren K.        Employee        45000 Per Annum  EXECUTIVE ASSISTANT
Bookey-Baker, Natalie F.       Employee        45000 Per Annum  EXECUTIVE ASSISTANT TO THE CHIEF OF STAFF TO THE FIRST LADY
Brewer, Anne P.                Employee        45000 Per Annum  EXECUTIVE ASSISTANT TO THE DIRECTOR OF PUBLIC ENGAGEMENT
Adams, Ian H.                  Employee        45000 Per Annum  EXECUTIVE ASSISTANT TO THE DIRECTOR OF SCHEDULING AND ADVANCE
Wear, Michael R.               Employee        45900 Per Annum  EXECUTIVE ASSISTANT TO THE EXECUTIVE DIRECTOR
Corrigan, Tara C.              Employee        45000 Per Annum  EXECUTIVE ASSISTANT TO THE POLITICAL DIRECTOR
Naidoff, Caitlin L.            Employee        50000 Per Annum  EXECUTIVE ASSISTANT TO THE SENIOR ADVISOR
Saunders, George T.            Employee       155500 Per Annum  EXECUTIVE CLERK
Bisi, Rachel I.                Employee        42000 Per Annum  LEGISLATIVE ASSISTANT
Godfrey, Harrison T.           Employee        42000 Per Annum  LEGISLATIVE ASSISTANT
Lee, Gary S.                   Employee        42000 Per Annum  LEGISLATIVE ASSISTANT
Ocampo, Maria L.               Employee        42000 Per Annum  LEGISLATIVE ASSISTANT
Belive, Lauren E.              Employee        45000 Per Annum  LEGISLATIVE ASSISTANT AND ASSISTANT FOR EVENTS
Ortiz, Michael R.              Employee        45000 Per Annum  LEGISLATIVE ASSISTANT AND ASSISTANT TO THE DIRECTOR'S OFFICE
Harris, Kevin R.               Employee        42000 Per Annum  LEGISLATIVE ASSISTANT AND ASSISTANT TO THE HOUSE LIAISON
Garcia, Kristin M.             Employee        45000 Per Annum  LEGISLATIVE ASSISTANT AND ASSISTANT TO THE SENATE LIAISON
London, Seth A.                Employee        45000 Per Annum  LEGISLATIVE ASSISTANT AND ASSOCIATE DIRECTOR FOR LEGISLATIVE CORRESPONDENCE
Loeb, Emily M.                 Employee        60000 Per Annum  LEGISLATIVE COUNSEL AND POLICY ADVISOR
Bates, Andrew J.               Employee        42000 Per Annum  MEDIA MONITOR
Spencer, Jane C.               Employee        76500 Per Annum  MIDWEST POLITICAL DIRECTOR
Lehrich, Matthew A.            Employee        65000 Per Annum  MIDWESTERN REGIONAL COMMUNICATIONS DIRECTOR
Jones, James L.                Employee       172200 Per Annum  NATIONAL SECURITY ADVISOR
Mayekar, Samir S.              Employee        56100 Per Annum  NATIONAL SECURITY DIRECTOR
Sirbu, Mara L.                 Employee        42000 Per Annum  NATIONAL SECURITY STAFF ASSISTANT
Edgerton, Erin M.              Detailee        89033 Per Annum  NEW MEDIA ANALYST
Jean-Pierre, Karine            Employee        76500 Per Annum  NORTHEAST POLITICAL DIRECTOR
Muntz, Moira K. M.             Employee        66300 Per Annum  NORTHEAST REGIONAL COMMUNICATIONS DIRECTOR
Sinha, Manish                  Employee        42000 Per Annum  OPERATIONS STAFF ASSISTANT
DeGuzman, Brian K.             Employee        42738 Per Annum  OPERATOR  
Cardwell, Rebecca A.           Employee        43656 Per Annum  OPERATOR  
Hiatt, Natalie M.              Employee        42000 Per Annum  OPERATOR  
Mosteller, Brian D.            Employee        90000 Per Annum  PERSONAL AIDE TO THE PRESIDENT
Johnson, Katherine B.          Employee        90000 Per Annum  PERSONAL AIDE TO THE PRESIDENT
Wong, Shale L.                 Employee            0 Per Annum  POLICY ADVISOR
Schuker, Daniel J. T.          Employee        55080 Per Annum  POLICY ADVISOR
Wang-Levine, Adam              Employee        55080 Per Annum  POLICY ADVISOR
Buffett, Howard W.             Detailee        51630 Per Annum  POLICY ADVISOR
Fernkas, Robin E.              Detailee       126251 Per Annum  POLICY ADVISOR
Seymour, Jennifer D.           Detailee       107770 Per Annum  POLICY ADVISOR
Vanderslice, Mara L.           Detailee        92001 Per Annum  POLICY ADVISOR
McCarthy, Mary N.              Detailee       155500 Per Annum  POLICY ADVISOR
Moilanen, Stephen S.           Employee        45000 Per Annum  POLICY ANALYST
Levine, Jacob C.               Employee        45000 Per Annum  POLICY ANALYST
Gage, Peter T.                 Detailee        94969 Per Annum  POLICY ANALYST
Anderson, Charles D.           Employee        51000 Per Annum  POLICY ASSISTANT
Pope, David F.                 Employee        51000 Per Annum  POLICY ASSISTANT
Zelman, Allison L.             Employee        50000 Per Annum  POLICY ASSISTANT
Love, Timothy P.               Detailee       179700 Per Annum  POLICY DIRECTOR
Lovett, Jonathan I.            Employee        75000 Per Annum  PRESIDENTIAL SPEECHWRITER
Keenan, Cody S.                Employee        75000 Per Annum  PRESIDENTIAL SPEECHWRITER
Pate, Brian E.                 Employee        46745 Per Annum  PRESIDENTIAL SUPPORT SPECIALIST
DeGuzman, Jr., Danilo          Employee        72876 Per Annum  PRESIDENTIAL SUPPORT SPECIALIST
Showers, Wendy W.              Employee        84855 Per Annum  PRESIDENTIAL SUPPORT SPECIALIST
Lewin, Jesse M.                Employee        42000 Per Annum  PRESS ASSISTANT
Lewis, Kevin S.                Employee        42000 Per Annum  PRESS ASSISTANT
Hughes, Caroline E.            Employee        42000 Per Annum  PRESS ASSISTANT
Neralla, Venkateswar N.        Employee        75480 Per Annum  PRIORITY PLACEMENT DIRECTOR
O'Neil, Michael P.             Employee        81600 Per Annum  PRIORITY PLACEMENT DIRECTOR
Cokley, Rebecca A.             Employee        72000 Per Annum  PRIORITY PLACEMENT DIRECTOR
Portilla, Zachary A.           Employee        42000 Per Annum  PRIORITY PLACEMENT STAFF ASSISTANT
Wade, Frances J.               Employee        44402 Per Annum  RECORDS MANAGEMENT ANALYST
Hoang, Vy T.                   Employee        44402 Per Annum  RECORDS MANAGEMENT ANALYST
Samuels, Jr., Wendell A.       Employee        60232 Per Annum  RECORDS MANAGEMENT ANALYST
Jackson, Elizabeth J.          Employee        37983 Per Annum  RECORDS MANAGEMENT ANALYST
Young, Jr., Reginald D.        Employee        60232 Per Annum  RECORDS MANAGEMENT ANALYST
Young, Latoya A.               Employee        58511 Per Annum  RECORDS MANAGEMENT ANALYST
Lartey, Solomon D.             Employee        56092 Per Annum  RECORDS MANAGEMENT ANALYST
Millison, Chad L.              Employee        60232 Per Annum  RECORDS MANAGEMENT ANALYST
Edmonds, Anita J.              Employee        49069 Per Annum  RECORDS MANAGEMENT ANALYST
Freeman, Myra B.               Employee        73917 Per Annum  RECORDS MANAGEMENT ANALYST
Lezotte, Darin R.              Employee        62544 Per Annum  RECORDS MANAGEMENT ANALYST
Voorman, David A.              Employee        45594 Per Annum  RECORDS MANAGEMENT ANALYST
Blount, Patricia H.            Employee        44402 Per Annum  RECORDS MANAGEMENT ANALYST
Liegel, Christopher J.         Employee        37826 Per Annum  RECORDS MANAGEMENT ANALYST
King, Taeshonnda C.            Employee        60232 Per Annum  RECORDS MANAGEMENT ANALYST
Pipkins, Desiree E.            Employee        50000 Per Annum  RESEARCH ASSISTANT
Jones, Kristin T.              Employee        42000 Per Annum  RESEARCH ASSOCIATE
Cunningham, Jason F.           Detailee        64548 Per Annum  RESEARCHER
Chaifetz, Samantha L.          Detailee       123758 Per Annum  RESEARCHER
Gomez, David F.                Employee        45000 Per Annum  RESEARCHER
Birdsall, Kristen S.           Employee        45900 Per Annum  RESEARCHER
Kochman, Katherine H.          Employee        45000 Per Annum  SCHEDULER FOR CHIEF OF STAFF
Jarrett, Valerie B.            Employee       172200 Per Annum  SENIOR ADVISOR AND ASSISTANT TO THE PRESIDENT FOR INTERGOVERNMENTAL AFFAIRS AND PUBLIC ENGAGEMENT
Weiser, Philip J.              Detailee       172000 Per Annum  SENIOR ADVISOR FOR TECHNOLOGY AND INNOVATION TO THE NATIONAL ECONOMIC COUNCIL DIRECTOR
Asen, Jonathan D.              Employee        42000 Per Annum  SENIOR ANALYST
Campbell, Nnaji-Semayi K.      Employee        42000 Per Annum  SENIOR ANALYST
Swanson, Gregory C.            Employee        42000 Per Annum  SENIOR ANALYST
Stickel, Nicole T.             Employee        42000 Per Annum  SENIOR ANALYST
Ford, Harrison A.              Employee        42000 Per Annum  SENIOR ANALYST
Smith, Kelley S.               Employee        42000 Per Annum  SENIOR ANALYST
Smith, Jason J.                Employee        42000 Per Annum  SENIOR ANALYST
Mrazek, Susannah R.            Employee        42000 Per Annum  SENIOR ANALYST
Davis, Christopher E.          Employee        76500 Per Annum  SENIOR LEGISLATIVE AFFAIRS ANALYST
Escobar, Felicia A.            Employee        90000 Per Annum  SENIOR POLICY ADVISOR
Millett, Gregorio A.           Detailee       115731 Per Annum  SENIOR POLICY ADVISOR
Noel, Pascal J.                Employee        59160 Per Annum  SENIOR POLICY ADVISOR
McGuire, MaryEllen C.          Employee        91800 Per Annum  SENIOR POLICY ADVISOR FOR EDUCATION
Teehee, Kimberly K.            Employee       100000 Per Annum  SENIOR POLICY ADVISOR FOR NATIVE AMERICAN AFFAIRS
Monje, Jr., Carlos A.          Employee        91800 Per Annum  SENIOR POLICY ADVISOR FOR SOCIAL INNOVATION AND CIVIC PARTICIPATION
Massey, Katherine              Detailee       165000 Per Annum  SENIOR POLICY DIRECTOR
Albino, James                  Employee        91800 Per Annum  SENIOR PROGRAM MANAGER
Murtha, Katherine R.           Employee        50000 Per Annum  SENIOR VETTER
Reeves, Fiona O.               Employee        51000 Per Annum  SENIOR WRITER
Sibley, Sarah E.               Employee        50000 Per Annum  SENIOR WRITER
Tucci, Rosarie G.              Employee        51000 Per Annum  SENIOR WRITER
Jackson, Theresa R.            Employee        64439 Per Annum  SHIFT LEADER
Johnson, Linda M.              Employee        66335 Per Annum  SHIFT LEADER
Clarke, Kay F.                 Employee        64439 Per Annum  SHIFT LEADER
Lerner, Jeffrey B. W.          Employee        76500 Per Annum  SOUTHERN POLITICAL DIRECTOR
Amorsingh, Lucius L.           Employee        56092 Per Annum  SPECIAL ASSISTANT
Hitchcock, Adam S.             Employee        51000 Per Annum  SPECIAL ASSISTANT
Roddick, Gertrude A.           Employee        89846 Per Annum  SPECIAL ASSISTANT
Binns, Mary U.                 Employee        70126 Per Annum  SPECIAL ASSISTANT
Trainor, Gregory T.            Employee        68230 Per Annum  SPECIAL ASSISTANT
Chen, Margaret C.              Employee            0 Per Annum  SPECIAL ASSISTANT
Mattson, Philip C.             Employee        60232 Per Annum  SPECIAL ASSISTANT
Devine, Carrie S.              Employee        56100 Per Annum  SPECIAL ASSISTANT AND ADVANCE LEAD
Ruemmler, Michael L.           Employee        56100 Per Annum  SPECIAL ASSISTANT AND ADVANCE LEAD
Becnel, Bradley D.             Employee        55000 Per Annum  SPECIAL ASSISTANT AND ADVANCE LEAD
Brush, Michael P.              Employee        56100 Per Annum  SPECIAL ASSISTANT AND ADVANCE LEAD
Lewis, Dana M.                 Employee        66000 Per Annum  SPECIAL ASSISTANT AND PERSONAL AIDE TO THE FIRST LADY
Maska, Johanna M.              Employee        56100 Per Annum  SPECIAL ASSISTANT AND PRESS LEAD
Lepow, Brandon D.              Employee        55000 Per Annum  SPECIAL ASSISTANT AND PRESS LEAD
Jarvis, Kristen E.             Employee        51000 Per Annum  SPECIAL ASSISTANT FOR SCHEDULING AND TRAVELING AIDE TO THE FIRST LADY
Milakofsky, Benjamin E.        Employee        45000 Per Annum  SPECIAL ASSISTANT TO THE CABINET SECRETARY
Anderson, Amanda D.            Employee        60000 Per Annum  SPECIAL ASSISTANT TO THE CHIEF OF STAFF
Witt, Abigail                  Employee        45000 Per Annum  SPECIAL ASSISTANT TO THE CHIEF OF STAFF OF THE OFFICE OF INTERGOVERNMENTAL AFFAIRS AND PUBLIC ENGAGEMENT
Siegel, Avra C.                Employee        50000 Per Annum  SPECIAL ASSISTANT TO THE DEPUTY ASSISTANT TO THE PRESIDENT
Watkins, Kyle D.               Employee        45000 Per Annum  SPECIAL ASSISTANT TO THE DEPUTY ASSISTANT TO THE PRESIDENT
Sheehy, Kristin J.             Employee        60000 Per Annum  SPECIAL ASSISTANT TO THE DEPUTY CHIEF OF STAFF
Campoverdi, Alejandra M.       Employee        60000 Per Annum  SPECIAL ASSISTANT TO THE DEPUTY CHIEF OF STAFF
Jung, Bryan                    Employee        50000 Per Annum  SPECIAL ASSISTANT TO THE DIRECTOR
Kammerer, Chelsea J.           Employee        56100 Per Annum  SPECIAL ASSISTANT TO THE DIRECTOR OF INTERGOVERNMENTAL AFFAIRS
Yeager Kaplan, Jennifer F.     Employee        66300 Per Annum  SPECIAL ASSISTANT TO THE DIRECTOR OF PUBLIC ENGAGEMENT
Gonzalez, Roberto J.           Employee       114000 Per Annum  SPECIAL ASSISTANT TO THE PRESIDENT AND  ASSOCIATE COUNSEL TO THE PRESIDENT
Beinart, Diana H.              Employee       130500 Per Annum  SPECIAL ASSISTANT TO THE PRESIDENT AND ASSOCIATE COUNSEL TO THE PRESIDENT
Kravis, Jonathan I.            Employee       130500 Per Annum  SPECIAL ASSISTANT TO THE PRESIDENT AND ASSOCIATE COUNSEL TO THE PRESIDENT
Burman, Kendall C.             Employee       130500 Per Annum  SPECIAL ASSISTANT TO THE PRESIDENT AND ASSOCIATE COUNSEL TO THE PRESIDENT
Gottlieb, Michael J.           Employee       114000 Per Annum  SPECIAL ASSISTANT TO THE PRESIDENT AND ASSOCIATE COUNSEL TO THE PRESIDENT
Espinel, Zulima L.             Employee       130500 Per Annum  SPECIAL ASSISTANT TO THE PRESIDENT AND ASSOCIATE COUNSEL TO THE PRESIDENT
Harris, Kimberley D.           Employee       130500 Per Annum  SPECIAL ASSISTANT TO THE PRESIDENT AND ASSOCIATE COUNSEL TO THE PRESIDENT
Andrias, Kate E.               Employee       130500 Per Annum  SPECIAL ASSISTANT TO THE PRESIDENT AND ASSOCIATE COUNSEL TO THE PRESIDENT
Shaw, Katherine                Employee       130500 Per Annum  SPECIAL ASSISTANT TO THE PRESIDENT AND ASSOCIATE COUNSEL TO THE PRESIDENT
Gray, Danielle C.              Employee       130500 Per Annum  SPECIAL ASSISTANT TO THE PRESIDENT AND ASSOCIATE COUNSEL TO THE PRESIDENT
Nathan, Alison J.              Employee       130500 Per Annum  SPECIAL ASSISTANT TO THE PRESIDENT AND ASSOCIATE COUNSEL TO THE PRESIDENT
McLaughlin, Margaret T.        Employee       120000 Per Annum  SPECIAL ASSISTANT TO THE PRESIDENT AND CHIEF OF STAFF FOR PRESIDENTIAL PERSONNEL
Onek, Matthew M.               Employee       110000 Per Annum  SPECIAL ASSISTANT TO THE PRESIDENT AND CHIEF OF STAFF OF THE DOMESTIC POLICY COUNCIL
Strautmanis, Michael A.        Employee       139500 Per Annum  SPECIAL ASSISTANT TO THE PRESIDENT AND CHIEF OF STAFF OF THE OFFICE OF INTERGOVERNMENTAL AFFAIRS AND PUBLIC ENGAGEMENT
Dale, Kareem A.                Employee        61200 Per Annum  SPECIAL ASSISTANT TO THE PRESIDENT AND DEPUTY ASSOCIATE DIRECTOR OF PUBLIC ENGAGEMENT
Winter, Melissa                Employee       102000 Per Annum  SPECIAL ASSISTANT TO THE PRESIDENT AND DEPUTY CHIEF OF STAFF TO THE FIRST LADY
Cusack, David J.               Employee       102000 Per Annum  SPECIAL ASSISTANT TO THE PRESIDENT AND DEPUTY DIRECTOR OF ADVANCE
Dillon, Michael P.             Employee       113000 Per Annum  SPECIAL ASSISTANT TO THE PRESIDENT AND DEPUTY DIRECTOR OF POLITICAL AFFAIRS
McBride, Jonathan D.           Employee       130000 Per Annum  SPECIAL ASSISTANT TO THE PRESIDENT AND DEPUTY DIRECTOR OF PRESIDENTIAL PERSONNEL
Earnest, Joshua R.             Employee       113000 Per Annum  SPECIAL ASSISTANT TO THE PRESIDENT AND DEPUTY PRESS SECRETARY
Burton, William A.             Employee       113000 Per Annum  SPECIAL ASSISTANT TO THE PRESIDENT AND DEPUTY PRESS SECRETARY
Vega, Dagoberto                Employee       100000 Per Annum  SPECIAL ASSISTANT TO THE PRESIDENT AND DIRECTOR OF BROADCAST MEDIA
Johnston, Camille Y.           Employee       102000 Per Annum  SPECIAL ASSISTANT TO THE PRESIDENT AND DIRECTOR OF COMMUNICATIONS FOR THE FIRST LADY
Fernandez, Micaela J.          Employee       102000 Per Annum  SPECIAL ASSISTANT TO THE PRESIDENT AND DIRECTOR OF EVENTS AND PROTOCOL
Gavin, Jr., Thomas E.          Employee       102000 Per Annum  SPECIAL ASSISTANT TO THE PRESIDENT AND DIRECTOR OF MEDIA AFFAIRS
Leger, Daniella G.             Employee       102000 Per Annum  SPECIAL ASSISTANT TO THE PRESIDENT AND DIRECTOR OF MESSAGE EVENTS
Phillips, III, Robert M.       Employee       115000 Per Annum  SPECIAL ASSISTANT TO THE PRESIDENT AND DIRECTOR OF NEW MEDIA
Kelleher, Jr., Francis M.      Employee       110000 Per Annum  SPECIAL ASSISTANT TO THE PRESIDENT AND DIRECTOR OF PRESIDENTIAL CORRESPONDENCE
Jarvis-Shean, Elizabeth P.     Employee       100000 Per Annum  SPECIAL ASSISTANT TO THE PRESIDENT AND DIRECTOR OF RESEARCH
Kale, Katy A.                  Employee       130500 Per Annum  SPECIAL ASSISTANT TO THE PRESIDENT AND DIRECTOR OF WHITE HOUSE OPERATIONS
DuBois, Joshua P.              Employee       100000 Per Annum  SPECIAL ASSISTANT TO THE PRESIDENT AND EXECUTIVE DIRECTOR OF THE WHITE HOUSE OFFICE OF FAITH-BASED AND NEIGHBORHOOD PARTNERSHIPS
Love, Reginald L.              Employee       102000 Per Annum  SPECIAL ASSISTANT TO THE PRESIDENT AND PERSONAL AIDE TO THE PRESIDENT
Webster, Meridith A.           Employee       120000 Per Annum  SPECIAL ASSISTANT TO THE PRESIDENT AND SENIOR ADVISOR TO THE CHIEF OF STAFF
Frankel, Adam P.               Employee       100000 Per Annum  SPECIAL ASSISTANT TO THE PRESIDENT AND SENIOR PRESIDENTIAL SPEECHWRITER
Hurwitz, Sarah K.              Employee       100000 Per Annum  SPECIAL ASSISTANT TO THE PRESIDENT AND SENIOR PRESIDENTIAL SPEECHWRITER
Krass, Caroline D.             Employee       130500 Per Annum  SPECIAL ASSISTANT TO THE PRESIDENT AND SPECIAL COUNSEL TO THE PRESIDENT
Camuñez, Michael C.           Employee       140000 Per Annum  SPECIAL ASSISTANT TO THE PRESIDENT AND SPECIAL COUNSEL TO THE PRESIDENT
Eisen, Norman L.               Employee       149000 Per Annum  SPECIAL ASSISTANT TO THE PRESIDENT AND SPECIAL COUNSEL TO THE PRESIDENT
Nicholson, Jr., Marvin D.      Employee       130000 Per Annum  SPECIAL ASSISTANT TO THE PRESIDENT AND TRIP DIRECTOR
Swire, Peter P.                Employee       130500 Per Annum  SPECIAL ASSISTANT TO THE PRESIDENT FOR ECONOMIC POLICY
Deese, Brian C.                Employee       130500 Per Annum  SPECIAL ASSISTANT TO THE PRESIDENT FOR ECONOMIC POLICY
Levine, Marne L.               Employee       130500 Per Annum  SPECIAL ASSISTANT TO THE PRESIDENT FOR ECONOMIC POLICY AND CHIEF OF STAFF OF THE NATIONAL ECONOMIC COUNCIL
Rodriguez, Roberto J.          Employee       120000 Per Annum  SPECIAL ASSISTANT TO THE PRESIDENT FOR EDUCATION POLICY
Aldy, Jr., Joseph E.           Employee       130500 Per Annum  SPECIAL ASSISTANT TO THE PRESIDENT FOR ENERGY AND ENVIRONMENT
Goodman, Mary B.               Employee       130500 Per Annum  SPECIAL ASSISTANT TO THE PRESIDENT FOR FINANCIAL MARKETS
Kocher, Robert P.              Employee       130500 Per Annum  SPECIAL ASSISTANT TO THE PRESIDENT FOR HEALTHCARE AND ECONOMIC POLICY
Lipton, David A.               Employee       149000 Per Annum  SPECIAL ASSISTANT TO THE PRESIDENT FOR INTERNATIONAL ECONOMIC AFFAIRS
Kennedy, Sean D.               Employee       130500 Per Annum  SPECIAL ASSISTANT TO THE PRESIDENT FOR LEGISLATIVE AFFAIRS
Perez, Alejandro               Employee       130500 Per Annum  SPECIAL ASSISTANT TO THE PRESIDENT FOR LEGISLATIVE AFFAIRS
Terrell, Louisa M.             Employee       130500 Per Annum  SPECIAL ASSISTANT TO THE PRESIDENT FOR LEGISLATIVE AFFAIRS
Wilson, Denise R.              Employee       130500 Per Annum  SPECIAL ASSISTANT TO THE PRESIDENT FOR LEGISLATIVE AFFAIRS
Kang, Christopher D.           Employee       130500 Per Annum  SPECIAL ASSISTANT TO THE PRESIDENT FOR LEGISLATIVE AFFAIRS
Papa, Gregory J.               Employee       130500 Per Annum  SPECIAL ASSISTANT TO THE PRESIDENT FOR LEGISLATIVE AFFAIRS
Heimbach, James T.             Employee       130500 Per Annum  SPECIAL ASSISTANT TO THE PRESIDENT FOR LEGISLATIVE AFFAIRS
Samuels, Jonathan D.           Employee       130500 Per Annum  SPECIAL ASSISTANT TO THE PRESIDENT FOR LEGISLATIVE AFFAIRS
Singiser, Dana E.              Employee       130500 Per Annum  SPECIAL ASSISTANT TO THE PRESIDENT FOR LEGISLATIVE AFFAIRS
Stoneman, Shelly O.            Employee       130500 Per Annum  SPECIAL ASSISTANT TO THE PRESIDENT FOR LEGISLATIVE AFFAIRS
Coven, Martha B.               Employee       120000 Per Annum  SPECIAL ASSISTANT TO THE PRESIDENT FOR MOBILTY AND OPPORTUNITY POLICY
Jamison, Linda S.              Employee       113000 Per Annum  SPECIAL ASSISTANT TO THE PRESIDENT FOR PRESIDENTIAL PERSONNEL
Martin, Joanna G.              Employee       102000 Per Annum  SPECIAL ASSISTANT TO THE PRESIDENT FOR PRESIDENTIAL PERSONNEL
Green, Valerie E.              Employee       113000 Per Annum  SPECIAL ASSISTANT TO THE PRESIDENT FOR PRESIDENTIAL PERSONNEL
Douglas, Derek R. B.           Employee       120000 Per Annum  SPECIAL ASSISTANT TO THE PRESIDENT FOR URBAN AFFAIRS
Hopkins, Marissa C.            Employee        60000 Per Annum  SPECIAL ASSISTANT TO THE PRESS SECRETARY
Oxtoby, John T.                Employee        42000 Per Annum  SPECIAL ASSISTANT TO THE SENIOR ADVISOR
Branch, Katherine Y.           Employee        61200 Per Annum  SPECIAL ASSISTANT TO THE SENIOR ADVISOR
Lesser, Eric P.                Employee        60000 Per Annum  SPECIAL ASSISTANT TO THE SENIOR ADVISOR
Carter, Rhonda M.              Employee        57000 Per Annum  SPECIAL ASSISTANT TO THE WHITE HOUSE COUNSEL
Colvin, Nicholas M.            Employee        63240 Per Annum  SPECIAL ASSISTANT TO THE WHITE HOUSE COUNSEL
Kang, Eugene J.                Employee        48095 Per Annum  SPECIAL PROJECTS COORDINATOR
Luck, Deatrice N.              Employee        43860 Per Annum  SPECIAL SERVICES OPERATOR
Watson, Takesha R.             Employee        43860 Per Annum  SPECIAL SERVICES OPERATOR
Roche, Mary K.                 Employee        60000 Per Annum  SPEECHWRITER
Schmuck, Robert E.             Employee        42000 Per Annum  STAFF ASSISTANT
Cuba, Juan C.                  Employee        42000 Per Annum  STAFF ASSISTANT
Groth, Travis R.               Employee        42840 Per Annum  STAFF ASSISTANT
Northern, Mary G.              Employee        42000 Per Annum  STAFF ASSISTANT
Leitner-Laserna, Sofia I.      Employee (part-time)      21000 Per Annum  STAFF ASSISTANT
Pope, Jamal A.                 Employee        42000 Per Annum  STAFF ASSISTANT
Hernandez, Philip M.           Employee        42000 Per Annum  STAFF ASSISTANT
Alley, Hilary J.               Employee        42000 Per Annum  STAFF ASSISTANT
Carden, Meredith M.            Employee        42000 Per Annum  STAFF ASSISTANT
Baggetto, Maude L.             Employee        42000 Per Annum  STAFF ASSISTANT
Young, Katherine H.            Employee        42000 Per Annum  STAFF ASSISTANT
Pulliam, Allison C.            Employee        42000 Per Annum  STAFF ASSISTANT
Conrad, Shasti K.              Employee        42000 Per Annum  STAFF ASSISTANT
Limon, Noerena                 Employee        42000 Per Annum  STAFF ASSISTANT
Cobbina, Kwesi A.              Employee        42000 Per Annum  STAFF ASSISTANT
Fenn, Sarah B.                 Employee        42000 Per Annum  STAFF ASSISTANT
Chhabra, Anand                 Employee        42000 Per Annum  STAFF ASSISTANT
Fergenson, Micah F.            Employee        42000 Per Annum  STAFF ASSISTANT
Block, Michael R.              Employee        42000 Per Annum  STAFF ASSISTANT
Kennedy, Joseph B.             Employee        42000 Per Annum  STAFF ASSISTANT
Tranchin, Matthew A.           Employee        42000 Per Annum  STAFF ASSISTANT
Thomas, Maria A.               Employee        42000 Per Annum  STAFF ASSISTANT
Frank, April P.                Employee        42000 Per Annum  STAFF ASSISTANT
Tennison, Angela N.            Employee        42000 Per Annum  STAFF ASSISTANT
Roach, Cynthia L.              Employee       100904 Per Annum  SUPERVISOR OF CLASSIFICATION
Tucker, Phyllis J.             Employee        89033 Per Annum  SUPERVISOR OF COMPUTER ADMINISTRATION
Brooke, Mary J.                Employee        89033 Per Annum  SUPERVISOR OF CORRESPONDENCE REVIEW
Stone, Wandra E.               Employee       112774 Per Annum  SUPERVISOR OF SEARCH AND FILE
Rosalsky, Gregory E.           Employee        45000 Per Annum  VETTER    
Kelly, Allison K.              Employee        45000 Per Annum  VETTER    
Page, Darienne M.              Employee        42000 Per Annum  WEST WING RECEPTIONIST
Schwartz, Alison K.            Employee        75000 Per Annum  WESTERN POLITICAL DIRECTOR
Abrams, Adam W.                Employee        66300 Per Annum  WESTERN REGIONAL COMMUNICATIONS DIRECTOR
Vale, Elizabeth A.             Detailee       132009 Per Annum  WHITE HOUSE BUSINESS LIAISON
