Name                           Status         Salary Pay Basis  Position Title
====================================================================================================================================
Jones, Crystal B.              Employee        87350 Per Annum  "ASSISTANT SUPERVISOR
Nabors, Robert L.              Employee       172200 Per Annum  "ASSISTANT TO THE PRESIDENT AND DIRECTOR
Cobbina, Kwesi A.              Employee        65000 Per Annum  "CHIEF OF STAFF
Tseggai, Gannet L.             Employee        78000 Per Annum  "COMMUNICATIONS ADVISOR
Beliveau, Emmett S.            Employee       130000 Per Annum  "DEPUTY ASSISTANT TO THE PRESIDENT AND DIRECTOR
Shah, Sonal R.                 Employee       120000 Per Annum  "DEPUTY ASSISTANT TO THE PRESIDENT AND DIRECTOR
Cuellar, Martin E.             Employee        91800 Per Annum  "DEPUTY DIRECTOR
Dunn, Lauren P.                Employee        50000 Per Annum  "POLICY ASSISTANT
Palm, Andrea J.                Detailee       150000 Per Annum  "SENIOR ADVISOR FOR HEALTH
Parrott, James M.              Detailee       140259 Per Annum  "SENIOR ADVISOR FOR HOUSING
Deese, Brian C.                Employee       130500 Per Annum  "SPECIAL ASSISTANT TO THE PRESIDENT AND DEPUTY DIRECTOR
Campbell, Frances L.           Employee       103872 Per Annum  "SUPERVISOR
McGinnis, Patricia G.          Employee            0 Per Annum  ADVISOR   
Read, Benjamin S.              Employee        42000 Per Annum  ANALYST   
Hull, Carolyn A.               Employee        42000 Per Annum  ANALYST   
Cox, Shileta J.                Detailee        66630 Per Annum  ANALYST   
Keeney, Andrew J.              Employee        42000 Per Annum  ANALYST   
Shannon, Sara M.               Employee        42000 Per Annum  ANALYST   
McCullough, Duncan J.          Employee        42000 Per Annum  ANALYST   
Grady, Sean M.                 Employee        42000 Per Annum  ANALYST   
Spooner, Sarah C.              Employee        42000 Per Annum  ANALYST   
Grimes, Stephen H.             Employee        42000 Per Annum  ANALYST   
Van Es, Christopher J.         Employee        42000 Per Annum  ANALYST   
Graubard, Vivian P.            Employee        42000 Per Annum  ANALYST   
Owens, Rodrick T.              Employee        42000 Per Annum  ANALYST   
Upperman, Christopher R.       Employee        42000 Per Annum  ANALYST   
O'Neill, Brendan A.            Employee        42000 Per Annum  ANALYST   
Houshower, Samuel B.           Employee        50000 Per Annum  ASSISTANT COUNSEL
Fenn, Sarah B.                 Employee        60000 Per Annum  ASSISTANT COUNSEL OF ETHICS
Reeves, Fiona O.               Employee        51000 Per Annum  ASSISTANT DIRECTOR
Ford, Harrison A.              Employee        50000 Per Annum  ASSISTANT DIRECTOR
Grant, Kathryn A.              Employee        50000 Per Annum  ASSISTANT DIRECTOR
Schaub, Matthew J.             Employee        50000 Per Annum  ASSISTANT DIRECTOR
Stoev, Ivan S.                 Employee        50000 Per Annum  ASSISTANT DIRECTOR
Hegde, Shilpa S.               Employee        50000 Per Annum  ASSISTANT DIRECTOR
Milakofsky, Benjamin E.        Employee        50000 Per Annum  ASSISTANT DIRECTOR OF CABINET AFFAIRS
Block, Michael R.              Employee        50000 Per Annum  ASSISTANT DIRECTOR OF INTERGOVERNMENTAL AFFAIRS
Page, Darienne M.              Employee        50000 Per Annum  ASSISTANT DIRECTOR OF PUBLIC ENGAGEMENT
McCathran, William W.          Employee       106839 Per Annum  ASSISTANT EXECUTIVE CLERK
Thomas, III, Edwin R.          Employee       100904 Per Annum  ASSISTANT EXECUTIVE CLERK
Papas, Nicholas W.             Employee        84250 Per Annum  ASSISTANT PRESS SECRETARY
Stevens, Clark W.              Employee        84250 Per Annum  ASSISTANT PRESS SECRETARY
Brundage, Amy J.               Employee        84250 Per Annum  ASSISTANT PRESS SECRETARY
Lehrich, Matthew A.            Employee        84250 Per Annum  ASSISTANT PRESS SECRETARY
O'Connor, Kyle P.              Employee        50000 Per Annum  ASSISTANT SPEECHWRITER
Lechtenberg, Tyler A.          Employee        50000 Per Annum  ASSISTANT SPEECHWRITER
Sibley, Sarah E.               Employee        60000 Per Annum  ASSISTANT STAFF SECRETARY
Chiodo, Theodore A.            Employee        65000 Per Annum  ASSISTANT STAFF SECRETARY
Hurley, Caitlin G.             Employee        60000 Per Annum  ASSISTANT STAFF SECRETARY
Parker, Doris D.               Employee        82359 Per Annum  ASSISTANT SUPERVISOR OF CLASSIFICATION
Taggart, Jr., Hugh T.          Employee        92341 Per Annum  ASSISTANT SUPERVISOR OF SEARCH AND FILE
Neiman, Wanda M.               Employee        74958 Per Annum  ASSISTANT TO THE EXECUTIVE CLERK
Williams, Sherman A.           Employee        77040 Per Annum  ASSISTANT TO THE EXECUTIVE CLERK
Lu, Christopher P.             Employee       172200 Per Annum  ASSISTANT TO THE PRESIDENT AND CABINET SECRETARY
Daley, William M.              Employee       172200 Per Annum  ASSISTANT TO THE PRESIDENT AND CHIEF OF STAFF
Tchen, Christina M.            Employee       172200 Per Annum  ASSISTANT TO THE PRESIDENT AND CHIEF OF STAFF TO THE FIRST LADY
Ruemmler, Kathryn H.           Employee       172200 Per Annum  ASSISTANT TO THE PRESIDENT AND COUNSEL TO THE PRESIDENT
Lane, David J.                 Employee       172200 Per Annum  ASSISTANT TO THE PRESIDENT AND COUNSELOR TO THE CHIEF OF STAFF
Mastromonaco, Alyssa M.        Employee       172200 Per Annum  ASSISTANT TO THE PRESIDENT AND DEPUTY CHIEF OF STAFF FOR OPERATIONS
DeParle, Nancy-Ann Min         Employee       172200 Per Annum  ASSISTANT TO THE PRESIDENT AND DEPUTY CHIEF OF STAFF FOR POLICY
McDonough, Denis R.            Employee       172200 Per Annum  ASSISTANT TO THE PRESIDENT AND DEPUTY NATIONAL SECURITY ADVISOR
Cutter, Stephanie N.           Employee       172200 Per Annum  ASSISTANT TO THE PRESIDENT AND DEPUTY SENIOR ADVISOR
Pfeiffer, Howard D.            Employee       172200 Per Annum  ASSISTANT TO THE PRESIDENT AND DIRECTOR OF COMMUNICATIONS
Favreau, Jonathan E.           Employee       172200 Per Annum  ASSISTANT TO THE PRESIDENT AND DIRECTOR OF SPEECHWRITING
Barnes, Melody C.              Employee       172200 Per Annum  ASSISTANT TO THE PRESIDENT AND DIRECTOR OF THE DOMESTIC POLICY COUNCIL
Donilon, Thomas E.             Employee       172200 Per Annum  ASSISTANT TO THE PRESIDENT AND NATIONAL SECURITY ADVISOR
Carney, James F.               Employee       172200 Per Annum  ASSISTANT TO THE PRESIDENT AND PRESS SECRETARY
Furman, Jason L.               Employee       147500 Per Annum  ASSISTANT TO THE PRESIDENT AND PRINCIPAL DEPUTY DIRECTOR OF THE NATIONAL ECONOMIC COUNCIL
Plouffe, David A.              Employee       172200 Per Annum  ASSISTANT TO THE PRESIDENT AND SENIOR ADVISOR
Schiliro, Philip M.            Employee       172200 Per Annum  ASSISTANT TO THE PRESIDENT AND SPECIAL ADVISOR
Sperling, Eugene B.            Employee       172200 Per Annum  ASSISTANT TO THE PRESIDENT FOR ECONOMIC POLICY AND DIRECTOR OF THE NATIONAL ECONOMIC COUNCIL
Brennan, John O.               Employee       172200 Per Annum  ASSISTANT TO THE PRESIDENT FOR HOMELAND SECURITY AND COUNTERTERRORISM
Kiley, Bradley J.              Employee       162900 Per Annum  ASSISTANT TO THE PRESIDENT FOR MANAGEMENT AND ADMINISTRATION
Bloom, Ron A.                  Employee       163000 Per Annum  ASSISTANT TO THE PRESIDENT FOR MANUFACTURING POLICY
Abrevaya, Sandra               Employee        90000 Per Annum  ASSOCIATE COMMUNICATIONS DIRECTOR
Schultz, Eric H.               Employee        90000 Per Annum  ASSOCIATE COMMUNICATIONS DIRECTOR
Bedingfield, Katherine J.      Employee        90000 Per Annum  ASSOCIATE COMMUNICATIONS DIRECTOR
Green, Jason G.                Employee       114000 Per Annum  ASSOCIATE COUNSEL
Bassin, Ian M.                 Employee       114000 Per Annum  ASSOCIATE COUNSEL
Roberts, Blake C.              Employee       114000 Per Annum  ASSOCIATE COUNSEL
Gottry, Heather C.             Detailee       140259 Per Annum  ASSOCIATE COUNSEL FOR ETHICS
Sathe, Smrthi                  Employee        70000 Per Annum  ASSOCIATE DIRECTOR
Modi, Kalpen S.                Employee        41000 Per Annum  ASSOCIATE DIRECTOR
Alley, Hilary J.               Employee        45000 Per Annum  ASSOCIATE DIRECTOR
Helmrick-Blossom, Kellyn       Detailee        74872 Per Annum  ASSOCIATE DIRECTOR
Groth, Travis R.               Employee        48000 Per Annum  ASSOCIATE DIRECTOR
Wade, David L.                 Employee        60000 Per Annum  ASSOCIATE DIRECTOR
Lavery, Michael E.             Employee        65000 Per Annum  ASSOCIATE DIRECTOR AND ADVANCE COORDINATOR
Satkowiak, Karly M.            Employee        45000 Per Annum  ASSOCIATE DIRECTOR AND SCHEDULING RESEARCHER
Randle, Cole A.                Employee        45000 Per Annum  ASSOCIATE DIRECTOR AND TRAVEL MANAGER
Quinn, Brian P.                Employee        47000 Per Annum  ASSOCIATE DIRECTOR AND TRAVEL MANAGER
Baskerville, Mary E.           Employee        45000 Per Annum  ASSOCIATE DIRECTOR AND TRAVEL MANAGER
Campbell, Grant E.             Employee        50000 Per Annum  ASSOCIATE DIRECTOR AND TRIP COORDINATOR
Whichard, IV, David J.         Employee        50000 Per Annum  ASSOCIATE DIRECTOR AND TRIP COORDINATOR
Reed, Ian P.                   Employee        50000 Per Annum  ASSOCIATE DIRECTOR FOR FINANCE
Ihenetu, Udoaku C.             Detailee        55070 Per Annum  ASSOCIATE DIRECTOR FOR POLICY AND EVENTS
McSwain, Jr.,  Michael S.      Employee        41000 Per Annum  ASSOCIATE DIRECTOR FOR SCHEDULING CORRESPONDENCE
Lindsay, Erin E.               Employee        47500 Per Annum  ASSOCIATE DIRECTOR OF ONLINE ENGAGEMENT
Coccaro, Kasie M.              Employee        47500 Per Annum  ASSOCIATE DIRECTOR OF ONLINE OUTREACH AND OPERATIONS
Finkenbinder, Benjamin N.      Employee        50000 Per Annum  ASSOCIATE DIRECTOR OF PRESS ADVANCE AND PRESS POOL WRANGLER
Donovan, Michael W.            Employee        54000 Per Annum  ASSOCIATE DIRECTOR OF SCHEDULING
Kang, Eugene J.                Employee        50000 Per Annum  ASSOCIATE DIRECTOR OF SCHEDULING AND ADVANCE
Schmuck, Robert E.             Employee        50000 Per Annum  ASSOCIATE DIRECTOR OF SCHEDULING AND ADVANCE
Kim, Anna S.                   Employee        70000 Per Annum  ASSOCIATE STAFF SECRETARY
Gerst, Jennifer T.             Employee        55000 Per Annum  BOARDS AND COMMISSIONS DIRECTOR
Gottlieb, Graham D.            Employee        42000 Per Annum  BOARDS AND COMMISSIONS STAFF ASSISTANT
Koronides, Christine D.        Employee       130500 Per Annum  CHIEF OF STAFF OF THE NATIONAL ECONOMIC COUNCIL
Freeny, Kyle R.                Detailee       123758 Per Annum  CLEARANCE ADVISOR
Robertson, Iain T.             Employee        45000 Per Annum  COORDINATOR
Smith, Jason J.                Employee        45000 Per Annum  COORDINATOR
Main, Galen E.                 Employee        45000 Per Annum  COORDINATOR
Campbell, Nnaji-Semayi K.      Employee        45000 Per Annum  COORDINATOR
Posey, Stacie M.               Employee        45000 Per Annum  COORDINATOR
Rouse, Peter M.                Employee       172200 Per Annum  COUNSELOR TO THE PRESIDENT
Kolachalam, Namrata            Employee        45000 Per Annum  DEPUTY ASSISTANT DIRECTOR OF BROADCAST MEDIA
Lippert, Mark W.               Employee       147500 Per Annum  DEPUTY ASSISTANT TO THE PRESIDENT AND CHIEF OF STAFF FOR NATIONAL SECURITY OPERATIONS
Strautmanis, Michael A.        Employee       150000 Per Annum  DEPUTY ASSISTANT TO THE PRESIDENT AND COUNSELOR TO THE SENIOR  ADVISOR FOR STRATEGIC ENGAGEMENT
Smith, Elizabeth S.            Employee       130000 Per Annum  DEPUTY ASSISTANT TO THE PRESIDENT AND DEPUTY CABINET SECRETARY
Davies, Susan M.               Employee       158500 Per Annum  DEPUTY ASSISTANT TO THE PRESIDENT AND DEPUTY COUNSEL TO THE PRESIDENT
Haines, Avril D.               Employee       158500 Per Annum  DEPUTY ASSISTANT TO THE PRESIDENT AND DEPUTY COUNSEL TO THE PRESIDENT
Harris, Kimberley D.           Employee       158500 Per Annum  DEPUTY ASSISTANT TO THE PRESIDENT AND DEPUTY COUNSEL TO THE PRESIDENT
Psaki, Jennifer R.             Employee       150000 Per Annum  DEPUTY ASSISTANT TO THE PRESIDENT AND DEPUTY DIRECTOR OF COMMUNICATIONS
Zuckerman, Mark                Employee       158500 Per Annum  DEPUTY ASSISTANT TO THE PRESIDENT AND DEPUTY DIRECTOR OF THE DOMESTIC POLICY COUNCIL
Cusack, David J.               Employee       130000 Per Annum  DEPUTY ASSISTANT TO THE PRESIDENT AND DIRECTOR OF ADVANCE AND OPERATIONS
Muñoz, Cecilia                Employee       153500 Per Annum  DEPUTY ASSISTANT TO THE PRESIDENT AND DIRECTOR OF INTERGOVERNMENTAL AFFAIRS
Frye, Jocelyn C.               Employee       140000 Per Annum  DEPUTY ASSISTANT TO THE PRESIDENT AND DIRECTOR OF POLICY AND PROJECTS FOR THE FIRST LADY
Hogan, Nancy D.                Employee       145000 Per Annum  DEPUTY ASSISTANT TO THE PRESIDENT AND DIRECTOR OF PRESIDENTIAL PERSONNEL
Wright, Jessica N.             Employee       130000 Per Annum  DEPUTY ASSISTANT TO THE PRESIDENT AND DIRECTOR OF SCHEDULING
Crutchfield, Danielle M.       Employee       140000 Per Annum  DEPUTY ASSISTANT TO THE PRESIDENT AND DIRECTOR OF SCHEDULING AND ADVANCE
Carson, Jonathan K.            Employee       153500 Per Annum  DEPUTY ASSISTANT TO THE PRESIDENT AND DIRECTOR OF THE OFFICE OF PUBLIC ENGAGEMENT 
Anderson, Brooke D.            Employee       147500 Per Annum  DEPUTY ASSISTANT TO THE PRESIDENT AND NATIONAL SECURITY STAFF CHIEF OF STAFF  AND COUNSELOR
De, Rajesh                     Employee       158500 Per Annum  DEPUTY ASSISTANT TO THE PRESIDENT AND STAFF SECRETARY
Gray, Danielle C.              Employee       147500 Per Annum  DEPUTY ASSISTANT TO THE PRESIDENT FOR ECONOMIC POLICY
Zichal, Heather R.             Employee       140000 Per Annum  DEPUTY ASSISTANT TO THE PRESIDENT FOR ENERGY AND CLIMATE CHANGE
Lambrew, Jeanne M.             Employee       158500 Per Annum  DEPUTY ASSISTANT TO THE PRESIDENT FOR HEALTH POLICY
Konwinski, Lisa M.             Employee       158500 Per Annum  DEPUTY ASSISTANT TO THE PRESIDENT FOR LEGISLATIVE AFFAIRS
Samuels, Jonathan D.           Employee       158500 Per Annum  DEPUTY ASSISTANT TO THE PRESIDENT FOR LEGISLATIVE AFFAIRS AND HOUSE LIAISON
Maher, Shawn P.                Employee       158500 Per Annum  DEPUTY ASSISTANT TO THE PRESIDENT FOR LEGISLATIVE AFFAIRS AND SENATE LIAISON
De Sio, Jr., Henry F.          Employee       153300 Per Annum  DEPUTY ASSISTANT TO THE PRESIDENT FOR MANAGEMENT AND ADMINISTRATION
Starke, Petra S.               Employee        99000 Per Annum  DEPUTY ASSOCIATE COUNSEL
Skinner, Reginald M.           Detailee       140259 Per Annum  DEPUTY ASSOCIATE COUNSEL FOR PRESIDENTIAL PERSONNEL
Wallach, Brian S.              Employee        80000 Per Annum  DEPUTY ASSOCIATE COUNSEL FOR PRESIDENTIAL PERSONNEL
Mack, William B.               Employee        80000 Per Annum  DEPUTY ASSOCIATE COUNSEL FOR PRESIDENTIAL PERSONNEL
Ellinwood, Todd A.             Detailee       136134 Per Annum  DEPUTY ASSOCIATE COUNSEL FOR PRESIDENTIAL PERSONNEL
Jones, Luke M.                 Detailee       112224 Per Annum  DEPUTY ASSOCIATE COUNSEL FOR PRESIDENTIAL PERSONNEL
Markovitz, Alison J.           Employee        80000 Per Annum  DEPUTY ASSOCIATE COUNSEL FOR PRESIDENTIAL PERSONNEL
Childs, Heather G.             Detailee       108717 Per Annum  DEPUTY ASSOCIATE COUNSEL FOR PRESIDENTIAL PERSONNEL
Clunie, David G.               Employee        80000 Per Annum  DEPUTY ASSOCIATE COUNSEL FOR PRESIDENTIAL PERSONNEL
Offerman, Mary F.              Employee        55000 Per Annum  DEPUTY ASSOCIATE DIRECTOR
Baia, Ashley E.                Detailee        53350 Per Annum  DEPUTY ASSOCIATE DIRECTOR
Kelly, Lauren M.               Detailee        53350 Per Annum  DEPUTY ASSOCIATE DIRECTOR
Bookey-Baker, Natalie          Employee        55000 Per Annum  DEPUTY ASSOCIATE DIRECTOR
Vrazilek, Lauren S.            Employee        42000 Per Annum  DEPUTY ASSOCIATE DIRECTOR OF CORRESPONDENCE FOR THE FIRST LADY
Galbraith, Charles W.          Employee        70000 Per Annum  DEPUTY ASSOCIATE DIRECTOR OF INTERGOVERNMENTAL AFFAIRS
Blake, Michael A.              Employee        61200 Per Annum  DEPUTY ASSOCIATE DIRECTOR OF INTERGOVERNMENTAL AFFAIRS
Monteiro, Darron P.            Employee        61200 Per Annum  DEPUTY ASSOCIATE DIRECTOR OF PUBLIC ENGAGEMENT
Valencia, Stephanie M.         Employee        61200 Per Annum  DEPUTY ASSOCIATE DIRECTOR OF PUBLIC ENGAGEMENT
Richardson, Karen E.           Employee        60000 Per Annum  DEPUTY ASSOCIATE DIRECTOR OF PUBLIC ENGAGEMENT
Koo, Stacy J.                  Employee        75000 Per Annum  DEPUTY CHIEF OF STAFF FOR PRESIDENTIAL PERSONNEL
Stephens, Semonti M.           Employee        75000 Per Annum  DEPUTY COMMUNICATIONS DIRECTOR 
Gardaphe, Frederico C.         Employee        75000 Per Annum  DEPUTY DIRECTOR
Olmos, Margaret C.             Employee        70000 Per Annum  DEPUTY DIRECTOR
Reinstein, Joseph B.           Employee        66300 Per Annum  DEPUTY DIRECTOR AND DEPUTY SOCIAL SECRETARY
Tubman, Samantha J.            Employee        65000 Per Annum  DEPUTY DIRECTOR AND DEPUTY SOCIAL SECRETARY
Dyer, Deesha A.                Employee        55000 Per Annum  DEPUTY DIRECTOR AND HOTEL PROGRAM MANAGER
Paulsen, Joseph B.             Employee        60000 Per Annum  DEPUTY DIRECTOR AND SURROGATE SCHEDULER
Utech, Dan G.                  Employee       100000 Per Annum  DEPUTY DIRECTOR FOR ENERGY AND CLIMATE CHANGE
Pourmorad, Araz N.             Employee        55000 Per Annum  DEPUTY DIRECTOR FOR OPERATIONS
Maska, Johanna M.              Employee        80000 Per Annum  DEPUTY DIRECTOR OF ADVANCE AND DIRECTOR OF PRESS ADVANCE
Fitts, Alan O.                 Employee        66300 Per Annum  DEPUTY DIRECTOR OF ADVANCE AND TRIP DIRECTOR FOR THE FIRST LADY
Greenawalt, Andrei M.          Employee        80000 Per Annum  DEPUTY DIRECTOR OF CABINET AFFAIRS
Phadke, Shilpa D.              Employee        80000 Per Annum  DEPUTY DIRECTOR OF CABINET AFFAIRS
McCarthy, Mary N.              Employee        80000 Per Annum  DEPUTY DIRECTOR OF CABINET AFFAIRS
Schulman, Kori S.              Employee        62500 Per Annum  DEPUTY DIRECTOR OF DIGITAL CONTENT
Sutton, Nikki E.               Employee        62500 Per Annum  DEPUTY DIRECTOR OF DIGITAL CONTENT
Bernard, Sarah C.              Employee        80000 Per Annum  DEPUTY DIRECTOR OF DIGITAL STRATEGY
Campoverdi, Alejandra M.       Employee        65000 Per Annum  DEPUTY DIRECTOR OF HISPANIC MEDIA
Agnew, David P.                Employee        93840 Per Annum  DEPUTY DIRECTOR OF INTERGOVERNMENTAL AFFAIRS
Rathod, Nicholas S.            Employee        92000 Per Annum  DEPUTY DIRECTOR OF INTERGOVERNMENTAL AFFAIRS
Welsch, Peter A.               Employee        62500 Per Annum  DEPUTY DIRECTOR OF ONLINE PLATFORM
Sanders, Trooper               Employee        85000 Per Annum  DEPUTY DIRECTOR OF POLICY AND PROJECTS FOR THE FIRST LADY
Nelson, Gregory S.             Employee        92000 Per Annum  DEPUTY DIRECTOR OF PUBLIC ENGAGEMENT
Filipic, Anne E.               Employee        92000 Per Annum  DEPUTY DIRECTOR OF PUBLIC ENGAGEMENT
Bond, Brian K.                 Employee        93840 Per Annum  DEPUTY DIRECTOR OF PUBLIC ENGAGEMENT
Raizk, Paul S.                 Employee       113605 Per Annum  DEPUTY DIRECTOR OF RECORDS MANAGEMENT
Nelson, Elizabeth W.           Employee        75000 Per Annum  DEPUTY DIRECTOR OF SCHEDULING
Cleland, Jeannette M.          Employee        66300 Per Annum  DEPUTY DIRECTOR OF SCHEDULING AND EVENTS COORDINATOR FOR THE FIRST LADY
Kalbaugh, David E.             Employee       129758 Per Annum  DEPUTY EXECUTIVE CLERK
Setser, Bradley W.             Employee       110500 Per Annum  DIRECTOR  
Greene, Norman A.              Employee        70000 Per Annum  DIRECTOR FOR FINANCE
Kohnke, Lisa J.                Employee        70000 Per Annum  DIRECTOR OF ADVANCE AND SPECIAL EVENTS FOR THE OFFICE OF INTERGOVERNMENTAL AFFAIRS AND PUBLIC ENGAGEMENT 
Lewis, Kevin S.                Employee        78000 Per Annum  DIRECTOR OF AFRICAN-AMERICAN MEDIA
Pollack, Joshua D.             Employee        95000 Per Annum  DIRECTOR OF CONFIRMATIONS
Ledbetter, Howli J.            Employee        50000 Per Annum  DIRECTOR OF CORRESPONDENCE FOR THE FIRST LADY
Miranda, Luis A.               Employee        78000 Per Annum  DIRECTOR OF HISPANIC MEDIA
Turk, Andrea E.                Employee        70000 Per Annum  DIRECTOR OF INFORMATION SERVICES
Sabochik, Katelyn A.           Employee        72500 Per Annum  DIRECTOR OF ONLINE ENGAGEMENT
Sobel, Charlie J.              Employee        55000 Per Annum  DIRECTOR OF OPERATIONS
Lee, Jesse C.                  Employee        72500 Per Annum  DIRECTOR OF PROGRESSIVE MEDIA AND ONLINE RESPONSE
Droege, Philip C.              Employee       140259 Per Annum  DIRECTOR OF RECORDS MANAGEMENT
Starkey, Frances M.            Employee        90000 Per Annum  DIRECTOR OF SCHEDULING AND ADVANCE FOR THE FIRST LADY
Jung, Bryan                    Employee        60000 Per Annum  DIRECTOR OF SPECIAL PROJECTS
O'Neil, Michael P.             Employee       100000 Per Annum  DIRECTOR OF SPECIAL PROJECTS AND SPECIAL ASSISTANT TO THE SENIOR ADVISOR
Inouye, Shinichi               Employee        78000 Per Annum  DIRECTOR OF SPECIALTY MEDIA
Ryan, Timothy J.               Employee        87000 Per Annum  DIRECTOR OF SYSTEMS DEVELOPMENT FOR PRESIDENTIAL PERSONNEL
Crowley, Jeffrey S.            Employee       102000 Per Annum  DIRECTOR OF THE OFFICE OF NATIONAL AIDS POLICY AND SENIOR ADVISOR ON DISABILITY POLICY
Tate-Gilmore, Ashley R.        Employee        75000 Per Annum  DIRECTOR OF TRAVEL OFFICE
Schafer, Ellie S.              Employee        80000 Per Annum  DIRECTOR OF VISITORS OFFICE
Peele, Christian B.            Employee        50000 Per Annum  DIRECTOR OF WHITE HOUSE INTERNSHIP PROGRAM
Platt, Katherine A.            Employee        75000 Per Annum  DIRECTOR OF WHITE HOUSE OPERATIONS
Sahgal, Rishi R.               Employee        75000 Per Annum  DIRECTOR OF WHITE HOUSE PERSONNEL
Rivadeneira, Shirley C.        Employee        55000 Per Annum  DOMESTIC DIRECTOR
Hanson, Terry P.               Employee        42000 Per Annum  DOMESTIC STAFF ASSISTANT
Flatgard, Benjamin W.          Employee        55000 Per Annum  ECONOMICS DIRECTOR
Cunningham, Vinson T.          Employee        42000 Per Annum  ECONOMICS STAFF ASSISTANT
Donovan, William J.            Employee        55000 Per Annum  ENERGY AND ENVIRONMENT DIRECTOR
Venegas, Katherine E.          Employee        42000 Per Annum  ENERGY AND ENVIRONMENT STAFF ASSISTANT
Resnick, Jay A.                Detailee       155500 Per Annum  ETHICS ADVISOR
Whitty, Patrick M.             Employee        45000 Per Annum  EXECUTIVE ASSISTANT
Hable, Abigail K.              Employee        50000 Per Annum  EXECUTIVE ASSISTANT
King, Colleen M.               Employee        42000 Per Annum  EXECUTIVE ASSISTANT
Selak, Dawn M.                 Employee        57500 Per Annum  EXECUTIVE ASSISTANT
Lee, Stephanie A.              Employee        45000 Per Annum  EXECUTIVE ASSISTANT TO THE CHIEF OF STAFF TO THE FIRST LADY
McCullough, Victoria M.        Employee        45000 Per Annum  EXECUTIVE ASSISTANT TO THE DIRECTOR OF PUBLIC ENGAGEMENT
Wear, Michael R.               Employee        47000 Per Annum  EXECUTIVE ASSISTANT TO THE EXECUTIVE DIRECTOR
Conrad, Shasti K.              Employee        42000 Per Annum  EXECUTIVE ASSISTANT TO THE SENIOR ADVISOR
Saunders, George T.            Employee       155500 Per Annum  EXECUTIVE CLERK
Gustavson, Matthew J.          Employee        42000 Per Annum  INFORMATION SERVICES OPERATOR
Claude, Lilia H.               Employee        58511 Per Annum  INFORMATION SERVICES OPERATOR
Payne, John H.                 Employee        42000 Per Annum  INFORMATION SERVICES OPERATOR
Watson, Takesha R.             Employee        45024 Per Annum  INFORMATION SERVICES OPERATOR
Graham, Lottie B.              Employee        63673 Per Annum  INFORMATION SERVICES OPERATOR
Rana, Yasmin S.                Employee        42000 Per Annum  INFORMATION SERVICES OPERATOR
Canery, Beverly D.             Employee        58511 Per Annum  INFORMATION SERVICES OPERATOR
Click, John S.                 Employee        42000 Per Annum  INFORMATION SERVICES OPERATOR
Luck, Deatrice N.              Employee        45024 Per Annum  INFORMATION SERVICES OPERATOR
Sass, Joan C.                  Employee        58511 Per Annum  INFORMATION SERVICES OPERATOR
Saavedra, Natalie H.           Employee        43616 Per Annum  INFORMATION SERVICES OPERATOR
DeGuzman, Brian K.             Employee        46745 Per Annum  INFORMATION SERVICES OPERATOR
Jackson, Theresa R.            Employee        64439 Per Annum  INFORMATION SERVICES OPERATOR
Johnson, Linda M.              Employee        68230 Per Annum  INFORMATION SERVICES OPERATOR
Griffith, Kyla F.              Employee        45000 Per Annum  LEGAL ASSISTANT
Bisi, Rachel I.                Employee        42000 Per Annum  LEGISLATIVE ASSISTANT
Godfrey, Harrison T.           Employee        45000 Per Annum  LEGISLATIVE ASSISTANT
Belive, Lauren E.              Employee        45000 Per Annum  LEGISLATIVE ASSISTANT AND ASSISTANT FOR EVENTS
McGowan, Lukas J.              Employee        45000 Per Annum  LEGISLATIVE ASSISTANT AND ASSISTANT TO THE HOUSE LIAISON
Eckhouse, Sara F.              Employee        45000 Per Annum  LEGISLATIVE ASSISTANT AND ASSISTANT TO THE SENATE LIAISON
Asen, Jonathan D.              Employee        45000 Per Annum  LEGISLATIVE ASSISTANT AND ASSOCIATE DIRECTOR FOR LEGISLATIVE CORRESPONDENCE
Ortiz, Michael R.              Employee        50000 Per Annum  LEGISLATIVE ASSISTANT AND SPECIAL ASSISTANT TO THE DIRECTOR
Cunnane, Patrick J.            Employee        42000 Per Annum  MEDIA MONITOR
McMahon, Collin T.             Employee        55000 Per Annum  NATIONAL SECURITY DIRECTOR
Kornell, Clarissa H.           Employee        42000 Per Annum  NATIONAL SECURITY STAFF ASSISTANT
Starr, Kodiak H.               Employee        72500 Per Annum  NEW MEDIA CREATIVE DIRECTOR
Breckenridge, Anita J.         Employee        95000 Per Annum  PERSONAL AIDE TO THE PRESIDENT
Mosteller, Brian D.            Employee        95000 Per Annum  PERSONAL AIDE TO THE PRESIDENT
Wang-Levine, Adam              Employee        55080 Per Annum  POLICY ADVISOR
Britton-Faison, Chantelle V.   Detailee        92001 Per Annum  POLICY ADVISOR
Wong, Shale L.                 Employee            0 Per Annum  POLICY ADVISOR
Cannon, Sarah R.               Employee        55000 Per Annum  POLICY ADVISOR
Romaine, Joan C.               Detailee       119238 Per Annum  POLICY ADVISOR
Hernandez, Philip M.           Employee        45000 Per Annum  POLICY ANALYST
Sanchez, Roque T.              Employee        45000 Per Annum  POLICY ANALYST
Montz, Ellen J.                Employee        50000 Per Annum  POLICY ASSISTANT
Apsel, Sarah                   Detailee       108717 Per Annum  POLICY ASSISTANT
Zelman, Allison L.             Employee        50000 Per Annum  POLICY ASSISTANT
Wall, Mary C.                  Employee        50000 Per Annum  POLICY ASSISTANT
Pojman, Natalie R.             Employee        50000 Per Annum  POLICY ASSISTANT
Kumaraiah, Divya               Employee        50000 Per Annum  POLICY ASSISTANT
Kohn, Lisa M.                  Employee        50000 Per Annum  POLICY ASSISTANT
Keenan, Cody S.                Employee        75000 Per Annum  PRESIDENTIAL SPEECHWRITER
Lovett, Jonathan I.            Employee        75000 Per Annum  PRESIDENTIAL SPEECHWRITER
Pate, Brian E.                 Employee        51630 Per Annum  PRESIDENTIAL SUPPORT SPECIALIST
DeGuzman, Jr., Danilo          Employee        72876 Per Annum  PRESIDENTIAL SUPPORT SPECIALIST
Showers, Wendy W.              Employee        84855 Per Annum  PRESIDENTIAL SUPPORT SPECIALIST
Bates, Andrew J.               Employee        45000 Per Annum  PRESS ASSISTANT
Lewin, Jesse M.                Employee        42000 Per Annum  PRESS ASSISTANT
Lee, Monica M.                 Employee        42000 Per Annum  PRESS ASSISTANT
Hughes, Caroline E.            Employee        45000 Per Annum  PRESS ASSISTANT
Rangel, Antoinette N.          Employee        42000 Per Annum  PRESS ASSISTANT
August, Hannah M.              Employee        70000 Per Annum  PRESS SECRETARY TO THE FIRST LADY
Stephens, Jeffrey M.           Employee        76500 Per Annum  PRINCIPAL DEPUTY DIRECTOR
Cokley, Rebecca A.             Employee        72000 Per Annum  PRIORITY PLACEMENT DIRECTOR
Hartz, Timothy S.              Employee        72000 Per Annum  PRIORITY PLACEMENT DIRECTOR
Young, Jr., Reginald D.        Employee        61952 Per Annum  RECORDS MANAGEMENT ANALYST
Wade, Frances J.               Employee        46745 Per Annum  RECORDS MANAGEMENT ANALYST
Young, Latoya A.               Employee        60232 Per Annum  RECORDS MANAGEMENT ANALYST
Freeman, Myra B.               Employee        73917 Per Annum  RECORDS MANAGEMENT ANALYST
Blount, Patricia H.            Employee        46745 Per Annum  RECORDS MANAGEMENT ANALYST
Liegel, Christopher J.         Employee        42000 Per Annum  RECORDS MANAGEMENT ANALYST
Lezotte, Darin R.              Employee        62544 Per Annum  RECORDS MANAGEMENT ANALYST
Lartey, Solomon D.             Employee        56092 Per Annum  RECORDS MANAGEMENT ANALYST
Harwood, Maria-Zena A.         Employee        42000 Per Annum  RECORDS MANAGEMENT ANALYST
Edmonds, Anita J.              Employee        49069 Per Annum  RECORDS MANAGEMENT ANALYST
King, Taeshonnda C.            Employee        60232 Per Annum  RECORDS MANAGEMENT ANALYST
Millison, Chad L.              Employee        61952 Per Annum  RECORDS MANAGEMENT ANALYST
Jackson, Elizabeth J.          Employee        42000 Per Annum  RECORDS MANAGEMENT ANALYST
Hoang, Vy T.                   Employee        46745 Per Annum  RECORDS MANAGEMENT ANALYST
Samuels, Jr., Wendell A.       Employee        64439 Per Annum  RECORDS SYSTEMS ANALYST
Abrams, Adam W.                Employee        70000 Per Annum  REGIONAL COMMUNICATIONS DIRECTOR
Rosholm, Joanna S.             Employee        70000 Per Annum  REGIONAL COMMUNICATIONS DIRECTOR
Kinder, Charmion N.            Employee        42000 Per Annum  RESEARCH ASSOCIATE
Bartoloni, Kristen A.          Employee        45000 Per Annum  RESEARCHER
Noyes, Diana L.                Employee        50000 Per Annum  RESEARCHER
Smith, Marissa L.              Employee        45000 Per Annum  RESEARCHER
Corogenes, Katherine L.        Employee        45000 Per Annum  RESEARCHER
Brush, Michael P.              Employee        65000 Per Annum  SENIOR ADVANCE LEAD
Jarrett, Valerie B.            Employee       172200 Per Annum  SENIOR ADVISOR AND ASSISTANT TO THE PRESIDENT FOR INTERGOVERNMENTAL AFFAIRS AND PUBLIC ENGAGEMENT
Ayling, Lindsay A.             Employee        42565 Per Annum  SENIOR ANALYST
Goepfert, Stephen M.           Employee        42565 Per Annum  SENIOR ANALYST
Campos, David R.               Employee        42565 Per Annum  SENIOR ANALYST
Plant, Jay M.                  Employee        42565 Per Annum  SENIOR ANALYST
Kellermann, Sarah A.           Employee        42565 Per Annum  SENIOR ANALYST
Smith, Kelley S.               Employee        42565 Per Annum  SENIOR ANALYST
Metcalf, Ryan D.               Employee        42565 Per Annum  SENIOR ANALYST
Swanson, Gregory C.            Employee        42565 Per Annum  SENIOR ANALYST
Vietor, Thomas F.              Employee       105000 Per Annum  SENIOR DIRECTOR AND NATIONAL SECURITY STAFF SPOKESMAN
Anderson, Amanda D.            Employee        80000 Per Annum  SENIOR LEGISLATIVE AFFAIRS ADVISOR
Katz, David L.                 Detailee        92001 Per Annum  SENIOR POLICY ADVISOR
Belford, Brandon M.            Detailee       119238 Per Annum  SENIOR POLICY ADVISOR
Schumer, Jessica E.            Employee            0 Per Annum  SENIOR POLICY ADVISOR
Khalid, Aryana C.              Detailee       123758 Per Annum  SENIOR POLICY ADVISOR
Vogel, Miriam H.               Detailee       144385 Per Annum  SENIOR POLICY ADVISOR
Hidalgo, Beatrice M.           Detailee       127883 Per Annum  SENIOR POLICY ADVISOR
Escobar, Felicia A.            Employee        93000 Per Annum  SENIOR POLICY ADVISOR
Leibenluft, Jacob D.           Employee        70000 Per Annum  SENIOR POLICY ADVISOR
Glickman, Steven G.            Detailee       108717 Per Annum  SENIOR POLICY ADVISOR
Kelley, Alexia K.              Detailee       130000 Per Annum  SENIOR POLICY ADVISOR
McKalip, Douglas J.            Detailee       165300 Per Annum  SENIOR POLICY ADVISOR
Noel, Pascal J.                Employee        70000 Per Annum  SENIOR POLICY ADVISOR
Ogden, Peter R.                Detailee       115731 Per Annum  SENIOR POLICY ADVISOR
Smith, Zakiya W.               Employee        93000 Per Annum  SENIOR POLICY ADVISOR FOR EDUCATION
Teehee, Kimberly K.            Employee       100000 Per Annum  SENIOR POLICY ADVISOR FOR NATIVE AMERICAN AFFAIRS
Urquilla, Marta B.             Employee        95000 Per Annum  SENIOR POLICY ADVISOR FOR SOCIAL INNOVATION AND CIVIC PARTICIPATION
Lew, Shoshana M.               Employee        89000 Per Annum  SENIOR POLICY DIRECTOR
Albino, James N.               Employee        93000 Per Annum  SENIOR PROGRAM MANAGER
Lorjuste, Gregory              Employee        58000 Per Annum  SENIOR SCHEDULER
Cushman, Chase M.              Employee        58000 Per Annum  SENIOR SCHEDULER
Kelly, Allison K.              Employee        45000 Per Annum  SENIOR VETTER
Mehrbani, Rodin A.             Employee        90000 Per Annum  SENIOR VETTING COUNSEL FOR PRESIDENTIAL PERSONNEL
Dorsett, Craig M.              Employee        50000 Per Annum  SENIOR WRITER
Washington, Andrea J.          Employee        50000 Per Annum  SENIOR WRITER
Case, Michael A.               Employee        50000 Per Annum  SENIOR WRITER
Trainor, Gregory T.            Employee        68230 Per Annum  SPECIAL ASSISTANT
Binns, Mary U.                 Employee        72022 Per Annum  SPECIAL ASSISTANT
Mattson, Philip C.             Employee        61952 Per Annum  SPECIAL ASSISTANT
Chhabra, Anand                 Employee        45000 Per Annum  SPECIAL ASSISTANT
Roddick, Gertrude A.           Employee        89846 Per Annum  SPECIAL ASSISTANT
Becnel, Bradley D.             Employee        57000 Per Annum  SPECIAL ASSISTANT AND ADVANCE LEAD
Varghese, Maju S.              Employee        55000 Per Annum  SPECIAL ASSISTANT AND ADVANCE LEAD
Moseley, Julia S.              Employee        57000 Per Annum  SPECIAL ASSISTANT AND ADVANCE LEAD
Teater, Louis D.               Employee        57000 Per Annum  SPECIAL ASSISTANT AND ADVANCE LEAD
Jones, Kristin T.              Employee        50000 Per Annum  SPECIAL ASSISTANT AND PERSONAL AIDE TO THE FIRST LADY
Lepow, Brandon D.              Employee        60000 Per Annum  SPECIAL ASSISTANT AND PRESS LEAD
Lipsky, Joshua S.              Employee        50000 Per Annum  SPECIAL ASSISTANT AND PRESS LEAD
Finke, Samantha D.             Employee        50000 Per Annum  SPECIAL ASSISTANT AND PRESS LEAD
Tiller, Jeffrey D.             Employee        50000 Per Annum  SPECIAL ASSISTANT AND PRESS LEAD
Jarvis, Kristen                Employee        60000 Per Annum  SPECIAL ASSISTANT FOR SCHEDULING AND TRAVELING AIDE TO THE FIRST LADY
Johnson, Alfred I.             Employee        50000 Per Annum  SPECIAL ASSISTANT TO THE CHIEF OF STAFF
Siegel, Julia B.               Employee        60000 Per Annum  SPECIAL ASSISTANT TO THE CHIEF OF STAFF
Lasry, Alexander J.            Employee        42000 Per Annum  SPECIAL ASSISTANT TO THE CHIEF OF STAFF OF THE OFFICE OF INTERGOVERNMENTAL AFFAIRS AND PUBLC ENGAGEMENT
Naidoff, Caitlin L.            Employee        60000 Per Annum  SPECIAL ASSISTANT TO THE COUNSELOR TO THE PRESIDENT
Siegel, Avra C.                Employee        50000 Per Annum  SPECIAL ASSISTANT TO THE DEPUTY ASSISTANT TO THE PRESIDENT
Updegrove, Laura L.            Employee        60000 Per Annum  SPECIAL ASSISTANT TO THE DEPUTY CHIEF OF STAFF
Buckhout, Scott E.             Employee        45000 Per Annum  SPECIAL ASSISTANT TO THE DIRECTOR
Baggetto, Maude L.             Employee        50000 Per Annum  SPECIAL ASSISTANT TO THE DIRECTOR OF INTERGOVERNMENTAL AFFAIRS
Espinel, Zulima L.             Employee       130500 Per Annum  SPECIAL ASSISTANT TO THE PRESIDENT AND ASSOCIATE COUNSEL TO THE PRESIDENT
Hartnett, Kathleen R.          Employee       130500 Per Annum  SPECIAL ASSISTANT TO THE PRESIDENT AND ASSOCIATE COUNSEL TO THE PRESIDENT
Kramer, Douglas J.             Employee       130500 Per Annum  SPECIAL ASSISTANT TO THE PRESIDENT AND ASSOCIATE COUNSEL TO THE PRESIDENT
Shaw, Katherine A.             Employee       130500 Per Annum  SPECIAL ASSISTANT TO THE PRESIDENT AND ASSOCIATE COUNSEL TO THE PRESIDENT
Wright, Andrew M.              Employee       130500 Per Annum  SPECIAL ASSISTANT TO THE PRESIDENT AND ASSOCIATE COUNSEL TO THE PRESIDENT
Bershteyn, Boris               Employee       130500 Per Annum  SPECIAL ASSISTANT TO THE PRESIDENT AND ASSOCIATE COUNSEL TO THE PRESIDENT
Gottlieb, Michael J.           Employee       130500 Per Annum  SPECIAL ASSISTANT TO THE PRESIDENT AND ASSOCIATE COUNSEL TO THE PRESIDENT
Siskel, Edward N.              Employee       130500 Per Annum  SPECIAL ASSISTANT TO THE PRESIDENT AND ASSOCIATE COUNSEL TO THE PRESIDENT
Gavin, Jr., Thomas E.          Employee       102000 Per Annum  SPECIAL ASSISTANT TO THE PRESIDENT AND CABINET COMMUNICATIONS DIRECTOR
McLaughlin, Margaret T.        Employee       120000 Per Annum  SPECIAL ASSISTANT TO THE PRESIDENT AND CHIEF OF STAFF FOR PRESIDENTIAL PERSONNEL
Monje, Jr., Carlos A.          Employee       120000 Per Annum  SPECIAL ASSISTANT TO THE PRESIDENT AND CHIEF OF STAFF OF THE DOMESTIC POLICY COUNCIL
Dale, Kareem A.                Employee        80000 Per Annum  SPECIAL ASSISTANT TO THE PRESIDENT AND DEPUTY ASSOCIATE DIRECTOR OF PUBLIC ENGAGEMENT
Winter, Melissa E.             Employee       120000 Per Annum  SPECIAL ASSISTANT TO THE PRESIDENT AND DEPUTY CHIEF OF STAFF  AND DIRECTOR OF OPERATIONS FOR THE FIRST LADY
Selfridge, Peter A.            Employee       102000 Per Annum  SPECIAL ASSISTANT TO THE PRESIDENT AND DEPUTY DIRECTOR OF ADVANCE
McBride, Jonathan D.           Employee       130000 Per Annum  SPECIAL ASSISTANT TO THE PRESIDENT AND DEPUTY DIRECTOR OF PRESIDENTIAL PERSONNEL
Smith, Jamie E.                Employee       110500 Per Annum  SPECIAL ASSISTANT TO THE PRESIDENT AND DEPUTY PRESS SECRETARY
Vega, Dagoberto                Employee       100000 Per Annum  SPECIAL ASSISTANT TO THE PRESIDENT AND DIRECTOR OF BROADCAST MEDIA
Schake, Kristina K.            Employee       114000 Per Annum  SPECIAL ASSISTANT TO THE PRESIDENT AND DIRECTOR OF COMMUNICATIONS FOR THE FIRST LADY
Phillips, III, Robert M.       Employee       115000 Per Annum  SPECIAL ASSISTANT TO THE PRESIDENT AND DIRECTOR OF DIGITAL STRATEGY
Fernandez, Micaela J.          Employee       102000 Per Annum  SPECIAL ASSISTANT TO THE PRESIDENT AND DIRECTOR OF EVENTS AND PROTOCOL
Paige, Lauren R.               Employee        95000 Per Annum  SPECIAL ASSISTANT TO THE PRESIDENT AND DIRECTOR OF MESSAGE PLANNING
Olson, Elizabeth H.            Employee       110000 Per Annum  SPECIAL ASSISTANT TO THE PRESIDENT AND DIRECTOR OF PRESIDENTIAL CORRESPONDENCE
Holzer, Benjamin S.            Employee       100000 Per Annum  SPECIAL ASSISTANT TO THE PRESIDENT AND DIRECTOR OF RESEARCH
Kale, Katy A.                  Employee       130500 Per Annum  SPECIAL ASSISTANT TO THE PRESIDENT AND DIRECTOR OF WHITE HOUSE OPERATIONS
DuBois, Joshua P.              Employee       100000 Per Annum  SPECIAL ASSISTANT TO THE PRESIDENT AND EXECUTIVE DIRECTOR OF THE WHITE HOUSE OFFICE OF FAITH-BASED AND NEIGHBORHOOD PARTNERSHIPS
Love, Reginald L.              Employee       102000 Per Annum  SPECIAL ASSISTANT TO THE PRESIDENT AND PERSONAL AIDE TO THE PRESIDENT
Bhowmik, Rachana               Employee       100000 Per Annum  SPECIAL ASSISTANT TO THE PRESIDENT AND POLICY ADVISOR TO THE OFFICE OF THE CHIEF OF STAFF
Earnest, Joshua R.             Employee       123000 Per Annum  SPECIAL ASSISTANT TO THE PRESIDENT AND PRINCIPAL DEPUTY PRESS SECRETARY
Frankel, Adam P.               Employee       100000 Per Annum  SPECIAL ASSISTANT TO THE PRESIDENT AND SENIOR  PRESIDENTIAL SPEECHWRITER
Hurwitz, Sarah K.              Employee       100000 Per Annum  SPECIAL ASSISTANT TO THE PRESIDENT AND SENIOR  PRESIDENTIAL SPEECHWRITER
Nicholson, Jr., Marvin D.      Employee       130000 Per Annum  SPECIAL ASSISTANT TO THE PRESIDENT AND TRIP DIRECTOR
Bernard, Jeremy M.             Employee       118000 Per Annum  SPECIAL ASSISTANT TO THE PRESIDENT AND WHITE HOUSE SOCIAL SECRETARY
Kamin, David C.                Employee       130500 Per Annum  SPECIAL ASSISTANT TO THE PRESIDENT FOR ECONOMIC POLICY
Vogel, Matthew A.              Employee       130500 Per Annum  SPECIAL ASSISTANT TO THE PRESIDENT FOR ECONOMIC POLICY
Rodriguez, Roberto J.          Employee       120000 Per Annum  SPECIAL ASSISTANT TO THE PRESIDENT FOR EDUCATION POLICY
Keohane, Nathaniel O.          Employee       130500 Per Annum  SPECIAL ASSISTANT TO THE PRESIDENT FOR ENERGY AND ENVIRONMENT
Pyle, Michael J.               Employee       130500 Per Annum  SPECIAL ASSISTANT TO THE PRESIDENT FOR FINANCIAL AND INTERNATIONAL MARKETS
Fowler, Elizabeth J.           Employee       130500 Per Annum  SPECIAL ASSISTANT TO THE PRESIDENT FOR HEALTHCARE AND ECONOMIC POLICY
Lipton, David A.               Employee       149000 Per Annum  SPECIAL ASSISTANT TO THE PRESIDENT FOR INTERNATIONAL  ECONOMIC AFFAIRS
Croley, Steven P.              Employee       100000 Per Annum  SPECIAL ASSISTANT TO THE PRESIDENT FOR JUSTICE AND REGULATORY POLICY
Papa, Gregory J.               Employee       130500 Per Annum  SPECIAL ASSISTANT TO THE PRESIDENT FOR LEGISLATIVE AFFAIRS
Wilson, Denise R.              Employee       130500 Per Annum  SPECIAL ASSISTANT TO THE PRESIDENT FOR LEGISLATIVE AFFAIRS
Arguelles, Adam J.             Employee       102000 Per Annum  SPECIAL ASSISTANT TO THE PRESIDENT FOR LEGISLATIVE AFFAIRS
Kennedy, Sean D.               Employee       130500 Per Annum  SPECIAL ASSISTANT TO THE PRESIDENT FOR LEGISLATIVE AFFAIRS
Terrell, Louisa M.             Employee       130500 Per Annum  SPECIAL ASSISTANT TO THE PRESIDENT FOR LEGISLATIVE AFFAIRS
Singiser, Dana E.              Employee       130500 Per Annum  SPECIAL ASSISTANT TO THE PRESIDENT FOR LEGISLATIVE AFFAIRS
Pérez, Alejandro              Employee       130500 Per Annum  SPECIAL ASSISTANT TO THE PRESIDENT FOR LEGISLATIVE AFFAIRS
Kang, Christopher D.           Employee       130500 Per Annum  SPECIAL ASSISTANT TO THE PRESIDENT FOR LEGISLATIVE AFFAIRS
Miller, Jason S.               Employee       120000 Per Annum  SPECIAL ASSISTANT TO THE PRESIDENT FOR MANUFACTURING POLICY
Russell, Racquel S.            Employee       120000 Per Annum  SPECIAL ASSISTANT TO THE PRESIDENT FOR MOBILITY AND OPPORTUNITY POLICY
Martin, Joanna G.              Employee       102000 Per Annum  SPECIAL ASSISTANT TO THE PRESIDENT FOR PRESIDENTIAL PERSONNEL
Jamison, Linda S.              Employee       113000 Per Annum  SPECIAL ASSISTANT TO THE PRESIDENT FOR PRESIDENTIAL PERSONNEL
Srinivasagam, Kamala M.        Employee       113000 Per Annum  SPECIAL ASSISTANT TO THE PRESIDENT FOR PRESIDENTIAL PERSONNEL
Tamarin, Nathanael P.          Employee        96900 Per Annum  SPECIAL ASSISTANT TO THE PRESIDENT FOR PUBLIC ENGAGEMENT
Douglas, Derek R.              Employee       120000 Per Annum  SPECIAL ASSISTANT TO THE PRESIDENT FOR URBAN AFFAIRS
Hopkins, Marissa C.            Employee        60000 Per Annum  SPECIAL ASSISTANT TO THE PRESS SECRETARY
Branch, Katherine Y.           Employee        61200 Per Annum  SPECIAL ASSISTANT TO THE SENIOR ADVISOR
Burke, Jordan M.               Employee        60000 Per Annum  SPECIAL ASSISTANT TO THE SENIOR ADVISOR
Carter, Rhonda M.              Employee        63240 Per Annum  SPECIAL ASSISTANT TO THE WHITE HOUSE COUNSEL
Litt, David M.                 Employee        60000 Per Annum  SPEECHWRITER
Negash, Dabash A.              Employee        42000 Per Annum  STAFF ASSISTANT
Young, Nicole G.               Employee        42000 Per Annum  STAFF ASSISTANT
Young, Katherine H.            Employee        42000 Per Annum  STAFF ASSISTANT
Feuerstein, Sara A.            Employee        42000 Per Annum  STAFF ASSISTANT
Norris, Amanda J.              Employee        42000 Per Annum  STAFF ASSISTANT
Hsu, Irene                     Employee        42000 Per Annum  STAFF ASSISTANT
Lierman, Kyle J.               Employee        42000 Per Annum  STAFF ASSISTANT
Manus, Linda S.                Employee        42000 Per Annum  STAFF ASSISTANT
Rothman, Mika L.               Employee        42000 Per Annum  STAFF ASSISTANT
Kukla, Alison C.               Employee        42000 Per Annum  STAFF ASSISTANT
Koo, Jacqueline K.             Employee        42000 Per Annum  STAFF ASSISTANT
Doohan, Kelly C.               Employee        42000 Per Annum  STAFF ASSISTANT
Dorsainvil, Monique            Employee        42000 Per Annum  STAFF ASSISTANT
Pope, Jamal A.                 Employee        42000 Per Annum  STAFF ASSISTANT
Berret, Emily C.               Employee        42000 Per Annum  STAFF ASSISTANT
Sekhar, Sonia                  Employee        42000 Per Annum  STAFF ASSISTANT
Doumet, Mark A.                Employee        42000 Per Annum  STAFF ASSISTANT
Moilanen, Stephen S.           Employee        45000 Per Annum  STAFF ASSISTANT
Duncan, Julia L.               Employee        42000 Per Annum  STAFF ASSISTANT
Brundage, Daniel W.            Employee        47000 Per Annum  STAFF ASSISTANT TO THE DEPUTY CHIEF OF STAFF
Roach, Cynthia L.              Employee       103872 Per Annum  SUPERVISOR OF CLASSIFICATION
Tucker, Phyllis J.             Employee        92001 Per Annum  SUPERVISOR OF COMPUTER ADMINISTRATION
Brooke, Mary J.                Employee        92001 Per Annum  SUPERVISOR OF CORRESPONDENCE REVIEW
Stone, Wandra E.               Employee       112774 Per Annum  SUPERVISOR OF SEARCH AND FILE
Beechem, Stephanie             Employee        45000 Per Annum  VETTER    
Robinson, Derrick J.           Employee        45000 Per Annum  VETTER    
Herbek, Kathleen E.            Employee        42000 Per Annum  WEST WING RECEPTIONIST
Juska, Monika                  Employee        50000 Per Annum  WHITE HOUSE SERVICES MANAGER
Whithorne, Robert D.           Employee        50000 Per Annum  WRITER    
