Name                           Status         Salary Pay Basis  Position Title
====================================================================================================================================
Page, Darienne M.              Employee        50000 Per Annum  ASSISTANT DIRECTOR OF PUBLIC ENGAGEMENT
Plant, Jay M.                  Employee        42565 Per Annum  SENIOR ANALYST
Phillips, III, Robert M.       Employee       115000 Per Annum  SPECIAL ASSISTANT TO THE PRESIDENT AND DIRECTOR OF DIGITAL STRATEGY
Phadke, Shilpa D.              Employee        80000 Per Annum  DEPUTY DIRECTOR OF CABINET AFFAIRS
Pfeiffer, Howard D.            Employee       172200 Per Annum  ASSISTANT TO THE PRESIDENT AND DIRECTOR OF COMMUNICATIONS
Pérez, Alejandro              Employee       130500 Per Annum  SPECIAL ASSISTANT TO THE PRESIDENT FOR LEGISLATIVE AFFAIRS
Peele, Christian B.            Employee        50000 Per Annum  DIRECTOR OF WHITE HOUSE INTERNSHIP PROGRAM
Payne, John H.                 Employee        42000 Per Annum  INFORMATION SERVICES OPERATOR
Paulsen, Joseph B.             Employee        60000 Per Annum  DEPUTY DIRECTOR AND SURROGATE SCHEDULER
Pate, Brian E.                 Employee        51630 Per Annum  PRESIDENTIAL SUPPORT SPECIALIST
Parrott, James M.              Detailee       140259 Per Annum  "SENIOR ADVISOR FOR HOUSING
Parker, Doris D.               Employee        82359 Per Annum  ASSISTANT SUPERVISOR OF CLASSIFICATION
Papas, Nicholas W.             Employee        84250 Per Annum  ASSISTANT PRESS SECRETARY
Papa, Gregory J.               Employee       130500 Per Annum  SPECIAL ASSISTANT TO THE PRESIDENT FOR LEGISLATIVE AFFAIRS
Paige, Lauren R.               Employee        95000 Per Annum  SPECIAL ASSISTANT TO THE PRESIDENT AND DIRECTOR OF MESSAGE PLANNING
Platt, Katherine A.            Employee        75000 Per Annum  DIRECTOR OF WHITE HOUSE OPERATIONS
Palm, Andrea J.                Detailee       150000 Per Annum  "SENIOR ADVISOR FOR HEALTH
Owens, Rodrick T.              Employee        42000 Per Annum  ANALYST   
Ortiz, Michael R.              Employee        50000 Per Annum  LEGISLATIVE ASSISTANT AND SPECIAL ASSISTANT TO THE DIRECTOR
O'Neill, Brendan A.            Employee        42000 Per Annum  ANALYST   
O'Neil, Michael P.             Employee       100000 Per Annum  DIRECTOR OF SPECIAL PROJECTS AND SPECIAL ASSISTANT TO THE SENIOR ADVISOR
Olson, Elizabeth H.            Employee       110000 Per Annum  SPECIAL ASSISTANT TO THE PRESIDENT AND DIRECTOR OF PRESIDENTIAL CORRESPONDENCE
Olmos, Margaret C.             Employee        70000 Per Annum  DEPUTY DIRECTOR
Ogden, Peter R.                Detailee       115731 Per Annum  SENIOR POLICY ADVISOR
Offerman, Mary F.              Employee        55000 Per Annum  DEPUTY ASSOCIATE DIRECTOR
O'Connor, Kyle P.              Employee        50000 Per Annum  ASSISTANT SPEECHWRITER
Noyes, Diana L.                Employee        50000 Per Annum  RESEARCHER
Norris, Amanda J.              Employee        42000 Per Annum  STAFF ASSISTANT
Noel, Pascal J.                Employee        70000 Per Annum  SENIOR POLICY ADVISOR
Rathod, Nicholas S.            Employee        92000 Per Annum  DEPUTY DIRECTOR OF INTERGOVERNMENTAL AFFAIRS
Rodriguez, Roberto J.          Employee       120000 Per Annum  SPECIAL ASSISTANT TO THE PRESIDENT FOR EDUCATION POLICY
Roddick, Gertrude A.           Employee        89846 Per Annum  SPECIAL ASSISTANT
Robinson, Derrick J.           Employee        45000 Per Annum  VETTER    
Robertson, Iain T.             Employee        45000 Per Annum  COORDINATOR
Roberts, Blake C.              Employee       114000 Per Annum  ASSOCIATE COUNSEL
Roach, Cynthia L.              Employee       103872 Per Annum  SUPERVISOR OF CLASSIFICATION
Rivadeneira, Shirley C.        Employee        55000 Per Annum  DOMESTIC DIRECTOR
Richardson, Karen E.           Employee        60000 Per Annum  DEPUTY ASSOCIATE DIRECTOR OF PUBLIC ENGAGEMENT
Resnick, Jay A.                Detailee       155500 Per Annum  ETHICS ADVISOR
Reinstein, Joseph B.           Employee        66300 Per Annum  DEPUTY DIRECTOR AND DEPUTY SOCIAL SECRETARY
Reeves, Fiona O.               Employee        51000 Per Annum  ASSISTANT DIRECTOR
Reed, Ian P.                   Employee        50000 Per Annum  ASSOCIATE DIRECTOR FOR FINANCE
Read, Benjamin S.              Employee        42000 Per Annum  ANALYST   
Nicholson, Jr., Marvin D.      Employee       130000 Per Annum  SPECIAL ASSISTANT TO THE PRESIDENT AND TRIP DIRECTOR
Rangel, Antoinette N.          Employee        42000 Per Annum  PRESS ASSISTANT
Randle, Cole A.                Employee        45000 Per Annum  ASSOCIATE DIRECTOR AND TRAVEL MANAGER
Rana, Yasmin S.                Employee        42000 Per Annum  INFORMATION SERVICES OPERATOR
Raizk, Paul S.                 Employee       113605 Per Annum  DEPUTY DIRECTOR OF RECORDS MANAGEMENT
Quinn, Brian P.                Employee        47000 Per Annum  ASSOCIATE DIRECTOR AND TRAVEL MANAGER
Pyle, Michael J.               Employee       130500 Per Annum  SPECIAL ASSISTANT TO THE PRESIDENT FOR FINANCIAL AND INTERNATIONAL MARKETS
Psaki, Jennifer R.             Employee       150000 Per Annum  DEPUTY ASSISTANT TO THE PRESIDENT AND DEPUTY DIRECTOR OF COMMUNICATIONS
Pourmorad, Araz N.             Employee        55000 Per Annum  DEPUTY DIRECTOR FOR OPERATIONS
Posey, Stacie M.               Employee        45000 Per Annum  COORDINATOR
Pope, Jamal A.                 Employee        42000 Per Annum  STAFF ASSISTANT
Pollack, Joshua D.             Employee        95000 Per Annum  DIRECTOR OF CONFIRMATIONS
Pojman, Natalie R.             Employee        50000 Per Annum  POLICY ASSISTANT
Plouffe, David A.              Employee       172200 Per Annum  ASSISTANT TO THE PRESIDENT AND SENIOR ADVISOR
Lu, Christopher P.             Employee       172200 Per Annum  ASSISTANT TO THE PRESIDENT AND CABINET SECRETARY
McCullough, Duncan J.          Employee        42000 Per Annum  ANALYST   
McCathran, William W.          Employee       106839 Per Annum  ASSISTANT EXECUTIVE CLERK
McCarthy, Mary N.              Employee        80000 Per Annum  DEPUTY DIRECTOR OF CABINET AFFAIRS
McBride, Jonathan D.           Employee       130000 Per Annum  SPECIAL ASSISTANT TO THE PRESIDENT AND DEPUTY DIRECTOR OF PRESIDENTIAL PERSONNEL
Mattson, Philip C.             Employee        61952 Per Annum  SPECIAL ASSISTANT
Mastromonaco, Alyssa M.        Employee       172200 Per Annum  ASSISTANT TO THE PRESIDENT AND DEPUTY CHIEF OF STAFF FOR OPERATIONS
Maska, Johanna M.              Employee        80000 Per Annum  DEPUTY DIRECTOR OF ADVANCE AND DIRECTOR OF PRESS ADVANCE
Martin, Joanna G.              Employee       102000 Per Annum  SPECIAL ASSISTANT TO THE PRESIDENT FOR PRESIDENTIAL PERSONNEL
Markovitz, Alison J.           Employee        80000 Per Annum  DEPUTY ASSOCIATE COUNSEL FOR PRESIDENTIAL PERSONNEL
Manus, Linda S.                Employee        42000 Per Annum  STAFF ASSISTANT
Main, Galen E.                 Employee        45000 Per Annum  COORDINATOR
Maher, Shawn P.                Employee       158500 Per Annum  DEPUTY ASSISTANT TO THE PRESIDENT FOR LEGISLATIVE AFFAIRS AND SENATE LIAISON
Mack, William B.               Employee        80000 Per Annum  DEPUTY ASSOCIATE COUNSEL FOR PRESIDENTIAL PERSONNEL
Luck, Deatrice N.              Employee        45024 Per Annum  INFORMATION SERVICES OPERATOR
McCullough, Victoria M.        Employee        45000 Per Annum  EXECUTIVE ASSISTANT TO THE DIRECTOR OF PUBLIC ENGAGEMENT
Lovett, Jonathan I.            Employee        75000 Per Annum  PRESIDENTIAL SPEECHWRITER
Love, Reginald L.              Employee       102000 Per Annum  SPECIAL ASSISTANT TO THE PRESIDENT AND PERSONAL AIDE TO THE PRESIDENT
Lorjuste, Gregory              Employee        58000 Per Annum  SENIOR SCHEDULER
Litt, David M.                 Employee        60000 Per Annum  SPEECHWRITER
Lipton, David A.               Employee       149000 Per Annum  SPECIAL ASSISTANT TO THE PRESIDENT FOR INTERNATIONAL  ECONOMIC AFFAIRS
Lipsky, Joshua S.              Employee        50000 Per Annum  SPECIAL ASSISTANT AND PRESS LEAD
Lippert, Mark W.               Employee       147500 Per Annum  DEPUTY ASSISTANT TO THE PRESIDENT AND CHIEF OF STAFF FOR NATIONAL SECURITY OPERATIONS
Lindsay, Erin E.               Employee        47500 Per Annum  ASSOCIATE DIRECTOR OF ONLINE ENGAGEMENT
Lierman, Kyle J.               Employee        42000 Per Annum  STAFF ASSISTANT
Liegel, Christopher J.         Employee        42000 Per Annum  RECORDS MANAGEMENT ANALYST
Lezotte, Darin R.              Employee        62544 Per Annum  RECORDS MANAGEMENT ANALYST
Lewis, Kevin S.                Employee        78000 Per Annum  DIRECTOR OF AFRICAN-AMERICAN MEDIA
Lewin, Jesse M.                Employee        42000 Per Annum  PRESS ASSISTANT
Modi, Kalpen S.                Employee        41000 Per Annum  ASSOCIATE DIRECTOR
Nelson, Gregory S.             Employee        92000 Per Annum  DEPUTY DIRECTOR OF PUBLIC ENGAGEMENT
Nelson, Elizabeth W.           Employee        75000 Per Annum  DEPUTY DIRECTOR OF SCHEDULING
Neiman, Wanda M.               Employee        74958 Per Annum  ASSISTANT TO THE EXECUTIVE CLERK
Negash, Dabash A.              Employee        42000 Per Annum  STAFF ASSISTANT
Naidoff, Caitlin L.            Employee        60000 Per Annum  SPECIAL ASSISTANT TO THE COUNSELOR TO THE PRESIDENT
Nabors, Robert L.              Employee       172200 Per Annum  "ASSISTANT TO THE PRESIDENT AND DIRECTOR
Muñoz, Cecilia                Employee       153500 Per Annum  DEPUTY ASSISTANT TO THE PRESIDENT AND DIRECTOR OF INTERGOVERNMENTAL AFFAIRS
Mosteller, Brian D.            Employee        95000 Per Annum  PERSONAL AIDE TO THE PRESIDENT
Moseley, Julia S.              Employee        57000 Per Annum  SPECIAL ASSISTANT AND ADVANCE LEAD
Montz, Ellen J.                Employee        50000 Per Annum  POLICY ASSISTANT
Monteiro, Darron P.            Employee        61200 Per Annum  DEPUTY ASSOCIATE DIRECTOR OF PUBLIC ENGAGEMENT
Monje, Jr., Carlos A.          Employee       120000 Per Annum  SPECIAL ASSISTANT TO THE PRESIDENT AND CHIEF OF STAFF OF THE DOMESTIC POLICY COUNCIL
Moilanen, Stephen S.           Employee        45000 Per Annum  STAFF ASSISTANT
Romaine, Joan C.               Detailee       119238 Per Annum  POLICY ADVISOR
Miranda, Luis A.               Employee        78000 Per Annum  DIRECTOR OF HISPANIC MEDIA
Millison, Chad L.              Employee        61952 Per Annum  RECORDS MANAGEMENT ANALYST
Miller, Jason S.               Employee       120000 Per Annum  SPECIAL ASSISTANT TO THE PRESIDENT FOR MANUFACTURING POLICY
Milakofsky, Benjamin E.        Employee        50000 Per Annum  ASSISTANT DIRECTOR OF CABINET AFFAIRS
Metcalf, Ryan D.               Employee        42565 Per Annum  SENIOR ANALYST
Mehrbani, Rodin A.             Employee        90000 Per Annum  SENIOR VETTING COUNSEL FOR PRESIDENTIAL PERSONNEL
McSwain, Jr.,  Michael S.      Employee        41000 Per Annum  ASSOCIATE DIRECTOR FOR SCHEDULING CORRESPONDENCE
McMahon, Collin T.             Employee        55000 Per Annum  NATIONAL SECURITY DIRECTOR
McLaughlin, Margaret T.        Employee       120000 Per Annum  SPECIAL ASSISTANT TO THE PRESIDENT AND CHIEF OF STAFF FOR PRESIDENTIAL PERSONNEL
McKalip, Douglas J.            Detailee       165300 Per Annum  SENIOR POLICY ADVISOR
McGowan, Lukas J.              Employee        45000 Per Annum  LEGISLATIVE ASSISTANT AND ASSISTANT TO THE HOUSE LIAISON
McGinnis, Patricia G.          Employee            0 Per Annum  ADVISOR   
McDonough, Denis R.            Employee       172200 Per Annum  ASSISTANT TO THE PRESIDENT AND DEPUTY NATIONAL SECURITY ADVISOR
Trainor, Gregory T.            Employee        68230 Per Annum  SPECIAL ASSISTANT
Vietor, Thomas F.              Employee       105000 Per Annum  SENIOR DIRECTOR AND NATIONAL SECURITY STAFF SPOKESMAN
Venegas, Katherine E.          Employee        42000 Per Annum  ENERGY AND ENVIRONMENT STAFF ASSISTANT
Vega, Dagoberto                Employee       100000 Per Annum  SPECIAL ASSISTANT TO THE PRESIDENT AND DIRECTOR OF BROADCAST MEDIA
Varghese, Maju S.              Employee        55000 Per Annum  SPECIAL ASSISTANT AND ADVANCE LEAD
Van Es, Christopher J.         Employee        42000 Per Annum  ANALYST   
Valencia, Stephanie M.         Employee        61200 Per Annum  DEPUTY ASSOCIATE DIRECTOR OF PUBLIC ENGAGEMENT
Utech, Dan G.                  Employee       100000 Per Annum  DEPUTY DIRECTOR FOR ENERGY AND CLIMATE CHANGE
Urquilla, Marta B.             Employee        95000 Per Annum  SENIOR POLICY ADVISOR FOR SOCIAL INNOVATION AND CIVIC PARTICIPATION
Upperman, Christopher R.       Employee        42000 Per Annum  ANALYST   
Updegrove, Laura L.            Employee        60000 Per Annum  SPECIAL ASSISTANT TO THE DEPUTY CHIEF OF STAFF
Turk, Andrea E.                Employee        70000 Per Annum  DIRECTOR OF INFORMATION SERVICES
Tucker, Phyllis J.             Employee        92001 Per Annum  SUPERVISOR OF COMPUTER ADMINISTRATION
Tubman, Samantha J.            Employee        65000 Per Annum  DEPUTY DIRECTOR AND DEPUTY SOCIAL SECRETARY
Tseggai, Gannet L.             Employee        78000 Per Annum  "COMMUNICATIONS ADVISOR
Vogel, Matthew A.              Employee       130500 Per Annum  SPECIAL ASSISTANT TO THE PRESIDENT FOR ECONOMIC POLICY
Tiller, Jeffrey D.             Employee        50000 Per Annum  SPECIAL ASSISTANT AND PRESS LEAD
Thomas, III, Edwin R.          Employee       100904 Per Annum  ASSISTANT EXECUTIVE CLERK
Terrell, Louisa M.             Employee       130500 Per Annum  SPECIAL ASSISTANT TO THE PRESIDENT FOR LEGISLATIVE AFFAIRS
Teehee, Kimberly K.            Employee       100000 Per Annum  SENIOR POLICY ADVISOR FOR NATIVE AMERICAN AFFAIRS
Teater, Louis D.               Employee        57000 Per Annum  SPECIAL ASSISTANT AND ADVANCE LEAD
Tchen, Christina M.            Employee       172200 Per Annum  ASSISTANT TO THE PRESIDENT AND CHIEF OF STAFF TO THE FIRST LADY
Tate-Gilmore, Ashley R.        Employee        75000 Per Annum  DIRECTOR OF TRAVEL OFFICE
Tamarin, Nathanael P.          Employee        96900 Per Annum  SPECIAL ASSISTANT TO THE PRESIDENT FOR PUBLIC ENGAGEMENT
Taggart, Jr., Hugh T.          Employee        92341 Per Annum  ASSISTANT SUPERVISOR OF SEARCH AND FILE
Swanson, Gregory C.            Employee        42565 Per Annum  SENIOR ANALYST
Sutton, Nikki E.               Employee        62500 Per Annum  DEPUTY DIRECTOR OF DIGITAL CONTENT
Strautmanis, Michael A.        Employee       150000 Per Annum  DEPUTY ASSISTANT TO THE PRESIDENT AND COUNSELOR TO THE SENIOR  ADVISOR FOR STRATEGIC ENGAGEMENT
Stone, Wandra E.               Employee       112774 Per Annum  SUPERVISOR OF SEARCH AND FILE
Whitty, Patrick M.             Employee        45000 Per Annum  EXECUTIVE ASSISTANT
Zuckerman, Mark                Employee       158500 Per Annum  DEPUTY ASSISTANT TO THE PRESIDENT AND DEPUTY DIRECTOR OF THE DOMESTIC POLICY COUNCIL
Zichal, Heather R.             Employee       140000 Per Annum  DEPUTY ASSISTANT TO THE PRESIDENT FOR ENERGY AND CLIMATE CHANGE
Zelman, Allison L.             Employee        50000 Per Annum  POLICY ASSISTANT
Young, Nicole G.               Employee        42000 Per Annum  STAFF ASSISTANT
Young, Latoya A.               Employee        60232 Per Annum  RECORDS MANAGEMENT ANALYST
Young, Katherine H.            Employee        42000 Per Annum  STAFF ASSISTANT
Young, Jr., Reginald D.        Employee        61952 Per Annum  RECORDS MANAGEMENT ANALYST
Wright, Jessica N.             Employee       130000 Per Annum  DEPUTY ASSISTANT TO THE PRESIDENT AND DIRECTOR OF SCHEDULING
Wright, Andrew M.              Employee       130500 Per Annum  SPECIAL ASSISTANT TO THE PRESIDENT AND ASSOCIATE COUNSEL TO THE PRESIDENT
Wong, Shale L.                 Employee            0 Per Annum  POLICY ADVISOR
Winter, Melissa E.             Employee       120000 Per Annum  SPECIAL ASSISTANT TO THE PRESIDENT AND DEPUTY CHIEF OF STAFF  AND DIRECTOR OF OPERATIONS FOR THE FIRST LADY
Wilson, Denise R.              Employee       130500 Per Annum  SPECIAL ASSISTANT TO THE PRESIDENT FOR LEGISLATIVE AFFAIRS
Williams, Sherman A.           Employee        77040 Per Annum  ASSISTANT TO THE EXECUTIVE CLERK
Stoev, Ivan S.                 Employee        50000 Per Annum  ASSISTANT DIRECTOR
Whithorne, Robert D.           Employee        50000 Per Annum  WRITER    
Whichard, IV, David J.         Employee        50000 Per Annum  ASSOCIATE DIRECTOR AND TRIP COORDINATOR
Welsch, Peter A.               Employee        62500 Per Annum  DEPUTY DIRECTOR OF ONLINE PLATFORM
Wear, Michael R.               Employee        47000 Per Annum  EXECUTIVE ASSISTANT TO THE EXECUTIVE DIRECTOR
Watson, Takesha R.             Employee        45024 Per Annum  INFORMATION SERVICES OPERATOR
Washington, Andrea J.          Employee        50000 Per Annum  SENIOR WRITER
Wang-Levine, Adam              Employee        55080 Per Annum  POLICY ADVISOR
Wallach, Brian S.              Employee        80000 Per Annum  DEPUTY ASSOCIATE COUNSEL FOR PRESIDENTIAL PERSONNEL
Wall, Mary C.                  Employee        50000 Per Annum  POLICY ASSISTANT
Wade, Frances J.               Employee        46745 Per Annum  RECORDS MANAGEMENT ANALYST
Wade, David L.                 Employee        60000 Per Annum  ASSOCIATE DIRECTOR
Vrazilek, Lauren S.            Employee        42000 Per Annum  DEPUTY ASSOCIATE DIRECTOR OF CORRESPONDENCE FOR THE FIRST LADY
Vogel, Miriam H.               Detailee       144385 Per Annum  SENIOR POLICY ADVISOR
Sass, Joan C.                  Employee        58511 Per Annum  INFORMATION SERVICES OPERATOR
Selak, Dawn M.                 Employee        57500 Per Annum  EXECUTIVE ASSISTANT
Sekhar, Sonia                  Employee        42000 Per Annum  STAFF ASSISTANT
Schumer, Jessica E.            Employee            0 Per Annum  SENIOR POLICY ADVISOR
Schultz, Eric H.               Employee        90000 Per Annum  ASSOCIATE COMMUNICATIONS DIRECTOR
Schulman, Kori S.              Employee        62500 Per Annum  DEPUTY DIRECTOR OF DIGITAL CONTENT
Schmuck, Robert E.             Employee        50000 Per Annum  ASSOCIATE DIRECTOR OF SCHEDULING AND ADVANCE
Schiliro, Philip M.            Employee       172200 Per Annum  ASSISTANT TO THE PRESIDENT AND SPECIAL ADVISOR
Schaub, Matthew J.             Employee        50000 Per Annum  ASSISTANT DIRECTOR
Schake, Kristina K.            Employee       114000 Per Annum  SPECIAL ASSISTANT TO THE PRESIDENT AND DIRECTOR OF COMMUNICATIONS FOR THE FIRST LADY
Schafer, Ellie S.              Employee        80000 Per Annum  DIRECTOR OF VISITORS OFFICE
Saunders, George T.            Employee       155500 Per Annum  EXECUTIVE CLERK
Satkowiak, Karly M.            Employee        45000 Per Annum  ASSOCIATE DIRECTOR AND SCHEDULING RESEARCHER
Sathe, Smrthi                  Employee        70000 Per Annum  ASSOCIATE DIRECTOR
Selfridge, Peter A.            Employee       102000 Per Annum  SPECIAL ASSISTANT TO THE PRESIDENT AND DEPUTY DIRECTOR OF ADVANCE
Sanders, Trooper               Employee        85000 Per Annum  DEPUTY DIRECTOR OF POLICY AND PROJECTS FOR THE FIRST LADY
Sanchez, Roque T.              Employee        45000 Per Annum  POLICY ANALYST
Samuels, Jonathan D.           Employee       158500 Per Annum  DEPUTY ASSISTANT TO THE PRESIDENT FOR LEGISLATIVE AFFAIRS AND HOUSE LIAISON
Samuels, Jr., Wendell A.       Employee        64439 Per Annum  RECORDS SYSTEMS ANALYST
Sahgal, Rishi R.               Employee        75000 Per Annum  DIRECTOR OF WHITE HOUSE PERSONNEL
Sabochik, Katelyn A.           Employee        72500 Per Annum  DIRECTOR OF ONLINE ENGAGEMENT
Saavedra, Natalie H.           Employee        43616 Per Annum  INFORMATION SERVICES OPERATOR
Ryan, Timothy J.               Employee        87000 Per Annum  DIRECTOR OF SYSTEMS DEVELOPMENT FOR PRESIDENTIAL PERSONNEL
Russell, Racquel S.            Employee       120000 Per Annum  SPECIAL ASSISTANT TO THE PRESIDENT FOR MOBILITY AND OPPORTUNITY POLICY
Ruemmler, Kathryn H.           Employee       172200 Per Annum  ASSISTANT TO THE PRESIDENT AND COUNSEL TO THE PRESIDENT
Rouse, Peter M.                Employee       172200 Per Annum  COUNSELOR TO THE PRESIDENT
Rothman, Mika L.               Employee        42000 Per Annum  STAFF ASSISTANT
Rosholm, Joanna S.             Employee        70000 Per Annum  REGIONAL COMMUNICATIONS DIRECTOR
Smith, Jason J.                Employee        45000 Per Annum  COORDINATOR
Stevens, Clark W.              Employee        84250 Per Annum  ASSISTANT PRESS SECRETARY
Stephens, Semonti M.           Employee        75000 Per Annum  DEPUTY COMMUNICATIONS DIRECTOR 
Stephens, Jeffrey M.           Employee        76500 Per Annum  PRINCIPAL DEPUTY DIRECTOR
Starr, Kodiak H.               Employee        72500 Per Annum  NEW MEDIA CREATIVE DIRECTOR
Starkey, Frances M.            Employee        90000 Per Annum  DIRECTOR OF SCHEDULING AND ADVANCE FOR THE FIRST LADY
Starke, Petra S.               Employee        99000 Per Annum  DEPUTY ASSOCIATE COUNSEL
Srinivasagam, Kamala M.        Employee       113000 Per Annum  SPECIAL ASSISTANT TO THE PRESIDENT FOR PRESIDENTIAL PERSONNEL
Spooner, Sarah C.              Employee        42000 Per Annum  ANALYST   
Sperling, Eugene B.            Employee       172200 Per Annum  ASSISTANT TO THE PRESIDENT FOR ECONOMIC POLICY AND DIRECTOR OF THE NATIONAL ECONOMIC COUNCIL
Sobel, Charlie J.              Employee        55000 Per Annum  DIRECTOR OF OPERATIONS
Smith, Zakiya W.               Employee        93000 Per Annum  SENIOR POLICY ADVISOR FOR EDUCATION
Smith, Marissa L.              Employee        45000 Per Annum  RESEARCHER
Smith, Kelley S.               Employee        42565 Per Annum  SENIOR ANALYST
Lew, Shoshana M.               Employee        89000 Per Annum  SENIOR POLICY DIRECTOR
Smith, Jamie E.                Employee       110500 Per Annum  SPECIAL ASSISTANT TO THE PRESIDENT AND DEPUTY PRESS SECRETARY
Smith, Elizabeth S.            Employee       130000 Per Annum  DEPUTY ASSISTANT TO THE PRESIDENT AND DEPUTY CABINET SECRETARY
Skinner, Reginald M.           Detailee       140259 Per Annum  DEPUTY ASSOCIATE COUNSEL FOR PRESIDENTIAL PERSONNEL
Siskel, Edward N.              Employee       130500 Per Annum  SPECIAL ASSISTANT TO THE PRESIDENT AND ASSOCIATE COUNSEL TO THE PRESIDENT
Singiser, Dana E.              Employee       130500 Per Annum  SPECIAL ASSISTANT TO THE PRESIDENT FOR LEGISLATIVE AFFAIRS
Siegel, Julia B.               Employee        60000 Per Annum  SPECIAL ASSISTANT TO THE CHIEF OF STAFF
Siegel, Avra C.                Employee        50000 Per Annum  SPECIAL ASSISTANT TO THE DEPUTY ASSISTANT TO THE PRESIDENT
Sibley, Sarah E.               Employee        60000 Per Annum  ASSISTANT STAFF SECRETARY
Showers, Wendy W.              Employee        84855 Per Annum  PRESIDENTIAL SUPPORT SPECIALIST
Shaw, Katherine A.             Employee       130500 Per Annum  SPECIAL ASSISTANT TO THE PRESIDENT AND ASSOCIATE COUNSEL TO THE PRESIDENT
Shannon, Sara M.               Employee        42000 Per Annum  ANALYST   
Shah, Sonal R.                 Employee       120000 Per Annum  "DEPUTY ASSISTANT TO THE PRESIDENT AND DIRECTOR
Setser, Bradley W.             Employee       110500 Per Annum  DIRECTOR  
Cox, Shileta J.                Detailee        66630 Per Annum  ANALYST   
De, Rajesh                     Employee       158500 Per Annum  DEPUTY ASSISTANT TO THE PRESIDENT AND STAFF SECRETARY
De Sio, Jr., Henry F.          Employee       153300 Per Annum  DEPUTY ASSISTANT TO THE PRESIDENT FOR MANAGEMENT AND ADMINISTRATION
Davies, Susan M.               Employee       158500 Per Annum  DEPUTY ASSISTANT TO THE PRESIDENT AND DEPUTY COUNSEL TO THE PRESIDENT
Daley, William M.              Employee       172200 Per Annum  ASSISTANT TO THE PRESIDENT AND CHIEF OF STAFF
Dale, Kareem A.                Employee        80000 Per Annum  SPECIAL ASSISTANT TO THE PRESIDENT AND DEPUTY ASSOCIATE DIRECTOR OF PUBLIC ENGAGEMENT
Cutter, Stephanie N.           Employee       172200 Per Annum  ASSISTANT TO THE PRESIDENT AND DEPUTY SENIOR ADVISOR
Cushman, Chase M.              Employee        58000 Per Annum  SENIOR SCHEDULER
Cusack, David J.               Employee       130000 Per Annum  DEPUTY ASSISTANT TO THE PRESIDENT AND DIRECTOR OF ADVANCE AND OPERATIONS
Cunningham, Vinson T.          Employee        42000 Per Annum  ECONOMICS STAFF ASSISTANT
Cunnane, Patrick J.            Employee        42000 Per Annum  MEDIA MONITOR
Cuellar, Martin E.             Employee        91800 Per Annum  "DEPUTY DIRECTOR
Crutchfield, Danielle M.       Employee       140000 Per Annum  DEPUTY ASSISTANT TO THE PRESIDENT AND DIRECTOR OF SCHEDULING AND ADVANCE
Crowley, Jeffrey S.            Employee       102000 Per Annum  DIRECTOR OF THE OFFICE OF NATIONAL AIDS POLICY AND SENIOR ADVISOR ON DISABILITY POLICY
Croley, Steven P.              Employee       100000 Per Annum  SPECIAL ASSISTANT TO THE PRESIDENT FOR JUSTICE AND REGULATORY POLICY
Deese, Brian C.                Employee       130500 Per Annum  "SPECIAL ASSISTANT TO THE PRESIDENT AND DEPUTY DIRECTOR
Corogenes, Katherine L.        Employee        45000 Per Annum  RESEARCHER
Conrad, Shasti K.              Employee        42000 Per Annum  EXECUTIVE ASSISTANT TO THE SENIOR ADVISOR
Cokley, Rebecca A.             Employee        72000 Per Annum  PRIORITY PLACEMENT DIRECTOR
Coccaro, Kasie M.              Employee        47500 Per Annum  ASSOCIATE DIRECTOR OF ONLINE OUTREACH AND OPERATIONS
Cobbina, Kwesi A.              Employee        65000 Per Annum  "CHIEF OF STAFF
Clunie, David G.               Employee        80000 Per Annum  DEPUTY ASSOCIATE COUNSEL FOR PRESIDENTIAL PERSONNEL
Click, John S.                 Employee        42000 Per Annum  INFORMATION SERVICES OPERATOR
Cleland, Jeannette M.          Employee        66300 Per Annum  DEPUTY DIRECTOR OF SCHEDULING AND EVENTS COORDINATOR FOR THE FIRST LADY
Claude, Lilia H.               Employee        58511 Per Annum  INFORMATION SERVICES OPERATOR
Chiodo, Theodore A.            Employee        65000 Per Annum  ASSISTANT STAFF SECRETARY
Childs, Heather G.             Detailee       108717 Per Annum  DEPUTY ASSOCIATE COUNSEL FOR PRESIDENTIAL PERSONNEL
Chhabra, Anand                 Employee        45000 Per Annum  SPECIAL ASSISTANT
Case, Michael A.               Employee        50000 Per Annum  SENIOR WRITER
Duncan, Julia L.               Employee        42000 Per Annum  STAFF ASSISTANT
Filipic, Anne E.               Employee        92000 Per Annum  DEPUTY DIRECTOR OF PUBLIC ENGAGEMENT
Feuerstein, Sara A.            Employee        42000 Per Annum  STAFF ASSISTANT
Fernandez, Micaela J.          Employee       102000 Per Annum  SPECIAL ASSISTANT TO THE PRESIDENT AND DIRECTOR OF EVENTS AND PROTOCOL
Fenn, Sarah B.                 Employee        60000 Per Annum  ASSISTANT COUNSEL OF ETHICS
Favreau, Jonathan E.           Employee       172200 Per Annum  ASSISTANT TO THE PRESIDENT AND DIRECTOR OF SPEECHWRITING
Espinel, Zulima L.             Employee       130500 Per Annum  SPECIAL ASSISTANT TO THE PRESIDENT AND ASSOCIATE COUNSEL TO THE PRESIDENT
Escobar, Felicia A.            Employee        93000 Per Annum  SENIOR POLICY ADVISOR
Ellinwood, Todd A.             Detailee       136134 Per Annum  DEPUTY ASSOCIATE COUNSEL FOR PRESIDENTIAL PERSONNEL
Edmonds, Anita J.              Employee        49069 Per Annum  RECORDS MANAGEMENT ANALYST
Eckhouse, Sara F.              Employee        45000 Per Annum  LEGISLATIVE ASSISTANT AND ASSISTANT TO THE SENATE LIAISON
Earnest, Joshua R.             Employee       123000 Per Annum  SPECIAL ASSISTANT TO THE PRESIDENT AND PRINCIPAL DEPUTY PRESS SECRETARY
Dyer, Deesha A.                Employee        55000 Per Annum  DEPUTY DIRECTOR AND HOTEL PROGRAM MANAGER
Dunn, Lauren P.                Employee        50000 Per Annum  "POLICY ASSISTANT
Carter, Rhonda M.              Employee        63240 Per Annum  SPECIAL ASSISTANT TO THE WHITE HOUSE COUNSEL
DuBois, Joshua P.              Employee       100000 Per Annum  SPECIAL ASSISTANT TO THE PRESIDENT AND EXECUTIVE DIRECTOR OF THE WHITE HOUSE OFFICE OF FAITH-BASED AND NEIGHBORHOOD PARTNERSHIPS
Droege, Philip C.              Employee       140259 Per Annum  DIRECTOR OF RECORDS MANAGEMENT
Doumet, Mark A.                Employee        42000 Per Annum  STAFF ASSISTANT
Douglas, Derek R.              Employee       120000 Per Annum  SPECIAL ASSISTANT TO THE PRESIDENT FOR URBAN AFFAIRS
Dorsett, Craig M.              Employee        50000 Per Annum  SENIOR WRITER
Dorsainvil, Monique            Employee        42000 Per Annum  STAFF ASSISTANT
Doohan, Kelly C.               Employee        42000 Per Annum  STAFF ASSISTANT
Donovan, William J.            Employee        55000 Per Annum  ENERGY AND ENVIRONMENT DIRECTOR
Donovan, Michael W.            Employee        54000 Per Annum  ASSOCIATE DIRECTOR OF SCHEDULING
Donilon, Thomas E.             Employee       172200 Per Annum  ASSISTANT TO THE PRESIDENT AND NATIONAL SECURITY ADVISOR
DeParle, Nancy-Ann Min         Employee       172200 Per Annum  ASSISTANT TO THE PRESIDENT AND DEPUTY CHIEF OF STAFF FOR POLICY
DeGuzman, Brian K.             Employee        46745 Per Annum  INFORMATION SERVICES OPERATOR
DeGuzman, Jr., Danilo          Employee        72876 Per Annum  PRESIDENTIAL SUPPORT SPECIALIST
Barnes, Melody C.              Employee       172200 Per Annum  ASSISTANT TO THE PRESIDENT AND DIRECTOR OF THE DOMESTIC POLICY COUNCIL
Bershteyn, Boris               Employee       130500 Per Annum  SPECIAL ASSISTANT TO THE PRESIDENT AND ASSOCIATE COUNSEL TO THE PRESIDENT
Berret, Emily C.               Employee        42000 Per Annum  STAFF ASSISTANT
Bernard, Sarah C.              Employee        80000 Per Annum  DEPUTY DIRECTOR OF DIGITAL STRATEGY
Bernard, Jeremy M.             Employee       118000 Per Annum  SPECIAL ASSISTANT TO THE PRESIDENT AND WHITE HOUSE SOCIAL SECRETARY
Beliveau, Emmett S.            Employee       130000 Per Annum  "DEPUTY ASSISTANT TO THE PRESIDENT AND DIRECTOR
Belive, Lauren E.              Employee        45000 Per Annum  LEGISLATIVE ASSISTANT AND ASSISTANT FOR EVENTS
Belford, Brandon M.            Detailee       119238 Per Annum  SENIOR POLICY ADVISOR
Beechem, Stephanie             Employee        45000 Per Annum  VETTER    
Bedingfield, Katherine J.      Employee        90000 Per Annum  ASSOCIATE COMMUNICATIONS DIRECTOR
Becnel, Bradley D.             Employee        57000 Per Annum  SPECIAL ASSISTANT AND ADVANCE LEAD
Bates, Andrew J.               Employee        45000 Per Annum  PRESS ASSISTANT
Bassin, Ian M.                 Employee       114000 Per Annum  ASSOCIATE COUNSEL
Baskerville, Mary E.           Employee        45000 Per Annum  ASSOCIATE DIRECTOR AND TRAVEL MANAGER
Bartoloni, Kristen A.          Employee        45000 Per Annum  RESEARCHER
Bhowmik, Rachana               Employee       100000 Per Annum  SPECIAL ASSISTANT TO THE PRESIDENT AND POLICY ADVISOR TO THE OFFICE OF THE CHIEF OF STAFF
Baia, Ashley E.                Detailee        53350 Per Annum  DEPUTY ASSOCIATE DIRECTOR
Baggetto, Maude L.             Employee        50000 Per Annum  SPECIAL ASSISTANT TO THE DIRECTOR OF INTERGOVERNMENTAL AFFAIRS
Ayling, Lindsay A.             Employee        42565 Per Annum  SENIOR ANALYST
August, Hannah M.              Employee        70000 Per Annum  PRESS SECRETARY TO THE FIRST LADY
Asen, Jonathan D.              Employee        45000 Per Annum  LEGISLATIVE ASSISTANT AND ASSOCIATE DIRECTOR FOR LEGISLATIVE CORRESPONDENCE
Arguelles, Adam J.             Employee       102000 Per Annum  SPECIAL ASSISTANT TO THE PRESIDENT FOR LEGISLATIVE AFFAIRS
Apsel, Sarah                   Detailee       108717 Per Annum  POLICY ASSISTANT
Anderson, Brooke D.            Employee       147500 Per Annum  DEPUTY ASSISTANT TO THE PRESIDENT AND NATIONAL SECURITY STAFF CHIEF OF STAFF  AND COUNSELOR
Anderson, Amanda D.            Employee        80000 Per Annum  SENIOR LEGISLATIVE AFFAIRS ADVISOR
Alley, Hilary J.               Employee        45000 Per Annum  ASSOCIATE DIRECTOR
Albino, James N.               Employee        93000 Per Annum  SENIOR PROGRAM MANAGER
Agnew, David P.                Employee        93840 Per Annum  DEPUTY DIRECTOR OF INTERGOVERNMENTAL AFFAIRS
Abrevaya, Sandra               Employee        90000 Per Annum  ASSOCIATE COMMUNICATIONS DIRECTOR
Brundage, Amy J.               Employee        84250 Per Annum  ASSISTANT PRESS SECRETARY
Carson, Jonathan K.            Employee       153500 Per Annum  DEPUTY ASSISTANT TO THE PRESIDENT AND DIRECTOR OF THE OFFICE OF PUBLIC ENGAGEMENT 
Carney, James F.               Employee       172200 Per Annum  ASSISTANT TO THE PRESIDENT AND PRESS SECRETARY
Cannon, Sarah R.               Employee        55000 Per Annum  POLICY ADVISOR
Canery, Beverly D.             Employee        58511 Per Annum  INFORMATION SERVICES OPERATOR
Campoverdi, Alejandra M.       Employee        65000 Per Annum  DEPUTY DIRECTOR OF HISPANIC MEDIA
Campos, David R.               Employee        42565 Per Annum  SENIOR ANALYST
Campbell, Nnaji-Semayi K.      Employee        45000 Per Annum  COORDINATOR
Campbell, Grant E.             Employee        50000 Per Annum  ASSOCIATE DIRECTOR AND TRIP COORDINATOR
Campbell, Frances L.           Employee       103872 Per Annum  "SUPERVISOR
Burke, Jordan M.               Employee        60000 Per Annum  SPECIAL ASSISTANT TO THE SENIOR ADVISOR
Buckhout, Scott E.             Employee        45000 Per Annum  SPECIAL ASSISTANT TO THE DIRECTOR
Brush, Michael P.              Employee        65000 Per Annum  SENIOR ADVANCE LEAD
Brundage, Daniel W.            Employee        47000 Per Annum  STAFF ASSISTANT TO THE DEPUTY CHIEF OF STAFF
Finke, Samantha D.             Employee        50000 Per Annum  SPECIAL ASSISTANT AND PRESS LEAD
Brooke, Mary J.                Employee        92001 Per Annum  SUPERVISOR OF CORRESPONDENCE REVIEW
Britton-Faison, Chantelle V.   Detailee        92001 Per Annum  POLICY ADVISOR
Brennan, John O.               Employee       172200 Per Annum  ASSISTANT TO THE PRESIDENT FOR HOMELAND SECURITY AND COUNTERTERRORISM
Breckenridge, Anita J.         Employee        95000 Per Annum  PERSONAL AIDE TO THE PRESIDENT
Branch, Katherine Y.           Employee        61200 Per Annum  SPECIAL ASSISTANT TO THE SENIOR ADVISOR
Bookey-Baker, Natalie          Employee        55000 Per Annum  DEPUTY ASSOCIATE DIRECTOR
Bond, Brian K.                 Employee        93840 Per Annum  DEPUTY DIRECTOR OF PUBLIC ENGAGEMENT
Blount, Patricia H.            Employee        46745 Per Annum  RECORDS MANAGEMENT ANALYST
Bloom, Ron A.                  Employee       163000 Per Annum  ASSISTANT TO THE PRESIDENT FOR MANUFACTURING POLICY
Block, Michael R.              Employee        50000 Per Annum  ASSISTANT DIRECTOR OF INTERGOVERNMENTAL AFFAIRS
Blake, Michael A.              Employee        61200 Per Annum  DEPUTY ASSOCIATE DIRECTOR OF INTERGOVERNMENTAL AFFAIRS
Bisi, Rachel I.                Employee        42000 Per Annum  LEGISLATIVE ASSISTANT
Binns, Mary U.                 Employee        72022 Per Annum  SPECIAL ASSISTANT
Kale, Katy A.                  Employee       130500 Per Annum  SPECIAL ASSISTANT TO THE PRESIDENT AND DIRECTOR OF WHITE HOUSE OPERATIONS
Kiley, Bradley J.              Employee       162900 Per Annum  ASSISTANT TO THE PRESIDENT FOR MANAGEMENT AND ADMINISTRATION
Khalid, Aryana C.              Detailee       123758 Per Annum  SENIOR POLICY ADVISOR
Keohane, Nathaniel O.          Employee       130500 Per Annum  SPECIAL ASSISTANT TO THE PRESIDENT FOR ENERGY AND ENVIRONMENT
Kennedy, Sean D.               Employee       130500 Per Annum  SPECIAL ASSISTANT TO THE PRESIDENT FOR LEGISLATIVE AFFAIRS
Kelly, Lauren M.               Detailee        53350 Per Annum  DEPUTY ASSOCIATE DIRECTOR
Kelly, Allison K.              Employee        45000 Per Annum  SENIOR VETTER
Kelley, Alexia K.              Detailee       130000 Per Annum  SENIOR POLICY ADVISOR
Kellermann, Sarah A.           Employee        42565 Per Annum  SENIOR ANALYST
Keeney, Andrew J.              Employee        42000 Per Annum  ANALYST   
Keenan, Cody S.                Employee        75000 Per Annum  PRESIDENTIAL SPEECHWRITER
Katz, David L.                 Detailee        92001 Per Annum  SENIOR POLICY ADVISOR
Kang, Eugene J.                Employee        50000 Per Annum  ASSOCIATE DIRECTOR OF SCHEDULING AND ADVANCE
Kang, Christopher D.           Employee       130500 Per Annum  SPECIAL ASSISTANT TO THE PRESIDENT FOR LEGISLATIVE AFFAIRS
Kamin, David C.                Employee       130500 Per Annum  SPECIAL ASSISTANT TO THE PRESIDENT FOR ECONOMIC POLICY
Kim, Anna S.                   Employee        70000 Per Annum  ASSOCIATE STAFF SECRETARY
Kalbaugh, David E.             Employee       129758 Per Annum  DEPUTY EXECUTIVE CLERK
Juska, Monika                  Employee        50000 Per Annum  WHITE HOUSE SERVICES MANAGER
Jung, Bryan                    Employee        60000 Per Annum  DIRECTOR OF SPECIAL PROJECTS
Jones, Luke M.                 Detailee       112224 Per Annum  DEPUTY ASSOCIATE COUNSEL FOR PRESIDENTIAL PERSONNEL
Jones, Kristin T.              Employee        50000 Per Annum  SPECIAL ASSISTANT AND PERSONAL AIDE TO THE FIRST LADY
Jones, Crystal B.              Employee        87350 Per Annum  "ASSISTANT SUPERVISOR
Johnson, Linda M.              Employee        68230 Per Annum  INFORMATION SERVICES OPERATOR
Johnson, Alfred I.             Employee        50000 Per Annum  SPECIAL ASSISTANT TO THE CHIEF OF STAFF
Jarvis, Kristen                Employee        60000 Per Annum  SPECIAL ASSISTANT FOR SCHEDULING AND TRAVELING AIDE TO THE FIRST LADY
Jarrett, Valerie B.            Employee       172200 Per Annum  SENIOR ADVISOR AND ASSISTANT TO THE PRESIDENT FOR INTERGOVERNMENTAL AFFAIRS AND PUBLIC ENGAGEMENT
Jamison, Linda S.              Employee       113000 Per Annum  SPECIAL ASSISTANT TO THE PRESIDENT FOR PRESIDENTIAL PERSONNEL
Jackson, Theresa R.            Employee        64439 Per Annum  INFORMATION SERVICES OPERATOR
Jackson, Elizabeth J.          Employee        42000 Per Annum  RECORDS MANAGEMENT ANALYST
Kumaraiah, Divya               Employee        50000 Per Annum  POLICY ASSISTANT
Lepow, Brandon D.              Employee        60000 Per Annum  SPECIAL ASSISTANT AND PRESS LEAD
Leibenluft, Jacob D.           Employee        70000 Per Annum  SENIOR POLICY ADVISOR
Lehrich, Matthew A.            Employee        84250 Per Annum  ASSISTANT PRESS SECRETARY
Lee, Stephanie A.              Employee        45000 Per Annum  EXECUTIVE ASSISTANT TO THE CHIEF OF STAFF TO THE FIRST LADY
Lee, Monica M.                 Employee        42000 Per Annum  PRESS ASSISTANT
Lee, Jesse C.                  Employee        72500 Per Annum  DIRECTOR OF PROGRESSIVE MEDIA AND ONLINE RESPONSE
Ledbetter, Howli J.            Employee        50000 Per Annum  DIRECTOR OF CORRESPONDENCE FOR THE FIRST LADY
Lechtenberg, Tyler A.          Employee        50000 Per Annum  ASSISTANT SPEECHWRITER
Lavery, Michael E.             Employee        65000 Per Annum  ASSOCIATE DIRECTOR AND ADVANCE COORDINATOR
Lasry, Alexander J.            Employee        42000 Per Annum  SPECIAL ASSISTANT TO THE CHIEF OF STAFF OF THE OFFICE OF INTERGOVERNMENTAL AFFAIRS AND PUBLC ENGAGEMENT
Lartey, Solomon D.             Employee        56092 Per Annum  RECORDS MANAGEMENT ANALYST
Lane, David J.                 Employee       172200 Per Annum  ASSISTANT TO THE PRESIDENT AND COUNSELOR TO THE CHIEF OF STAFF
Lambrew, Jeanne M.             Employee       158500 Per Annum  DEPUTY ASSISTANT TO THE PRESIDENT FOR HEALTH POLICY
Inouye, Shinichi               Employee        78000 Per Annum  DIRECTOR OF SPECIALTY MEDIA
Kukla, Alison C.               Employee        42000 Per Annum  STAFF ASSISTANT
Kramer, Douglas J.             Employee       130500 Per Annum  SPECIAL ASSISTANT TO THE PRESIDENT AND ASSOCIATE COUNSEL TO THE PRESIDENT
Koronides, Christine D.        Employee       130500 Per Annum  CHIEF OF STAFF OF THE NATIONAL ECONOMIC COUNCIL
Kornell, Clarissa H.           Employee        42000 Per Annum  NATIONAL SECURITY STAFF ASSISTANT
Koo, Stacy J.                  Employee        75000 Per Annum  DEPUTY CHIEF OF STAFF FOR PRESIDENTIAL PERSONNEL
Koo, Jacqueline K.             Employee        42000 Per Annum  STAFF ASSISTANT
Konwinski, Lisa M.             Employee       158500 Per Annum  DEPUTY ASSISTANT TO THE PRESIDENT FOR LEGISLATIVE AFFAIRS
Kolachalam, Namrata            Employee        45000 Per Annum  DEPUTY ASSISTANT DIRECTOR OF BROADCAST MEDIA
Kohnke, Lisa J.                Employee        70000 Per Annum  DIRECTOR OF ADVANCE AND SPECIAL EVENTS FOR THE OFFICE OF INTERGOVERNMENTAL AFFAIRS AND PUBLIC ENGAGEMENT 
Kohn, Lisa M.                  Employee        50000 Per Annum  POLICY ASSISTANT
King, Taeshonnda C.            Employee        60232 Per Annum  RECORDS MANAGEMENT ANALYST
King, Colleen M.               Employee        42000 Per Annum  EXECUTIVE ASSISTANT
Kinder, Charmion N.            Employee        42000 Per Annum  RESEARCH ASSOCIATE
Gerst, Jennifer T.             Employee        55000 Per Annum  BOARDS AND COMMISSIONS DIRECTOR
Greenawalt, Andrei M.          Employee        80000 Per Annum  DEPUTY DIRECTOR OF CABINET AFFAIRS
Green, Jason G.                Employee       114000 Per Annum  ASSOCIATE COUNSEL
Gray, Danielle C.              Employee       147500 Per Annum  DEPUTY ASSISTANT TO THE PRESIDENT FOR ECONOMIC POLICY
Graubard, Vivian P.            Employee        42000 Per Annum  ANALYST   
Grant, Kathryn A.              Employee        50000 Per Annum  ASSISTANT DIRECTOR
Graham, Lottie B.              Employee        63673 Per Annum  INFORMATION SERVICES OPERATOR
Grady, Sean M.                 Employee        42000 Per Annum  ANALYST   
Gottry, Heather C.             Detailee       140259 Per Annum  ASSOCIATE COUNSEL FOR ETHICS
Gottlieb, Michael J.           Employee       130500 Per Annum  SPECIAL ASSISTANT TO THE PRESIDENT AND ASSOCIATE COUNSEL TO THE PRESIDENT
Gottlieb, Graham D.            Employee        42000 Per Annum  BOARDS AND COMMISSIONS STAFF ASSISTANT
Goepfert, Stephen M.           Employee        42565 Per Annum  SENIOR ANALYST
Godfrey, Harrison T.           Employee        45000 Per Annum  LEGISLATIVE ASSISTANT
Glickman, Steven G.            Detailee       108717 Per Annum  SENIOR POLICY ADVISOR
Greene, Norman A.              Employee        70000 Per Annum  DIRECTOR FOR FINANCE
Gavin, Jr., Thomas E.          Employee       102000 Per Annum  SPECIAL ASSISTANT TO THE PRESIDENT AND CABINET COMMUNICATIONS DIRECTOR
Gardaphe, Frederico C.         Employee        75000 Per Annum  DEPUTY DIRECTOR
Galbraith, Charles W.          Employee        70000 Per Annum  DEPUTY ASSOCIATE DIRECTOR OF INTERGOVERNMENTAL AFFAIRS
Furman, Jason L.               Employee       147500 Per Annum  ASSISTANT TO THE PRESIDENT AND PRINCIPAL DEPUTY DIRECTOR OF THE NATIONAL ECONOMIC COUNCIL
Frye, Jocelyn C.               Employee       140000 Per Annum  DEPUTY ASSISTANT TO THE PRESIDENT AND DIRECTOR OF POLICY AND PROJECTS FOR THE FIRST LADY
Freeny, Kyle R.                Detailee       123758 Per Annum  CLEARANCE ADVISOR
Freeman, Myra B.               Employee        73917 Per Annum  RECORDS MANAGEMENT ANALYST
Frankel, Adam P.               Employee       100000 Per Annum  SPECIAL ASSISTANT TO THE PRESIDENT AND SENIOR  PRESIDENTIAL SPEECHWRITER
Fowler, Elizabeth J.           Employee       130500 Per Annum  SPECIAL ASSISTANT TO THE PRESIDENT FOR HEALTHCARE AND ECONOMIC POLICY
Ford, Harrison A.              Employee        50000 Per Annum  ASSISTANT DIRECTOR
Flatgard, Benjamin W.          Employee        55000 Per Annum  ECONOMICS DIRECTOR
Fitts, Alan O.                 Employee        66300 Per Annum  DEPUTY DIRECTOR OF ADVANCE AND TRIP DIRECTOR FOR THE FIRST LADY
Finkenbinder, Benjamin N.      Employee        50000 Per Annum  ASSOCIATE DIRECTOR OF PRESS ADVANCE AND PRESS POOL WRANGLER
Herbek, Kathleen E.            Employee        42000 Per Annum  WEST WING RECEPTIONIST
Ihenetu, Udoaku C.             Detailee        55070 Per Annum  ASSOCIATE DIRECTOR FOR POLICY AND EVENTS
Hurwitz, Sarah K.              Employee       100000 Per Annum  SPECIAL ASSISTANT TO THE PRESIDENT AND SENIOR  PRESIDENTIAL SPEECHWRITER
Hurley, Caitlin G.             Employee        60000 Per Annum  ASSISTANT STAFF SECRETARY
Hull, Carolyn A.               Employee        42000 Per Annum  ANALYST   
Hughes, Caroline E.            Employee        45000 Per Annum  PRESS ASSISTANT
Hsu, Irene                     Employee        42000 Per Annum  STAFF ASSISTANT
Houshower, Samuel B.           Employee        50000 Per Annum  ASSISTANT COUNSEL
Hopkins, Marissa C.            Employee        60000 Per Annum  SPECIAL ASSISTANT TO THE PRESS SECRETARY
Holzer, Benjamin S.            Employee       100000 Per Annum  SPECIAL ASSISTANT TO THE PRESIDENT AND DIRECTOR OF RESEARCH
Hogan, Nancy D.                Employee       145000 Per Annum  DEPUTY ASSISTANT TO THE PRESIDENT AND DIRECTOR OF PRESIDENTIAL PERSONNEL
Hoang, Vy T.                   Employee        46745 Per Annum  RECORDS MANAGEMENT ANALYST
Hidalgo, Beatrice M.           Detailee       127883 Per Annum  SENIOR POLICY ADVISOR
Hernandez, Philip M.           Employee        45000 Per Annum  POLICY ANALYST
Abrams, Adam W.                Employee        70000 Per Annum  REGIONAL COMMUNICATIONS DIRECTOR
Helmrick-Blossom, Kellyn       Detailee        74872 Per Annum  ASSOCIATE DIRECTOR
Hegde, Shilpa S.               Employee        50000 Per Annum  ASSISTANT DIRECTOR
Harwood, Maria-Zena A.         Employee        42000 Per Annum  RECORDS MANAGEMENT ANALYST
Hartz, Timothy S.              Employee        72000 Per Annum  PRIORITY PLACEMENT DIRECTOR
Hartnett, Kathleen R.          Employee       130500 Per Annum  SPECIAL ASSISTANT TO THE PRESIDENT AND ASSOCIATE COUNSEL TO THE PRESIDENT
Harris, Kimberley D.           Employee       158500 Per Annum  DEPUTY ASSISTANT TO THE PRESIDENT AND DEPUTY COUNSEL TO THE PRESIDENT
Hanson, Terry P.               Employee        42000 Per Annum  DOMESTIC STAFF ASSISTANT
Haines, Avril D.               Employee       158500 Per Annum  DEPUTY ASSISTANT TO THE PRESIDENT AND DEPUTY COUNSEL TO THE PRESIDENT
Hable, Abigail K.              Employee        50000 Per Annum  EXECUTIVE ASSISTANT
Gustavson, Matthew J.          Employee        42000 Per Annum  INFORMATION SERVICES OPERATOR
Groth, Travis R.               Employee        48000 Per Annum  ASSOCIATE DIRECTOR
Grimes, Stephen H.             Employee        42000 Per Annum  ANALYST   
Griffith, Kyla F.              Employee        45000 Per Annum  LEGAL ASSISTANT
