Name                           Status         Salary Pay Basis  Position Title
====================================================================================================================================
Abrams, Adam W.                Employee        70000 Per Annum  REGIONAL COMMUNICATIONS DIRECTOR
Abrevaya, Sandra               Employee        90000 Per Annum  ASSOCIATE COMMUNICATIONS DIRECTOR
Agnew, David P.                Employee        93840 Per Annum  DEPUTY DIRECTOR OF INTERGOVERNMENTAL AFFAIRS
Albino, James N.               Employee        93000 Per Annum  SENIOR PROGRAM MANAGER
Alley, Hilary J.               Employee        45000 Per Annum  ASSOCIATE DIRECTOR
Anderson, Amanda D.            Employee        80000 Per Annum  SENIOR LEGISLATIVE AFFAIRS ADVISOR
Anderson, Brooke D.            Employee       147500 Per Annum  DEPUTY ASSISTANT TO THE PRESIDENT AND NATIONAL SECURITY STAFF CHIEF OF STAFF  AND COUNSELOR
Apsel, Sarah                   Detailee       108717 Per Annum  POLICY ASSISTANT
Arguelles, Adam J.             Employee       102000 Per Annum  SPECIAL ASSISTANT TO THE PRESIDENT FOR LEGISLATIVE AFFAIRS
Asen, Jonathan D.              Employee        45000 Per Annum  LEGISLATIVE ASSISTANT AND ASSOCIATE DIRECTOR FOR LEGISLATIVE CORRESPONDENCE
August, Hannah M.              Employee        70000 Per Annum  PRESS SECRETARY TO THE FIRST LADY
Ayling, Lindsay A.             Employee        42565 Per Annum  SENIOR ANALYST
Baggetto, Maude L.             Employee        50000 Per Annum  SPECIAL ASSISTANT TO THE DIRECTOR OF INTERGOVERNMENTAL AFFAIRS
Baia, Ashley E.                Detailee        53350 Per Annum  DEPUTY ASSOCIATE DIRECTOR
Barnes, Melody C.              Employee       172200 Per Annum  ASSISTANT TO THE PRESIDENT AND DIRECTOR OF THE DOMESTIC POLICY COUNCIL
Bartoloni, Kristen A.          Employee        45000 Per Annum  RESEARCHER
Baskerville, Mary E.           Employee        45000 Per Annum  ASSOCIATE DIRECTOR AND TRAVEL MANAGER
Bassin, Ian M.                 Employee       114000 Per Annum  ASSOCIATE COUNSEL
Bates, Andrew J.               Employee        45000 Per Annum  PRESS ASSISTANT
Becnel, Bradley D.             Employee        57000 Per Annum  SPECIAL ASSISTANT AND ADVANCE LEAD
Bedingfield, Katherine J.      Employee        90000 Per Annum  ASSOCIATE COMMUNICATIONS DIRECTOR
Beechem, Stephanie             Employee        45000 Per Annum  VETTER    
Belford, Brandon M.            Detailee       119238 Per Annum  SENIOR POLICY ADVISOR
Belive, Lauren E.              Employee        45000 Per Annum  LEGISLATIVE ASSISTANT AND ASSISTANT FOR EVENTS
Beliveau, Emmett S.            Employee       130000 Per Annum  "DEPUTY ASSISTANT TO THE PRESIDENT AND DIRECTOR
Bernard, Jeremy M.             Employee       118000 Per Annum  SPECIAL ASSISTANT TO THE PRESIDENT AND WHITE HOUSE SOCIAL SECRETARY
Bernard, Sarah C.              Employee        80000 Per Annum  DEPUTY DIRECTOR OF DIGITAL STRATEGY
Berret, Emily C.               Employee        42000 Per Annum  STAFF ASSISTANT
Bershteyn, Boris               Employee       130500 Per Annum  SPECIAL ASSISTANT TO THE PRESIDENT AND ASSOCIATE COUNSEL TO THE PRESIDENT
Bhowmik, Rachana               Employee       100000 Per Annum  SPECIAL ASSISTANT TO THE PRESIDENT AND POLICY ADVISOR TO THE OFFICE OF THE CHIEF OF STAFF
Binns, Mary U.                 Employee        72022 Per Annum  SPECIAL ASSISTANT
Bisi, Rachel I.                Employee        42000 Per Annum  LEGISLATIVE ASSISTANT
Blake, Michael A.              Employee        61200 Per Annum  DEPUTY ASSOCIATE DIRECTOR OF INTERGOVERNMENTAL AFFAIRS
Block, Michael R.              Employee        50000 Per Annum  ASSISTANT DIRECTOR OF INTERGOVERNMENTAL AFFAIRS
Bloom, Ron A.                  Employee       163000 Per Annum  ASSISTANT TO THE PRESIDENT FOR MANUFACTURING POLICY
Blount, Patricia H.            Employee        46745 Per Annum  RECORDS MANAGEMENT ANALYST
Bond, Brian K.                 Employee        93840 Per Annum  DEPUTY DIRECTOR OF PUBLIC ENGAGEMENT
Bookey-Baker, Natalie          Employee        55000 Per Annum  DEPUTY ASSOCIATE DIRECTOR
Branch, Katherine Y.           Employee        61200 Per Annum  SPECIAL ASSISTANT TO THE SENIOR ADVISOR
Breckenridge, Anita J.         Employee        95000 Per Annum  PERSONAL AIDE TO THE PRESIDENT
Brennan, John O.               Employee       172200 Per Annum  ASSISTANT TO THE PRESIDENT FOR HOMELAND SECURITY AND COUNTERTERRORISM
Britton-Faison, Chantelle V.   Detailee        92001 Per Annum  POLICY ADVISOR
Brooke, Mary J.                Employee        92001 Per Annum  SUPERVISOR OF CORRESPONDENCE REVIEW
Brundage, Amy J.               Employee        84250 Per Annum  ASSISTANT PRESS SECRETARY
Brundage, Daniel W.            Employee        47000 Per Annum  STAFF ASSISTANT TO THE DEPUTY CHIEF OF STAFF
Brush, Michael P.              Employee        65000 Per Annum  SENIOR ADVANCE LEAD
Buckhout, Scott E.             Employee        45000 Per Annum  SPECIAL ASSISTANT TO THE DIRECTOR
Burke, Jordan M.               Employee        60000 Per Annum  SPECIAL ASSISTANT TO THE SENIOR ADVISOR
Campbell, Frances L.           Employee       103872 Per Annum  "SUPERVISOR
Campbell, Grant E.             Employee        50000 Per Annum  ASSOCIATE DIRECTOR AND TRIP COORDINATOR
Campbell, Nnaji-Semayi K.      Employee        45000 Per Annum  COORDINATOR
Campos, David R.               Employee        42565 Per Annum  SENIOR ANALYST
Campoverdi, Alejandra M.       Employee        65000 Per Annum  DEPUTY DIRECTOR OF HISPANIC MEDIA
Canery, Beverly D.             Employee        58511 Per Annum  INFORMATION SERVICES OPERATOR
Cannon, Sarah R.               Employee        55000 Per Annum  POLICY ADVISOR
Carney, James F.               Employee       172200 Per Annum  ASSISTANT TO THE PRESIDENT AND PRESS SECRETARY
Carson, Jonathan K.            Employee       153500 Per Annum  DEPUTY ASSISTANT TO THE PRESIDENT AND DIRECTOR OF THE OFFICE OF PUBLIC ENGAGEMENT 
Carter, Rhonda M.              Employee        63240 Per Annum  SPECIAL ASSISTANT TO THE WHITE HOUSE COUNSEL
Case, Michael A.               Employee        50000 Per Annum  SENIOR WRITER
Chhabra, Anand                 Employee        45000 Per Annum  SPECIAL ASSISTANT
Childs, Heather G.             Detailee       108717 Per Annum  DEPUTY ASSOCIATE COUNSEL FOR PRESIDENTIAL PERSONNEL
Chiodo, Theodore A.            Employee        65000 Per Annum  ASSISTANT STAFF SECRETARY
Claude, Lilia H.               Employee        58511 Per Annum  INFORMATION SERVICES OPERATOR
Cleland, Jeannette M.          Employee        66300 Per Annum  DEPUTY DIRECTOR OF SCHEDULING AND EVENTS COORDINATOR FOR THE FIRST LADY
Click, John S.                 Employee        42000 Per Annum  INFORMATION SERVICES OPERATOR
Clunie, David G.               Employee        80000 Per Annum  DEPUTY ASSOCIATE COUNSEL FOR PRESIDENTIAL PERSONNEL
Cobbina, Kwesi A.              Employee        65000 Per Annum  "CHIEF OF STAFF
Coccaro, Kasie M.              Employee        47500 Per Annum  ASSOCIATE DIRECTOR OF ONLINE OUTREACH AND OPERATIONS
Cokley, Rebecca A.             Employee        72000 Per Annum  PRIORITY PLACEMENT DIRECTOR
Conrad, Shasti K.              Employee        42000 Per Annum  EXECUTIVE ASSISTANT TO THE SENIOR ADVISOR
Corogenes, Katherine L.        Employee        45000 Per Annum  RESEARCHER
Cox, Shileta J.                Detailee        66630 Per Annum  ANALYST   
Croley, Steven P.              Employee       100000 Per Annum  SPECIAL ASSISTANT TO THE PRESIDENT FOR JUSTICE AND REGULATORY POLICY
Crowley, Jeffrey S.            Employee       102000 Per Annum  DIRECTOR OF THE OFFICE OF NATIONAL AIDS POLICY AND SENIOR ADVISOR ON DISABILITY POLICY
Crutchfield, Danielle M.       Employee       140000 Per Annum  DEPUTY ASSISTANT TO THE PRESIDENT AND DIRECTOR OF SCHEDULING AND ADVANCE
Cuellar, Martin E.             Employee        91800 Per Annum  "DEPUTY DIRECTOR
Cunnane, Patrick J.            Employee        42000 Per Annum  MEDIA MONITOR
Cunningham, Vinson T.          Employee        42000 Per Annum  ECONOMICS STAFF ASSISTANT
Cusack, David J.               Employee       130000 Per Annum  DEPUTY ASSISTANT TO THE PRESIDENT AND DIRECTOR OF ADVANCE AND OPERATIONS
Cushman, Chase M.              Employee        58000 Per Annum  SENIOR SCHEDULER
Cutter, Stephanie N.           Employee       172200 Per Annum  ASSISTANT TO THE PRESIDENT AND DEPUTY SENIOR ADVISOR
Dale, Kareem A.                Employee        80000 Per Annum  SPECIAL ASSISTANT TO THE PRESIDENT AND DEPUTY ASSOCIATE DIRECTOR OF PUBLIC ENGAGEMENT
Daley, William M.              Employee       172200 Per Annum  ASSISTANT TO THE PRESIDENT AND CHIEF OF STAFF
Davies, Susan M.               Employee       158500 Per Annum  DEPUTY ASSISTANT TO THE PRESIDENT AND DEPUTY COUNSEL TO THE PRESIDENT
De Sio, Jr., Henry F.          Employee       153300 Per Annum  DEPUTY ASSISTANT TO THE PRESIDENT FOR MANAGEMENT AND ADMINISTRATION
De, Rajesh                     Employee       158500 Per Annum  DEPUTY ASSISTANT TO THE PRESIDENT AND STAFF SECRETARY
Deese, Brian C.                Employee       130500 Per Annum  "SPECIAL ASSISTANT TO THE PRESIDENT AND DEPUTY DIRECTOR
DeGuzman, Jr., Danilo          Employee        72876 Per Annum  PRESIDENTIAL SUPPORT SPECIALIST
DeGuzman, Brian K.             Employee        46745 Per Annum  INFORMATION SERVICES OPERATOR
DeParle, Nancy-Ann Min         Employee       172200 Per Annum  ASSISTANT TO THE PRESIDENT AND DEPUTY CHIEF OF STAFF FOR POLICY
Donilon, Thomas E.             Employee       172200 Per Annum  ASSISTANT TO THE PRESIDENT AND NATIONAL SECURITY ADVISOR
Donovan, Michael W.            Employee        54000 Per Annum  ASSOCIATE DIRECTOR OF SCHEDULING
Donovan, William J.            Employee        55000 Per Annum  ENERGY AND ENVIRONMENT DIRECTOR
Doohan, Kelly C.               Employee        42000 Per Annum  STAFF ASSISTANT
Dorsainvil, Monique            Employee        42000 Per Annum  STAFF ASSISTANT
Dorsett, Craig M.              Employee        50000 Per Annum  SENIOR WRITER
Douglas, Derek R.              Employee       120000 Per Annum  SPECIAL ASSISTANT TO THE PRESIDENT FOR URBAN AFFAIRS
Doumet, Mark A.                Employee        42000 Per Annum  STAFF ASSISTANT
Droege, Philip C.              Employee       140259 Per Annum  DIRECTOR OF RECORDS MANAGEMENT
DuBois, Joshua P.              Employee       100000 Per Annum  SPECIAL ASSISTANT TO THE PRESIDENT AND EXECUTIVE DIRECTOR OF THE WHITE HOUSE OFFICE OF FAITH-BASED AND NEIGHBORHOOD PARTNERSHIPS
Duncan, Julia L.               Employee        42000 Per Annum  STAFF ASSISTANT
Dunn, Lauren P.                Employee        50000 Per Annum  "POLICY ASSISTANT
Dyer, Deesha A.                Employee        55000 Per Annum  DEPUTY DIRECTOR AND HOTEL PROGRAM MANAGER
Earnest, Joshua R.             Employee       123000 Per Annum  SPECIAL ASSISTANT TO THE PRESIDENT AND PRINCIPAL DEPUTY PRESS SECRETARY
Eckhouse, Sara F.              Employee        45000 Per Annum  LEGISLATIVE ASSISTANT AND ASSISTANT TO THE SENATE LIAISON
Edmonds, Anita J.              Employee        49069 Per Annum  RECORDS MANAGEMENT ANALYST
Ellinwood, Todd A.             Detailee       136134 Per Annum  DEPUTY ASSOCIATE COUNSEL FOR PRESIDENTIAL PERSONNEL
Escobar, Felicia A.            Employee        93000 Per Annum  SENIOR POLICY ADVISOR
Espinel, Zulima L.             Employee       130500 Per Annum  SPECIAL ASSISTANT TO THE PRESIDENT AND ASSOCIATE COUNSEL TO THE PRESIDENT
Favreau, Jonathan E.           Employee       172200 Per Annum  ASSISTANT TO THE PRESIDENT AND DIRECTOR OF SPEECHWRITING
Fenn, Sarah B.                 Employee        60000 Per Annum  ASSISTANT COUNSEL OF ETHICS
Fernandez, Micaela J.          Employee       102000 Per Annum  SPECIAL ASSISTANT TO THE PRESIDENT AND DIRECTOR OF EVENTS AND PROTOCOL
Feuerstein, Sara A.            Employee        42000 Per Annum  STAFF ASSISTANT
Filipic, Anne E.               Employee        92000 Per Annum  DEPUTY DIRECTOR OF PUBLIC ENGAGEMENT
Finke, Samantha D.             Employee        50000 Per Annum  SPECIAL ASSISTANT AND PRESS LEAD
Finkenbinder, Benjamin N.      Employee        50000 Per Annum  ASSOCIATE DIRECTOR OF PRESS ADVANCE AND PRESS POOL WRANGLER
Fitts, Alan O.                 Employee        66300 Per Annum  DEPUTY DIRECTOR OF ADVANCE AND TRIP DIRECTOR FOR THE FIRST LADY
Flatgard, Benjamin W.          Employee        55000 Per Annum  ECONOMICS DIRECTOR
Ford, Harrison A.              Employee        50000 Per Annum  ASSISTANT DIRECTOR
Fowler, Elizabeth J.           Employee       130500 Per Annum  SPECIAL ASSISTANT TO THE PRESIDENT FOR HEALTHCARE AND ECONOMIC POLICY
Frankel, Adam P.               Employee       100000 Per Annum  SPECIAL ASSISTANT TO THE PRESIDENT AND SENIOR  PRESIDENTIAL SPEECHWRITER
Freeman, Myra B.               Employee        73917 Per Annum  RECORDS MANAGEMENT ANALYST
Freeny, Kyle R.                Detailee       123758 Per Annum  CLEARANCE ADVISOR
Frye, Jocelyn C.               Employee       140000 Per Annum  DEPUTY ASSISTANT TO THE PRESIDENT AND DIRECTOR OF POLICY AND PROJECTS FOR THE FIRST LADY
Furman, Jason L.               Employee       147500 Per Annum  ASSISTANT TO THE PRESIDENT AND PRINCIPAL DEPUTY DIRECTOR OF THE NATIONAL ECONOMIC COUNCIL
Galbraith, Charles W.          Employee        70000 Per Annum  DEPUTY ASSOCIATE DIRECTOR OF INTERGOVERNMENTAL AFFAIRS
Gardaphe, Frederico C.         Employee        75000 Per Annum  DEPUTY DIRECTOR
Gavin, Jr., Thomas E.          Employee       102000 Per Annum  SPECIAL ASSISTANT TO THE PRESIDENT AND CABINET COMMUNICATIONS DIRECTOR
Gerst, Jennifer T.             Employee        55000 Per Annum  BOARDS AND COMMISSIONS DIRECTOR
Glickman, Steven G.            Detailee       108717 Per Annum  SENIOR POLICY ADVISOR
Godfrey, Harrison T.           Employee        45000 Per Annum  LEGISLATIVE ASSISTANT
Goepfert, Stephen M.           Employee        42565 Per Annum  SENIOR ANALYST
Gottlieb, Graham D.            Employee        42000 Per Annum  BOARDS AND COMMISSIONS STAFF ASSISTANT
Gottlieb, Michael J.           Employee       130500 Per Annum  SPECIAL ASSISTANT TO THE PRESIDENT AND ASSOCIATE COUNSEL TO THE PRESIDENT
Gottry, Heather C.             Detailee       140259 Per Annum  ASSOCIATE COUNSEL FOR ETHICS
Grady, Sean M.                 Employee        42000 Per Annum  ANALYST   
Graham, Lottie B.              Employee        63673 Per Annum  INFORMATION SERVICES OPERATOR
Grant, Kathryn A.              Employee        50000 Per Annum  ASSISTANT DIRECTOR
Graubard, Vivian P.            Employee        42000 Per Annum  ANALYST   
Gray, Danielle C.              Employee       147500 Per Annum  DEPUTY ASSISTANT TO THE PRESIDENT FOR ECONOMIC POLICY
Green, Jason G.                Employee       114000 Per Annum  ASSOCIATE COUNSEL
Greenawalt, Andrei M.          Employee        80000 Per Annum  DEPUTY DIRECTOR OF CABINET AFFAIRS
Greene, Norman A.              Employee        70000 Per Annum  DIRECTOR FOR FINANCE
Griffith, Kyla F.              Employee        45000 Per Annum  LEGAL ASSISTANT
Grimes, Stephen H.             Employee        42000 Per Annum  ANALYST   
Groth, Travis R.               Employee        48000 Per Annum  ASSOCIATE DIRECTOR
Gustavson, Matthew J.          Employee        42000 Per Annum  INFORMATION SERVICES OPERATOR
Hable, Abigail K.              Employee        50000 Per Annum  EXECUTIVE ASSISTANT
Haines, Avril D.               Employee       158500 Per Annum  DEPUTY ASSISTANT TO THE PRESIDENT AND DEPUTY COUNSEL TO THE PRESIDENT
Hanson, Terry P.               Employee        42000 Per Annum  DOMESTIC STAFF ASSISTANT
Harris, Kimberley D.           Employee       158500 Per Annum  DEPUTY ASSISTANT TO THE PRESIDENT AND DEPUTY COUNSEL TO THE PRESIDENT
Hartnett, Kathleen R.          Employee       130500 Per Annum  SPECIAL ASSISTANT TO THE PRESIDENT AND ASSOCIATE COUNSEL TO THE PRESIDENT
Hartz, Timothy S.              Employee        72000 Per Annum  PRIORITY PLACEMENT DIRECTOR
Harwood, Maria-Zena A.         Employee        42000 Per Annum  RECORDS MANAGEMENT ANALYST
Hegde, Shilpa S.               Employee        50000 Per Annum  ASSISTANT DIRECTOR
Helmrick-Blossom, Kellyn       Detailee        74872 Per Annum  ASSOCIATE DIRECTOR
Herbek, Kathleen E.            Employee        42000 Per Annum  WEST WING RECEPTIONIST
Hernandez, Philip M.           Employee        45000 Per Annum  POLICY ANALYST
Hidalgo, Beatrice M.           Detailee       127883 Per Annum  SENIOR POLICY ADVISOR
Hoang, Vy T.                   Employee        46745 Per Annum  RECORDS MANAGEMENT ANALYST
Hogan, Nancy D.                Employee       145000 Per Annum  DEPUTY ASSISTANT TO THE PRESIDENT AND DIRECTOR OF PRESIDENTIAL PERSONNEL
Holzer, Benjamin S.            Employee       100000 Per Annum  SPECIAL ASSISTANT TO THE PRESIDENT AND DIRECTOR OF RESEARCH
Hopkins, Marissa C.            Employee        60000 Per Annum  SPECIAL ASSISTANT TO THE PRESS SECRETARY
Houshower, Samuel B.           Employee        50000 Per Annum  ASSISTANT COUNSEL
Hsu, Irene                     Employee        42000 Per Annum  STAFF ASSISTANT
Hughes, Caroline E.            Employee        45000 Per Annum  PRESS ASSISTANT
Hull, Carolyn A.               Employee        42000 Per Annum  ANALYST   
Hurley, Caitlin G.             Employee        60000 Per Annum  ASSISTANT STAFF SECRETARY
Hurwitz, Sarah K.              Employee       100000 Per Annum  SPECIAL ASSISTANT TO THE PRESIDENT AND SENIOR  PRESIDENTIAL SPEECHWRITER
Ihenetu, Udoaku C.             Detailee        55070 Per Annum  ASSOCIATE DIRECTOR FOR POLICY AND EVENTS
Inouye, Shinichi               Employee        78000 Per Annum  DIRECTOR OF SPECIALTY MEDIA
Jackson, Elizabeth J.          Employee        42000 Per Annum  RECORDS MANAGEMENT ANALYST
Jackson, Theresa R.            Employee        64439 Per Annum  INFORMATION SERVICES OPERATOR
Jamison, Linda S.              Employee       113000 Per Annum  SPECIAL ASSISTANT TO THE PRESIDENT FOR PRESIDENTIAL PERSONNEL
Jarrett, Valerie B.            Employee       172200 Per Annum  SENIOR ADVISOR AND ASSISTANT TO THE PRESIDENT FOR INTERGOVERNMENTAL AFFAIRS AND PUBLIC ENGAGEMENT
Jarvis, Kristen                Employee        60000 Per Annum  SPECIAL ASSISTANT FOR SCHEDULING AND TRAVELING AIDE TO THE FIRST LADY
Johnson, Alfred I.             Employee        50000 Per Annum  SPECIAL ASSISTANT TO THE CHIEF OF STAFF
Johnson, Linda M.              Employee        68230 Per Annum  INFORMATION SERVICES OPERATOR
Jones, Crystal B.              Employee        87350 Per Annum  "ASSISTANT SUPERVISOR
Jones, Kristin T.              Employee        50000 Per Annum  SPECIAL ASSISTANT AND PERSONAL AIDE TO THE FIRST LADY
Jones, Luke M.                 Detailee       112224 Per Annum  DEPUTY ASSOCIATE COUNSEL FOR PRESIDENTIAL PERSONNEL
Jung, Bryan                    Employee        60000 Per Annum  DIRECTOR OF SPECIAL PROJECTS
Juska, Monika                  Employee        50000 Per Annum  WHITE HOUSE SERVICES MANAGER
Kalbaugh, David E.             Employee       129758 Per Annum  DEPUTY EXECUTIVE CLERK
Kale, Katy A.                  Employee       130500 Per Annum  SPECIAL ASSISTANT TO THE PRESIDENT AND DIRECTOR OF WHITE HOUSE OPERATIONS
Kamin, David C.                Employee       130500 Per Annum  SPECIAL ASSISTANT TO THE PRESIDENT FOR ECONOMIC POLICY
Kang, Christopher D.           Employee       130500 Per Annum  SPECIAL ASSISTANT TO THE PRESIDENT FOR LEGISLATIVE AFFAIRS
Kang, Eugene J.                Employee        50000 Per Annum  ASSOCIATE DIRECTOR OF SCHEDULING AND ADVANCE
Katz, David L.                 Detailee        92001 Per Annum  SENIOR POLICY ADVISOR
Keenan, Cody S.                Employee        75000 Per Annum  PRESIDENTIAL SPEECHWRITER
Keeney, Andrew J.              Employee        42000 Per Annum  ANALYST   
Kellermann, Sarah A.           Employee        42565 Per Annum  SENIOR ANALYST
Kelley, Alexia K.              Detailee       130000 Per Annum  SENIOR POLICY ADVISOR
Kelly, Allison K.              Employee        45000 Per Annum  SENIOR VETTER
Kelly, Lauren M.               Detailee        53350 Per Annum  DEPUTY ASSOCIATE DIRECTOR
Kennedy, Sean D.               Employee       130500 Per Annum  SPECIAL ASSISTANT TO THE PRESIDENT FOR LEGISLATIVE AFFAIRS
Keohane, Nathaniel O.          Employee       130500 Per Annum  SPECIAL ASSISTANT TO THE PRESIDENT FOR ENERGY AND ENVIRONMENT
Khalid, Aryana C.              Detailee       123758 Per Annum  SENIOR POLICY ADVISOR
Kiley, Bradley J.              Employee       162900 Per Annum  ASSISTANT TO THE PRESIDENT FOR MANAGEMENT AND ADMINISTRATION
Kim, Anna S.                   Employee        70000 Per Annum  ASSOCIATE STAFF SECRETARY
Kinder, Charmion N.            Employee        42000 Per Annum  RESEARCH ASSOCIATE
King, Colleen M.               Employee        42000 Per Annum  EXECUTIVE ASSISTANT
King, Taeshonnda C.            Employee        60232 Per Annum  RECORDS MANAGEMENT ANALYST
Kohn, Lisa M.                  Employee        50000 Per Annum  POLICY ASSISTANT
Kohnke, Lisa J.                Employee        70000 Per Annum  DIRECTOR OF ADVANCE AND SPECIAL EVENTS FOR THE OFFICE OF INTERGOVERNMENTAL AFFAIRS AND PUBLIC ENGAGEMENT 
Kolachalam, Namrata            Employee        45000 Per Annum  DEPUTY ASSISTANT DIRECTOR OF BROADCAST MEDIA
Konwinski, Lisa M.             Employee       158500 Per Annum  DEPUTY ASSISTANT TO THE PRESIDENT FOR LEGISLATIVE AFFAIRS
Koo, Jacqueline K.             Employee        42000 Per Annum  STAFF ASSISTANT
Koo, Stacy J.                  Employee        75000 Per Annum  DEPUTY CHIEF OF STAFF FOR PRESIDENTIAL PERSONNEL
Kornell, Clarissa H.           Employee        42000 Per Annum  NATIONAL SECURITY STAFF ASSISTANT
Koronides, Christine D.        Employee       130500 Per Annum  CHIEF OF STAFF OF THE NATIONAL ECONOMIC COUNCIL
Kramer, Douglas J.             Employee       130500 Per Annum  SPECIAL ASSISTANT TO THE PRESIDENT AND ASSOCIATE COUNSEL TO THE PRESIDENT
Kukla, Alison C.               Employee        42000 Per Annum  STAFF ASSISTANT
Kumaraiah, Divya               Employee        50000 Per Annum  POLICY ASSISTANT
Lambrew, Jeanne M.             Employee       158500 Per Annum  DEPUTY ASSISTANT TO THE PRESIDENT FOR HEALTH POLICY
Lane, David J.                 Employee       172200 Per Annum  ASSISTANT TO THE PRESIDENT AND COUNSELOR TO THE CHIEF OF STAFF
Lartey, Solomon D.             Employee        56092 Per Annum  RECORDS MANAGEMENT ANALYST
Lasry, Alexander J.            Employee        42000 Per Annum  SPECIAL ASSISTANT TO THE CHIEF OF STAFF OF THE OFFICE OF INTERGOVERNMENTAL AFFAIRS AND PUBLC ENGAGEMENT
Lavery, Michael E.             Employee        65000 Per Annum  ASSOCIATE DIRECTOR AND ADVANCE COORDINATOR
Lechtenberg, Tyler A.          Employee        50000 Per Annum  ASSISTANT SPEECHWRITER
Ledbetter, Howli J.            Employee        50000 Per Annum  DIRECTOR OF CORRESPONDENCE FOR THE FIRST LADY
Lee, Jesse C.                  Employee        72500 Per Annum  DIRECTOR OF PROGRESSIVE MEDIA AND ONLINE RESPONSE
Lee, Monica M.                 Employee        42000 Per Annum  PRESS ASSISTANT
Lee, Stephanie A.              Employee        45000 Per Annum  EXECUTIVE ASSISTANT TO THE CHIEF OF STAFF TO THE FIRST LADY
Lehrich, Matthew A.            Employee        84250 Per Annum  ASSISTANT PRESS SECRETARY
Leibenluft, Jacob D.           Employee        70000 Per Annum  SENIOR POLICY ADVISOR
Lepow, Brandon D.              Employee        60000 Per Annum  SPECIAL ASSISTANT AND PRESS LEAD
Lew, Shoshana M.               Employee        89000 Per Annum  SENIOR POLICY DIRECTOR
Lewin, Jesse M.                Employee        42000 Per Annum  PRESS ASSISTANT
Lewis, Kevin S.                Employee        78000 Per Annum  DIRECTOR OF AFRICAN-AMERICAN MEDIA
Lezotte, Darin R.              Employee        62544 Per Annum  RECORDS MANAGEMENT ANALYST
Liegel, Christopher J.         Employee        42000 Per Annum  RECORDS MANAGEMENT ANALYST
Lierman, Kyle J.               Employee        42000 Per Annum  STAFF ASSISTANT
Lindsay, Erin E.               Employee        47500 Per Annum  ASSOCIATE DIRECTOR OF ONLINE ENGAGEMENT
Lippert, Mark W.               Employee       147500 Per Annum  DEPUTY ASSISTANT TO THE PRESIDENT AND CHIEF OF STAFF FOR NATIONAL SECURITY OPERATIONS
Lipsky, Joshua S.              Employee        50000 Per Annum  SPECIAL ASSISTANT AND PRESS LEAD
Lipton, David A.               Employee       149000 Per Annum  SPECIAL ASSISTANT TO THE PRESIDENT FOR INTERNATIONAL  ECONOMIC AFFAIRS
Litt, David M.                 Employee        60000 Per Annum  SPEECHWRITER
Lorjuste, Gregory              Employee        58000 Per Annum  SENIOR SCHEDULER
Love, Reginald L.              Employee       102000 Per Annum  SPECIAL ASSISTANT TO THE PRESIDENT AND PERSONAL AIDE TO THE PRESIDENT
Lovett, Jonathan I.            Employee        75000 Per Annum  PRESIDENTIAL SPEECHWRITER
Lu, Christopher P.             Employee       172200 Per Annum  ASSISTANT TO THE PRESIDENT AND CABINET SECRETARY
Luck, Deatrice N.              Employee        45024 Per Annum  INFORMATION SERVICES OPERATOR
Mack, William B.               Employee        80000 Per Annum  DEPUTY ASSOCIATE COUNSEL FOR PRESIDENTIAL PERSONNEL
Maher, Shawn P.                Employee       158500 Per Annum  DEPUTY ASSISTANT TO THE PRESIDENT FOR LEGISLATIVE AFFAIRS AND SENATE LIAISON
Main, Galen E.                 Employee        45000 Per Annum  COORDINATOR
Manus, Linda S.                Employee        42000 Per Annum  STAFF ASSISTANT
Markovitz, Alison J.           Employee        80000 Per Annum  DEPUTY ASSOCIATE COUNSEL FOR PRESIDENTIAL PERSONNEL
Martin, Joanna G.              Employee       102000 Per Annum  SPECIAL ASSISTANT TO THE PRESIDENT FOR PRESIDENTIAL PERSONNEL
Maska, Johanna M.              Employee        80000 Per Annum  DEPUTY DIRECTOR OF ADVANCE AND DIRECTOR OF PRESS ADVANCE
Mastromonaco, Alyssa M.        Employee       172200 Per Annum  ASSISTANT TO THE PRESIDENT AND DEPUTY CHIEF OF STAFF FOR OPERATIONS
Mattson, Philip C.             Employee        61952 Per Annum  SPECIAL ASSISTANT
McBride, Jonathan D.           Employee       130000 Per Annum  SPECIAL ASSISTANT TO THE PRESIDENT AND DEPUTY DIRECTOR OF PRESIDENTIAL PERSONNEL
McCarthy, Mary N.              Employee        80000 Per Annum  DEPUTY DIRECTOR OF CABINET AFFAIRS
McCathran, William W.          Employee       106839 Per Annum  ASSISTANT EXECUTIVE CLERK
McCullough, Duncan J.          Employee        42000 Per Annum  ANALYST   
McCullough, Victoria M.        Employee        45000 Per Annum  EXECUTIVE ASSISTANT TO THE DIRECTOR OF PUBLIC ENGAGEMENT
McDonough, Denis R.            Employee       172200 Per Annum  ASSISTANT TO THE PRESIDENT AND DEPUTY NATIONAL SECURITY ADVISOR
McGinnis, Patricia G.          Employee            0 Per Annum  ADVISOR   
McGowan, Lukas J.              Employee        45000 Per Annum  LEGISLATIVE ASSISTANT AND ASSISTANT TO THE HOUSE LIAISON
McKalip, Douglas J.            Detailee       165300 Per Annum  SENIOR POLICY ADVISOR
McLaughlin, Margaret T.        Employee       120000 Per Annum  SPECIAL ASSISTANT TO THE PRESIDENT AND CHIEF OF STAFF FOR PRESIDENTIAL PERSONNEL
McMahon, Collin T.             Employee        55000 Per Annum  NATIONAL SECURITY DIRECTOR
McSwain, Jr.,  Michael S.      Employee        41000 Per Annum  ASSOCIATE DIRECTOR FOR SCHEDULING CORRESPONDENCE
Mehrbani, Rodin A.             Employee        90000 Per Annum  SENIOR VETTING COUNSEL FOR PRESIDENTIAL PERSONNEL
Metcalf, Ryan D.               Employee        42565 Per Annum  SENIOR ANALYST
Milakofsky, Benjamin E.        Employee        50000 Per Annum  ASSISTANT DIRECTOR OF CABINET AFFAIRS
Miller, Jason S.               Employee       120000 Per Annum  SPECIAL ASSISTANT TO THE PRESIDENT FOR MANUFACTURING POLICY
Millison, Chad L.              Employee        61952 Per Annum  RECORDS MANAGEMENT ANALYST
Miranda, Luis A.               Employee        78000 Per Annum  DIRECTOR OF HISPANIC MEDIA
Modi, Kalpen S.                Employee        41000 Per Annum  ASSOCIATE DIRECTOR
Moilanen, Stephen S.           Employee        45000 Per Annum  STAFF ASSISTANT
Monje, Jr., Carlos A.          Employee       120000 Per Annum  SPECIAL ASSISTANT TO THE PRESIDENT AND CHIEF OF STAFF OF THE DOMESTIC POLICY COUNCIL
Monteiro, Darron P.            Employee        61200 Per Annum  DEPUTY ASSOCIATE DIRECTOR OF PUBLIC ENGAGEMENT
Montz, Ellen J.                Employee        50000 Per Annum  POLICY ASSISTANT
Moseley, Julia S.              Employee        57000 Per Annum  SPECIAL ASSISTANT AND ADVANCE LEAD
Mosteller, Brian D.            Employee        95000 Per Annum  PERSONAL AIDE TO THE PRESIDENT
Muñoz, Cecilia                Employee       153500 Per Annum  DEPUTY ASSISTANT TO THE PRESIDENT AND DIRECTOR OF INTERGOVERNMENTAL AFFAIRS
Nabors, Robert L.              Employee       172200 Per Annum  "ASSISTANT TO THE PRESIDENT AND DIRECTOR
Naidoff, Caitlin L.            Employee        60000 Per Annum  SPECIAL ASSISTANT TO THE COUNSELOR TO THE PRESIDENT
Negash, Dabash A.              Employee        42000 Per Annum  STAFF ASSISTANT
Neiman, Wanda M.               Employee        74958 Per Annum  ASSISTANT TO THE EXECUTIVE CLERK
Nelson, Elizabeth W.           Employee        75000 Per Annum  DEPUTY DIRECTOR OF SCHEDULING
Nelson, Gregory S.             Employee        92000 Per Annum  DEPUTY DIRECTOR OF PUBLIC ENGAGEMENT
Nicholson, Jr., Marvin D.      Employee       130000 Per Annum  SPECIAL ASSISTANT TO THE PRESIDENT AND TRIP DIRECTOR
Noel, Pascal J.                Employee        70000 Per Annum  SENIOR POLICY ADVISOR
Norris, Amanda J.              Employee        42000 Per Annum  STAFF ASSISTANT
Noyes, Diana L.                Employee        50000 Per Annum  RESEARCHER
O'Connor, Kyle P.              Employee        50000 Per Annum  ASSISTANT SPEECHWRITER
Offerman, Mary F.              Employee        55000 Per Annum  DEPUTY ASSOCIATE DIRECTOR
Ogden, Peter R.                Detailee       115731 Per Annum  SENIOR POLICY ADVISOR
Olmos, Margaret C.             Employee        70000 Per Annum  DEPUTY DIRECTOR
Olson, Elizabeth H.            Employee       110000 Per Annum  SPECIAL ASSISTANT TO THE PRESIDENT AND DIRECTOR OF PRESIDENTIAL CORRESPONDENCE
O'Neil, Michael P.             Employee       100000 Per Annum  DIRECTOR OF SPECIAL PROJECTS AND SPECIAL ASSISTANT TO THE SENIOR ADVISOR
O'Neill, Brendan A.            Employee        42000 Per Annum  ANALYST   
Ortiz, Michael R.              Employee        50000 Per Annum  LEGISLATIVE ASSISTANT AND SPECIAL ASSISTANT TO THE DIRECTOR
Owens, Rodrick T.              Employee        42000 Per Annum  ANALYST   
Palm, Andrea J.                Detailee       150000 Per Annum  "SENIOR ADVISOR FOR HEALTH
Page, Darienne M.              Employee        50000 Per Annum  ASSISTANT DIRECTOR OF PUBLIC ENGAGEMENT
Paige, Lauren R.               Employee        95000 Per Annum  SPECIAL ASSISTANT TO THE PRESIDENT AND DIRECTOR OF MESSAGE PLANNING
Papa, Gregory J.               Employee       130500 Per Annum  SPECIAL ASSISTANT TO THE PRESIDENT FOR LEGISLATIVE AFFAIRS
Papas, Nicholas W.             Employee        84250 Per Annum  ASSISTANT PRESS SECRETARY
Parker, Doris D.               Employee        82359 Per Annum  ASSISTANT SUPERVISOR OF CLASSIFICATION
Parrott, James M.              Detailee       140259 Per Annum  "SENIOR ADVISOR FOR HOUSING
Pate, Brian E.                 Employee        51630 Per Annum  PRESIDENTIAL SUPPORT SPECIALIST
Paulsen, Joseph B.             Employee        60000 Per Annum  DEPUTY DIRECTOR AND SURROGATE SCHEDULER
Payne, John H.                 Employee        42000 Per Annum  INFORMATION SERVICES OPERATOR
Peele, Christian B.            Employee        50000 Per Annum  DIRECTOR OF WHITE HOUSE INTERNSHIP PROGRAM
Pérez, Alejandro              Employee       130500 Per Annum  SPECIAL ASSISTANT TO THE PRESIDENT FOR LEGISLATIVE AFFAIRS
Pfeiffer, Howard D.            Employee       172200 Per Annum  ASSISTANT TO THE PRESIDENT AND DIRECTOR OF COMMUNICATIONS
Phadke, Shilpa D.              Employee        80000 Per Annum  DEPUTY DIRECTOR OF CABINET AFFAIRS
Phillips, III, Robert M.       Employee       115000 Per Annum  SPECIAL ASSISTANT TO THE PRESIDENT AND DIRECTOR OF DIGITAL STRATEGY
Plant, Jay M.                  Employee        42565 Per Annum  SENIOR ANALYST
Platt, Katherine A.            Employee        75000 Per Annum  DIRECTOR OF WHITE HOUSE OPERATIONS
Plouffe, David A.              Employee       172200 Per Annum  ASSISTANT TO THE PRESIDENT AND SENIOR ADVISOR
Pojman, Natalie R.             Employee        50000 Per Annum  POLICY ASSISTANT
Pollack, Joshua D.             Employee        95000 Per Annum  DIRECTOR OF CONFIRMATIONS
Pope, Jamal A.                 Employee        42000 Per Annum  STAFF ASSISTANT
Posey, Stacie M.               Employee        45000 Per Annum  COORDINATOR
Pourmorad, Araz N.             Employee        55000 Per Annum  DEPUTY DIRECTOR FOR OPERATIONS
Psaki, Jennifer R.             Employee       150000 Per Annum  DEPUTY ASSISTANT TO THE PRESIDENT AND DEPUTY DIRECTOR OF COMMUNICATIONS
Pyle, Michael J.               Employee       130500 Per Annum  SPECIAL ASSISTANT TO THE PRESIDENT FOR FINANCIAL AND INTERNATIONAL MARKETS
Quinn, Brian P.                Employee        47000 Per Annum  ASSOCIATE DIRECTOR AND TRAVEL MANAGER
Raizk, Paul S.                 Employee       113605 Per Annum  DEPUTY DIRECTOR OF RECORDS MANAGEMENT
Rana, Yasmin S.                Employee        42000 Per Annum  INFORMATION SERVICES OPERATOR
Randle, Cole A.                Employee        45000 Per Annum  ASSOCIATE DIRECTOR AND TRAVEL MANAGER
Rangel, Antoinette N.          Employee        42000 Per Annum  PRESS ASSISTANT
Rathod, Nicholas S.            Employee        92000 Per Annum  DEPUTY DIRECTOR OF INTERGOVERNMENTAL AFFAIRS
Read, Benjamin S.              Employee        42000 Per Annum  ANALYST   
Reed, Ian P.                   Employee        50000 Per Annum  ASSOCIATE DIRECTOR FOR FINANCE
Reeves, Fiona O.               Employee        51000 Per Annum  ASSISTANT DIRECTOR
Reinstein, Joseph B.           Employee        66300 Per Annum  DEPUTY DIRECTOR AND DEPUTY SOCIAL SECRETARY
Resnick, Jay A.                Detailee       155500 Per Annum  ETHICS ADVISOR
Richardson, Karen E.           Employee        60000 Per Annum  DEPUTY ASSOCIATE DIRECTOR OF PUBLIC ENGAGEMENT
Rivadeneira, Shirley C.        Employee        55000 Per Annum  DOMESTIC DIRECTOR
Roach, Cynthia L.              Employee       103872 Per Annum  SUPERVISOR OF CLASSIFICATION
Roberts, Blake C.              Employee       114000 Per Annum  ASSOCIATE COUNSEL
Robertson, Iain T.             Employee        45000 Per Annum  COORDINATOR
Robinson, Derrick J.           Employee        45000 Per Annum  VETTER    
Roddick, Gertrude A.           Employee        89846 Per Annum  SPECIAL ASSISTANT
Rodriguez, Roberto J.          Employee       120000 Per Annum  SPECIAL ASSISTANT TO THE PRESIDENT FOR EDUCATION POLICY
Romaine, Joan C.               Detailee       119238 Per Annum  POLICY ADVISOR
Rosholm, Joanna S.             Employee        70000 Per Annum  REGIONAL COMMUNICATIONS DIRECTOR
Rothman, Mika L.               Employee        42000 Per Annum  STAFF ASSISTANT
Rouse, Peter M.                Employee       172200 Per Annum  COUNSELOR TO THE PRESIDENT
Ruemmler, Kathryn H.           Employee       172200 Per Annum  ASSISTANT TO THE PRESIDENT AND COUNSEL TO THE PRESIDENT
Russell, Racquel S.            Employee       120000 Per Annum  SPECIAL ASSISTANT TO THE PRESIDENT FOR MOBILITY AND OPPORTUNITY POLICY
Ryan, Timothy J.               Employee        87000 Per Annum  DIRECTOR OF SYSTEMS DEVELOPMENT FOR PRESIDENTIAL PERSONNEL
Saavedra, Natalie H.           Employee        43616 Per Annum  INFORMATION SERVICES OPERATOR
Sabochik, Katelyn A.           Employee        72500 Per Annum  DIRECTOR OF ONLINE ENGAGEMENT
Sahgal, Rishi R.               Employee        75000 Per Annum  DIRECTOR OF WHITE HOUSE PERSONNEL
Samuels, Jr., Wendell A.       Employee        64439 Per Annum  RECORDS SYSTEMS ANALYST
Samuels, Jonathan D.           Employee       158500 Per Annum  DEPUTY ASSISTANT TO THE PRESIDENT FOR LEGISLATIVE AFFAIRS AND HOUSE LIAISON
Sanchez, Roque T.              Employee        45000 Per Annum  POLICY ANALYST
Sanders, Trooper               Employee        85000 Per Annum  DEPUTY DIRECTOR OF POLICY AND PROJECTS FOR THE FIRST LADY
Sass, Joan C.                  Employee        58511 Per Annum  INFORMATION SERVICES OPERATOR
Sathe, Smrthi                  Employee        70000 Per Annum  ASSOCIATE DIRECTOR
Satkowiak, Karly M.            Employee        45000 Per Annum  ASSOCIATE DIRECTOR AND SCHEDULING RESEARCHER
Saunders, George T.            Employee       155500 Per Annum  EXECUTIVE CLERK
Schafer, Ellie S.              Employee        80000 Per Annum  DIRECTOR OF VISITORS OFFICE
Schake, Kristina K.            Employee       114000 Per Annum  SPECIAL ASSISTANT TO THE PRESIDENT AND DIRECTOR OF COMMUNICATIONS FOR THE FIRST LADY
Schaub, Matthew J.             Employee        50000 Per Annum  ASSISTANT DIRECTOR
Schiliro, Philip M.            Employee       172200 Per Annum  ASSISTANT TO THE PRESIDENT AND SPECIAL ADVISOR
Schmuck, Robert E.             Employee        50000 Per Annum  ASSOCIATE DIRECTOR OF SCHEDULING AND ADVANCE
Schulman, Kori S.              Employee        62500 Per Annum  DEPUTY DIRECTOR OF DIGITAL CONTENT
Schultz, Eric H.               Employee        90000 Per Annum  ASSOCIATE COMMUNICATIONS DIRECTOR
Schumer, Jessica E.            Employee            0 Per Annum  SENIOR POLICY ADVISOR
Sekhar, Sonia                  Employee        42000 Per Annum  STAFF ASSISTANT
Selak, Dawn M.                 Employee        57500 Per Annum  EXECUTIVE ASSISTANT
Selfridge, Peter A.            Employee       102000 Per Annum  SPECIAL ASSISTANT TO THE PRESIDENT AND DEPUTY DIRECTOR OF ADVANCE
Setser, Bradley W.             Employee       110500 Per Annum  DIRECTOR  
Shah, Sonal R.                 Employee       120000 Per Annum  "DEPUTY ASSISTANT TO THE PRESIDENT AND DIRECTOR
Shannon, Sara M.               Employee        42000 Per Annum  ANALYST   
Shaw, Katherine A.             Employee       130500 Per Annum  SPECIAL ASSISTANT TO THE PRESIDENT AND ASSOCIATE COUNSEL TO THE PRESIDENT
Showers, Wendy W.              Employee        84855 Per Annum  PRESIDENTIAL SUPPORT SPECIALIST
Sibley, Sarah E.               Employee        60000 Per Annum  ASSISTANT STAFF SECRETARY
Siegel, Avra C.                Employee        50000 Per Annum  SPECIAL ASSISTANT TO THE DEPUTY ASSISTANT TO THE PRESIDENT
Siegel, Julia B.               Employee        60000 Per Annum  SPECIAL ASSISTANT TO THE CHIEF OF STAFF
Singiser, Dana E.              Employee       130500 Per Annum  SPECIAL ASSISTANT TO THE PRESIDENT FOR LEGISLATIVE AFFAIRS
Siskel, Edward N.              Employee       130500 Per Annum  SPECIAL ASSISTANT TO THE PRESIDENT AND ASSOCIATE COUNSEL TO THE PRESIDENT
Skinner, Reginald M.           Detailee       140259 Per Annum  DEPUTY ASSOCIATE COUNSEL FOR PRESIDENTIAL PERSONNEL
Smith, Elizabeth S.            Employee       130000 Per Annum  DEPUTY ASSISTANT TO THE PRESIDENT AND DEPUTY CABINET SECRETARY
Smith, Jamie E.                Employee       110500 Per Annum  SPECIAL ASSISTANT TO THE PRESIDENT AND DEPUTY PRESS SECRETARY
Smith, Jason J.                Employee        45000 Per Annum  COORDINATOR
Smith, Kelley S.               Employee        42565 Per Annum  SENIOR ANALYST
Smith, Marissa L.              Employee        45000 Per Annum  RESEARCHER
Smith, Zakiya W.               Employee        93000 Per Annum  SENIOR POLICY ADVISOR FOR EDUCATION
Sobel, Charlie J.              Employee        55000 Per Annum  DIRECTOR OF OPERATIONS
Sperling, Eugene B.            Employee       172200 Per Annum  ASSISTANT TO THE PRESIDENT FOR ECONOMIC POLICY AND DIRECTOR OF THE NATIONAL ECONOMIC COUNCIL
Spooner, Sarah C.              Employee        42000 Per Annum  ANALYST   
Srinivasagam, Kamala M.        Employee       113000 Per Annum  SPECIAL ASSISTANT TO THE PRESIDENT FOR PRESIDENTIAL PERSONNEL
Starke, Petra S.               Employee        99000 Per Annum  DEPUTY ASSOCIATE COUNSEL
Starkey, Frances M.            Employee        90000 Per Annum  DIRECTOR OF SCHEDULING AND ADVANCE FOR THE FIRST LADY
Starr, Kodiak H.               Employee        72500 Per Annum  NEW MEDIA CREATIVE DIRECTOR
Stephens, Jeffrey M.           Employee        76500 Per Annum  PRINCIPAL DEPUTY DIRECTOR
Stephens, Semonti M.           Employee        75000 Per Annum  DEPUTY COMMUNICATIONS DIRECTOR 
Stevens, Clark W.              Employee        84250 Per Annum  ASSISTANT PRESS SECRETARY
Stoev, Ivan S.                 Employee        50000 Per Annum  ASSISTANT DIRECTOR
Stone, Wandra E.               Employee       112774 Per Annum  SUPERVISOR OF SEARCH AND FILE
Strautmanis, Michael A.        Employee       150000 Per Annum  DEPUTY ASSISTANT TO THE PRESIDENT AND COUNSELOR TO THE SENIOR  ADVISOR FOR STRATEGIC ENGAGEMENT
Sutton, Nikki E.               Employee        62500 Per Annum  DEPUTY DIRECTOR OF DIGITAL CONTENT
Swanson, Gregory C.            Employee        42565 Per Annum  SENIOR ANALYST
Taggart, Jr., Hugh T.          Employee        92341 Per Annum  ASSISTANT SUPERVISOR OF SEARCH AND FILE
Tamarin, Nathanael P.          Employee        96900 Per Annum  SPECIAL ASSISTANT TO THE PRESIDENT FOR PUBLIC ENGAGEMENT
Tate-Gilmore, Ashley R.        Employee        75000 Per Annum  DIRECTOR OF TRAVEL OFFICE
Tchen, Christina M.            Employee       172200 Per Annum  ASSISTANT TO THE PRESIDENT AND CHIEF OF STAFF TO THE FIRST LADY
Teater, Louis D.               Employee        57000 Per Annum  SPECIAL ASSISTANT AND ADVANCE LEAD
Teehee, Kimberly K.            Employee       100000 Per Annum  SENIOR POLICY ADVISOR FOR NATIVE AMERICAN AFFAIRS
Terrell, Louisa M.             Employee       130500 Per Annum  SPECIAL ASSISTANT TO THE PRESIDENT FOR LEGISLATIVE AFFAIRS
Thomas, III, Edwin R.          Employee       100904 Per Annum  ASSISTANT EXECUTIVE CLERK
Tiller, Jeffrey D.             Employee        50000 Per Annum  SPECIAL ASSISTANT AND PRESS LEAD
Trainor, Gregory T.            Employee        68230 Per Annum  SPECIAL ASSISTANT
Tseggai, Gannet L.             Employee        78000 Per Annum  "COMMUNICATIONS ADVISOR
Tubman, Samantha J.            Employee        65000 Per Annum  DEPUTY DIRECTOR AND DEPUTY SOCIAL SECRETARY
Tucker, Phyllis J.             Employee        92001 Per Annum  SUPERVISOR OF COMPUTER ADMINISTRATION
Turk, Andrea E.                Employee        70000 Per Annum  DIRECTOR OF INFORMATION SERVICES
Updegrove, Laura L.            Employee        60000 Per Annum  SPECIAL ASSISTANT TO THE DEPUTY CHIEF OF STAFF
Upperman, Christopher R.       Employee        42000 Per Annum  ANALYST   
Urquilla, Marta B.             Employee        95000 Per Annum  SENIOR POLICY ADVISOR FOR SOCIAL INNOVATION AND CIVIC PARTICIPATION
Utech, Dan G.                  Employee       100000 Per Annum  DEPUTY DIRECTOR FOR ENERGY AND CLIMATE CHANGE
Valencia, Stephanie M.         Employee        61200 Per Annum  DEPUTY ASSOCIATE DIRECTOR OF PUBLIC ENGAGEMENT
Van Es, Christopher J.         Employee        42000 Per Annum  ANALYST   
Varghese, Maju S.              Employee        55000 Per Annum  SPECIAL ASSISTANT AND ADVANCE LEAD
Vega, Dagoberto                Employee       100000 Per Annum  SPECIAL ASSISTANT TO THE PRESIDENT AND DIRECTOR OF BROADCAST MEDIA
Venegas, Katherine E.          Employee        42000 Per Annum  ENERGY AND ENVIRONMENT STAFF ASSISTANT
Vietor, Thomas F.              Employee       105000 Per Annum  SENIOR DIRECTOR AND NATIONAL SECURITY STAFF SPOKESMAN
Vogel, Matthew A.              Employee       130500 Per Annum  SPECIAL ASSISTANT TO THE PRESIDENT FOR ECONOMIC POLICY
Vogel, Miriam H.               Detailee       144385 Per Annum  SENIOR POLICY ADVISOR
Vrazilek, Lauren S.            Employee        42000 Per Annum  DEPUTY ASSOCIATE DIRECTOR OF CORRESPONDENCE FOR THE FIRST LADY
Wade, David L.                 Employee        60000 Per Annum  ASSOCIATE DIRECTOR
Wade, Frances J.               Employee        46745 Per Annum  RECORDS MANAGEMENT ANALYST
Wall, Mary C.                  Employee        50000 Per Annum  POLICY ASSISTANT
Wallach, Brian S.              Employee        80000 Per Annum  DEPUTY ASSOCIATE COUNSEL FOR PRESIDENTIAL PERSONNEL
Wang-Levine, Adam              Employee        55080 Per Annum  POLICY ADVISOR
Washington, Andrea J.          Employee        50000 Per Annum  SENIOR WRITER
Watson, Takesha R.             Employee        45024 Per Annum  INFORMATION SERVICES OPERATOR
Wear, Michael R.               Employee        47000 Per Annum  EXECUTIVE ASSISTANT TO THE EXECUTIVE DIRECTOR
Welsch, Peter A.               Employee        62500 Per Annum  DEPUTY DIRECTOR OF ONLINE PLATFORM
Whichard, IV, David J.         Employee        50000 Per Annum  ASSOCIATE DIRECTOR AND TRIP COORDINATOR
Whithorne, Robert D.           Employee        50000 Per Annum  WRITER    
Whitty, Patrick M.             Employee        45000 Per Annum  EXECUTIVE ASSISTANT
Williams, Sherman A.           Employee        77040 Per Annum  ASSISTANT TO THE EXECUTIVE CLERK
Wilson, Denise R.              Employee       130500 Per Annum  SPECIAL ASSISTANT TO THE PRESIDENT FOR LEGISLATIVE AFFAIRS
Winter, Melissa E.             Employee       120000 Per Annum  SPECIAL ASSISTANT TO THE PRESIDENT AND DEPUTY CHIEF OF STAFF  AND DIRECTOR OF OPERATIONS FOR THE FIRST LADY
Wong, Shale L.                 Employee            0 Per Annum  POLICY ADVISOR
Wright, Andrew M.              Employee       130500 Per Annum  SPECIAL ASSISTANT TO THE PRESIDENT AND ASSOCIATE COUNSEL TO THE PRESIDENT
Wright, Jessica N.             Employee       130000 Per Annum  DEPUTY ASSISTANT TO THE PRESIDENT AND DIRECTOR OF SCHEDULING
Young, Jr., Reginald D.        Employee        61952 Per Annum  RECORDS MANAGEMENT ANALYST
Young, Katherine H.            Employee        42000 Per Annum  STAFF ASSISTANT
Young, Latoya A.               Employee        60232 Per Annum  RECORDS MANAGEMENT ANALYST
Young, Nicole G.               Employee        42000 Per Annum  STAFF ASSISTANT
Zelman, Allison L.             Employee        50000 Per Annum  POLICY ASSISTANT
Zichal, Heather R.             Employee       140000 Per Annum  DEPUTY ASSISTANT TO THE PRESIDENT FOR ENERGY AND CLIMATE CHANGE
Zuckerman, Mark                Employee       158500 Per Annum  DEPUTY ASSISTANT TO THE PRESIDENT AND DEPUTY DIRECTOR OF THE DOMESTIC POLICY COUNCIL
