Name                           Status         Salary Pay Basis  Position Title
====================================================================================================================================
Owens, Rodrick T.              Employee        42565 Per Annum  SENIOR ANALYST
Peele, Christian B.            Employee        50000 Per Annum  DIRECTOR OF WHITE HOUSE INTERNSHIP PROGRAM
Payne, John H.                 Employee        42000 Per Annum  ANALYST   
Paulsen, Joseph B.             Employee        60000 Per Annum  SPECIAL ASSISTANT TO THE PRESIDENT AND TRAVELING AIDE
Pate, Brian E.                 Employee        53350 Per Annum  ASSISTANT TO THE EXECUTIVE CLERK
Parker, Doris D.               Employee        82359 Per Annum  ASSISTANT SUPERVISOR OF CLASSIFICATION
Parker, Andrew M.              Employee            0 Per Annum  SPECIAL ASSISTANT
Pappas, Louis S.               Employee        60000 Per Annum  SENIOR LEGAL ASSISTANT
Papas, Nicholas W.             Employee        84250 Per Annum  ASSISTANT PRESS SECRETARY
Pan, Elizabeth H.              Employee        42000 Per Annum  STAFF ASSISTANT
Palmieri, Jennifer M.          Employee       158500 Per Annum  DEPUTY ASSISTANT TO THE PRESIDENT AND DEPUTY DIRECTOR OF COMMUNICATIONS
Pajcic, Helen L.               Employee        50000 Per Annum  POLICY ASSISTANT
Paige, Lauren R.               Employee        95000 Per Annum  SPECIAL ASSISTANT TO THE PRESIDENT AND DIRECTOR OF MESSAGE PLANNING
Page, Darienne M.              Employee        50000 Per Annum  ASSISTANT DIRECTOR OF PUBLIC ENGAGEMENT
Pagano, Jules E.               Employee       158500 Per Annum  DEPUTY ASSISTANT TO THE PRESIDENT FOR LEGISLATIVE AFFAIRS AND SENATE LIAISON
Pérez, Alejandro              Employee       130500 Per Annum  SPECIAL ASSISTANT TO THE PRESIDENT FOR LEGISLATIVE AFFAIRS
O'Neill, Brendan A.            Employee        45000 Per Annum  COORDINATOR
O'Neil, Michael P.             Employee       100000 Per Annum  "SPECIAL ASSISTANT TO THE PRESIDENT AND DIRECTOR OF SPECIAL PROJECTS
Olson, Elizabeth H.            Employee       110000 Per Annum  SPECIAL ASSISTANT TO THE PRESIDENT AND DIRECTOR OF PRESIDENTIAL CORRESPONDENCE
Ogden, Peter R.                Employee        95000 Per Annum  SENIOR POLICY DIRECTOR
O'Connor, Kyle P.              Employee        75000 Per Annum  PRESIDENTIAL SPEECHWRITER
Noyes, Diana L.                Employee        50000 Per Annum  RESEARCHER
Norris, Amanda J.              Employee        42000 Per Annum  STAFF ASSISTANT
Noble, David L.                Employee       113000 Per Annum  SPECIAL ASSISTANT TO THE PRESIDENT FOR PRESIDENTIAL PERSONNEL
Nicholson, Jr., Marvin D.      Employee       130000 Per Annum  "SPECIAL ASSISTANT TO THE PRESIDENT
Nelson, Gregory S.             Employee       120000 Per Annum  CHIEF OF STAFF OF THE NATIONAL ECONOMIC COUNCIL
Nelson, Elizabeth W.           Employee        80000 Per Annum  DEPUTY DIRECTOR OF SCHEDULING AND SCHEDULING MANAGER
Neiman, Wanda M.               Employee        74958 Per Annum  ASSISTANT TO THE EXECUTIVE CLERK
Nabors, II, Robert L.          Employee       172200 Per Annum  "ASSISTANT TO THE PRESIDENT AND DIRECTOR
Pyle, Michael J.               Employee       130500 Per Annum  SPECIAL ASSISTANT TO THE PRESIDENT FOR ECONOMIC POLICY
Roberts, Brian D.              Employee        42000 Per Annum  ANALYST   
Roach, Cynthia L.              Employee       103872 Per Annum  SUPERVISOR OF CLASSIFICATION
Richardson, Karen E.           Employee        60000 Per Annum  ASSOCIATE DIRECTOR OF PUBLIC ENGAGEMENT
Reinarman, Blair C.            Employee        55000 Per Annum  ECONOMICS DIRECTOR
Reeves, Fiona O.               Employee        76500 Per Annum  PRINCIPAL DEPUTY DIRECTOR
Rangel, Antoinette N.          Employee        42000 Per Annum  PRESS ASSISTANT
Randle, Cole A.                Employee        47000 Per Annum  ASSOCIATE DIRECTOR FOR TRAVEL PLANNING
Rana, Yasmin S.                Employee        43616 Per Annum  INFORMATION SERVICES OPERATOR
Ramsey, Ryan P.                Employee        55000 Per Annum  PRIORITY PLACEMENT DIRECTOR
Raman, Aneesh V.               Employee        70000 Per Annum  PRESIDENTIAL SPEECHWRITER
Rakestraw, London C.           Employee        45000 Per Annum  LEGISLATIVE ASSISTANT AND ASSISTANT TO THE HOUSE LIAISON
Raizk, Paul S.                 Employee       113605 Per Annum  DEPUTY DIRECTOR OF RECORDS MANAGEMENT
Raghavan, Gautam               Employee        60000 Per Annum  ASSOCIATE DIRECTOR OF PUBLIC ENGAGEMENT
Myricks, Shannon L.            Employee        42000 Per Annum  INFORMATION SERVICES OPERATOR
Pourmorad, Araz                Employee        65000 Per Annum  DEPUTY DIRECTOR OF OPERATIONS AND CONTINUITY
Posey, Stacie M.               Employee        45000 Per Annum  COORDINATOR
Pollack, Joshua D.             Employee        95000 Per Annum  DIRECTOR OF CONFIRMATIONS
Pojman, Natalie R.             Employee        55000 Per Annum  DEPUTY PRESS SECRETARY AND EXECUTIVE SECRETARY
Plouffe, David A.              Employee       172200 Per Annum  ASSISTANT TO THE PRESIDENT AND SENIOR ADVISOR
Platt, Katherine A.            Employee        85000 Per Annum  DIRECTOR OF WHITE HOUSE OPERATIONS AND ADVISOR FOR MANAGEMENT AND ADMINISTRATION
Platkin, Alexandra R.          Employee        70000 Per Annum  DEPUTY DIRECTOR
Phillips, Niara E.             Employee        42000 Per Annum  PRIORITY PLACEMENT STAFF ASSISTANT
Phillips, III, Robert M.       Employee       115000 Per Annum  SPECIAL ASSISTANT TO THE PRESIDENT AND DIRECTOR OF DIGITAL STRATEGY
Phadke, Shilpa D.              Employee        80000 Per Annum  DEPUTY DIRECTOR OF CABINET AFFAIRS
Pfeiffer, Howard D.            Employee       172200 Per Annum  ASSISTANT TO THE PRESIDENT AND DIRECTOR OF COMMUNICATIONS
Perry, Seamus T.               Employee        47500 Per Annum  ASSOCIATE DIRECTOR AND TRIP MANAGER
Perkins, Nathaniel M.          Employee        42000 Per Annum  STAFF ASSISTANT
Liddell-Westefeld, Christopher S. Employee        60000 Per Annum  ASSISTANT STAFF SECRETARY
Mattson, Philip C.             Employee        61952 Per Annum  SPECIAL ASSISTANT
Mastromonaco, Alyssa M.        Employee       172200 Per Annum  ASSISTANT TO THE PRESIDENT AND DEPUTY CHIEF OF STAFF FOR OPERATIONS
Maska, Johanna M.              Employee        80000 Per Annum  DEPUTY DIRECTOR OF ADVANCE AND DIRECTOR OF PRESS ADVANCE
Manus, Linda S.                Employee        42000 Per Annum  STAFF ASSISTANT
Main, Galen E.                 Employee        50000 Per Annum  ASSISTANT DIRECTOR
Maher, Jessica A.              Employee       115000 Per Annum  SPECIAL ASSISTANT TO THE PRESIDENT FOR LEGISLATIVE AFFAIRS
MacFarquhar, Rory A.           Employee       110500 Per Annum  DIRECTOR  
Luck, Deatrice N.              Employee        46745 Per Annum  INFORMATION SERVICES OPERATOR
Lu, Christopher P.             Employee       172200 Per Annum  ASSISTANT TO THE PRESIDENT AND CABINET SECRETARY
Lorjuste, Gregory              Employee        58000 Per Annum  SENIOR SCHEDULER
Litt, David M.                 Employee        60000 Per Annum  SPEECHWRITER
Lindsay, Erin E.               Employee        62500 Per Annum  DEPUTY DIRECTOR OF ONLINE ENGAGEMENT
Lillie, Jordan N.              Employee        45000 Per Annum  COORDINATOR
Lierman, Kyle J.               Employee        42000 Per Annum  STAFF ASSISTANT
McAferty, Stacie I.            Employee        42000 Per Annum  ANALYST   
Lezotte, Darin R.              Employee        64439 Per Annum  RECORDS MANAGEMENT ANALYST
Lewis, Kevin S.                Employee        78000 Per Annum  DIRECTOR OF AFRICAN-AMERICAN MEDIA
Lewin, Jesse M.                Employee        42000 Per Annum  PRESS ASSISTANT
Lew, Jacob J.                  Employee       172200 Per Annum  ASSISTANT TO THE PRESIDENT AND CHIEF OF STAFF
Lepow, Brandon D.              Employee        70000 Per Annum  REGIONAL COMMUNICATIONS DIRECTOR
Lehrich, Matthew A.            Employee        84250 Per Annum  ASSISTANT PRESS SECRETARY
Lee, Stephanie A.              Employee        60000 Per Annum  DEPUTY DIRECTOR OF SCHEDULING
Lee, Monica M.                 Employee        42000 Per Annum  PRESS ASSISTANT
Lee, Jesse C.                  Employee        72500 Per Annum  DIRECTOR OF PROGRESSIVE MEDIA AND ONLINE RESPONSE
Ledbetter, Howli J.            Employee        57500 Per Annum  SPECIAL ASSISTANT TO THE PRESS SECRETARY
Lazarowitz, Danielle E.        Employee        50000 Per Annum  POLICY ADVISOR
Lartey, Solomon D.             Employee        60232 Per Annum  RECORDS MANAGEMENT ANALYST
Larrimore, Zachary T.          Employee        42000 Per Annum  ANALYST   
Miller, Jason S.               Employee       120000 Per Annum  SPECIAL ASSISTANT TO THE PRESIDENT FOR MANUFACTURING POLICY
Muñoz, Cecilia                Employee       172200 Per Annum  ASSISTANT TO THE PRESIDENT AND DIRECTOR OF THE DOMESTIC POLICY COUNCIL
Muffler, Richard T.            Employee        94372 Per Annum  CALLIGRAPHER
Mosteller, Brian D.            Employee        95000 Per Annum  DIRECTOR OF OVAL OFFICE OPERATIONS
Moseley, Julia S.              Employee        62000 Per Annum  SENIOR ADVANCE LEAD
Moscoso, Patricia G.           Employee        45000 Per Annum  LEGISLATIVE ASSISTANT 
Moran, Tyler T.                Employee        80000 Per Annum  DEPUTY POLICY DIRECTOR FOR IMMIGRATION
Moose, Amanda D.               Employee       113000 Per Annum  SPECIAL ASSISTANT TO THE PRESIDENT FOR PRESIDENTIAL PERSONNEL
Montz, Ellen J.                Employee        50000 Per Annum  POLICY ASSISTANT
Monteiro, Darron P.            Employee        61200 Per Annum  ASSOCIATE DIRECTOR OF PUBLIC ENGAGEMENT
Monje, Jr., Carlos A.          Employee       120000 Per Annum  SPECIAL ASSISTANT TO THE PRESIDENT AND CHIEF OF STAFF OF THE DOMESTIC POLICY COUNCIL
Mokros, Andrea K.              Employee        90000 Per Annum  DIRECTOR OF SCHEDULING AND ADVANCE FOR THE FIRST LADY
Miranda, Luis A.               Employee        78000 Per Annum  DIRECTOR OF HISPANIC MEDIA
Millison, Chad L.              Employee        61952 Per Annum  RECORDS MANAGEMENT ANALYST
Robertson, Dominique E.        Employee        42000 Per Annum  STAFF ASSISTANT
Mechaber, Ezra L.              Employee        41000 Per Annum  ASSOCIATE DIRECTOR OF ONLINE ENGAGEMENT
McSwain, Jr., Michael S.       Employee        41000 Per Annum  ASSOCIATE DIRECTOR FOR SCHEDULING CORRESPONDENCE
McNaught, John D.              Employee        42000 Per Annum  ECONOMICS STAFF ASSISTANT
McNamara Lawder, Claudia       Employee        42000 Per Annum  ASSISTANT FOR ARRANGEMENTS
McMahon, Collin T.             Employee       113000 Per Annum  SPECIAL ASSISTANT TO THE PRESIDENT FOR PRESIDENTIAL PERSONNEL
McLaughlin, Margaret T.        Employee       120000 Per Annum  SPECIAL ASSISTANT TO THE PRESIDENT AND CHIEF OF STAFF FOR PRESIDENTIAL PERSONNEL
McDonough, Denis R.            Employee       172200 Per Annum  ASSISTANT TO THE PRESIDENT AND DEPUTY NATIONAL SECURITY ADVISOR
McCullough, Victoria M.        Employee        45000 Per Annum  STAFF ASSISTANT
McCullough, Duncan J.          Employee        42565 Per Annum  SENIOR ANALYST
McCathran, William W.          Employee       106839 Per Annum  ASSISTANT EXECUTIVE CLERK
McCarthy, Mary N.              Employee        80000 Per Annum  DEPUTY DIRECTOR OF CABINET AFFAIRS
McBride, Jonathan D.           Employee       130000 Per Annum  DEPUTY ASSISTANT TO THE PRESIDENT AND DEPUTY DIRECTOR OF PRESIDENTIAL PERSONNEL
McAllister, Matthew J.         Employee        42000 Per Annum  OPERATIONS STAFF ASSISTANT
Tubman, Samantha J.            Employee        65000 Per Annum  DEPUTY DIRECTOR AND DEPUTY SOCIAL SECRETARY
Wagstaff, Jesica E.            Employee        45000 Per Annum  LEGISLATIVE ASSISTANT
Vrazilek, Lauren S.            Employee        42000 Per Annum  DEPUTY ASSOCIATE DIRECTOR OF CORRESPONDENCE FOR THE FIRST LADY
Vogel, Matthew A.              Employee       130500 Per Annum  SPECIAL ASSISTANT TO THE PRESIDENT FOR ECONOMIC POLICY
Vietor, Thomas F.              Employee       105000 Per Annum  "SPECIAL ASSISTANT TO THE PRESIDENT
Vega, Dagoberto                Employee       100000 Per Annum  SPECIAL ASSISTANT TO THE PRESIDENT AND DIRECTOR OF BROADCAST MEDIA
Varghese, Maju S.              Employee        60000 Per Annum  SENIOR ADVANCE LEAD
VanGrack, Ryan L.              Employee        80000 Per Annum  DEPUTY ASSOCIATE COUNSEL FOR PRESIDENTIAL PERSONNEL
Van Es, Christopher J.         Employee        42000 Per Annum  ANALYST   
Valencia, Stephanie M.         Employee        92000 Per Annum  DEPUTY DIRECTOR OF PUBLIC ENGAGEMENT
Utech, Dan G.                  Employee       100000 Per Annum  DEPUTY DIRECTOR FOR ENERGY AND CLIMATE CHANGE
Upperman, Christopher R.       Employee        42000 Per Annum  ANALYST   
Updegrove, Laura L.            Employee        60000 Per Annum  SPECIAL ASSISTANT TO THE DEPUTY CHIEF OF STAFF
Turk, Andrea E.                Employee        85000 Per Annum  DIRECTOR OF WHITE HOUSE SERVICES
Tucker, Phyllis J.             Employee        94969 Per Annum  SUPERVISOR OF COMPUTER ADMINISTRATION
Walker, Burden H.              Employee        55000 Per Annum  POLICY ASSISTANT
Travis, Austin M.              Employee        45000 Per Annum  EXECUTIVE ASSISTANT TO THE DIRECTOR OF SCHEDULING AND ADVANCE
Trainor, Gregory T.            Employee        68230 Per Annum  SPECIAL ASSISTANT
Ting, Wayne H.                 Employee        60000 Per Annum  POLICY ADVISOR
Tiller, Jeffrey D.             Employee        55000 Per Annum  SENIOR PRESS LEAD
Thomas, III, Edwin R.          Employee       100904 Per Annum  ASSISTANT EXECUTIVE CLERK
Temaat, Stephanie M.           Employee        50000 Per Annum  PRESS LEAD
Tedmon, Dirk A.                Employee        42000 Per Annum  ANALYST   
Teater, Louis D.               Employee        62000 Per Annum  SENIOR ADVANCE LEAD
Tchen, Christina M.            Employee       172200 Per Annum  ASSISTANT TO THE PRESIDENT AND CHIEF OF STAFF TO THE FIRST LADY
Tate-Gilmore, Ashley R.        Employee        75000 Per Annum  DIRECTOR OF TRAVEL OFFICE
Tamarin, Nathanael P.          Employee        96900 Per Annum  SPECIAL ASSISTANT TO THE PRESIDENT FOR PUBLIC ENGAGEMENT
Taggart, Jr., Hugh T.          Employee        94837 Per Annum  ASSISTANT SUPERVISOR OF SEARCH AND FILE
Swanson, Gregory C.            Employee        45000 Per Annum  COORDINATOR
Wohlleben, Karen E.            Employee        42000 Per Annum  ANALYST   
Zuckerman, Mark                Employee       158500 Per Annum  DEPUTY ASSISTANT TO THE PRESIDENT AND DEPUTY DIRECTOR OF THE DOMESTIC POLICY COUNCIL
Zichal, Heather R.             Employee       140000 Per Annum  DEPUTY ASSISTANT TO THE PRESIDENT FOR ENERGY AND CLIMATE CHANGE
Zarzuelo, Diane                Employee        50000 Per Annum  "POLICY ASSISTANT
Young, Valerie A.              Employee        42000 Per Annum  RECORDS MANAGEMENT ANALYST
Young, Latoya A.               Employee        60232 Per Annum  RECORDS MANAGEMENT ANALYST
Young, Jr., Reginald D.        Employee        61952 Per Annum  RECORDS MANAGEMENT ANALYST
Xu, Kevin S.                   Employee        42000 Per Annum  PRESS ASSISTANT
Wylie, Allison G.              Employee        42000 Per Annum  STAFF ASSISTANT
Wu, Portia Y.                  Employee       100000 Per Annum  SPECIAL ASSISTANT TO THE PRESIDENT FOR LABOR AND WORKFORCE POLICY
Wright, Jessica N.             Employee       130000 Per Annum  DEPUTY ASSISTANT TO THE PRESIDENT AND DIRECTOR OF SCHEDULING
Wright, Andrew M.              Employee       130500 Per Annum  SPECIAL ASSISTANT TO THE PRESIDENT AND ASSOCIATE COUNSEL TO THE PRESIDENT
Woodbury, Victoria M.          Employee        42000 Per Annum  STAFF ASSISTANT
Wong, Frederick L.             Employee        42000 Per Annum  DOMESTIC STAFF ASSISTANT
Sullivan, Sarah E.             Employee        41000 Per Annum  ANALYST   
Winter, Melissa E.             Employee       120000 Per Annum  SPECIAL ASSISTANT TO THE PRESIDENT AND DEPUTY CHIEF OF STAFF AND DIRECTOR OF OPERATIONS FOR THE FIRST LADY
Wilson, Taj N.                 Employee        80000 Per Annum  DEPUTY ASSOCIATE COUNSEL FOR PRESIDENTIAL PERSONNEL
Williamson, Justina R.         Employee        42000 Per Annum  ANALYST   
Williams, Sherman A.           Employee        77040 Per Annum  ASSISTANT TO THE EXECUTIVE CLERK
Whithorne, Robert D.           Employee        50000 Per Annum  WRITER    
Wertheimer, Clay S.            Employee        55000 Per Annum  DEPUTY ASSOCIATE DIRECTOR
Welsch, Peter A.               Employee        62500 Per Annum  DEPUTY DIRECTOR OF ONLINE PLATFORM
Watson, Takesha R.             Employee        46745 Per Annum  INFORMATION SERVICES OPERATOR
Washington, Andrea J.          Employee        50000 Per Annum  SENIOR WRITER
Wang-Levine, Adam Y.           Employee        55080 Per Annum  POLICY ADVISOR
Wallach, Brian S.              Employee        90000 Per Annum  SENIOR VETTING COUNSEL FOR PRESIDENTIAL PERSONNEL
Wall, Mary C.                  Employee        50000 Per Annum  POLICY ASSISTANT
Wall, Anne E.                  Employee       130500 Per Annum  SPECIAL ASSISTANT TO THE PRESIDENT FOR LEGISLATIVE AFFAIRS
Sabochik, Katelyn A.           Employee        80000 Per Annum  DEPUTY DIRECTOR OF DIGITAL STRATEGY
Schuelke, Gregory L.           Employee        42000 Per Annum  ANALYST   
Schneir, Hallie R.             Employee        65000 Per Annum  ASSOCIATE DIRECTOR OF PUBLIC ENGAGEMENT
Schmuck, Robert E.             Employee        60000 Per Annum  SPECIAL ASSISTANT TO THE PRESIDENT AND TRAVELING AIDE
Schaub, Matthew J.             Employee        50000 Per Annum  ASSISTANT DIRECTOR
Schake, Kristina K.            Employee       114000 Per Annum  SPECIAL ASSISTANT TO THE PRESIDENT AND DIRECTOR OF COMMUNICATIONS FOR THE FIRST LADY
Schafer, Ellie S.              Employee       100000 Per Annum  SPECIAL ASSISTANT TO THE PRESIDENT AND DIRECTOR OF VISITORS OFFICE
Satkowiak, Karly M.            Employee        45000 Per Annum  ASSOCIATE DIRECTOR AND SCHEDULING RESEARCHER
Sass, Joan C.                  Employee        58511 Per Annum  INFORMATION SERVICES OPERATOR
Sandler, David J.              Employee        99000 Per Annum  DEPUTY ASSOCIATE COUNSEL
Sanchez, Roque T.              Employee        45000 Per Annum  POLICY ANALYST
Samuels, Jr., Wendell A.       Employee        64439 Per Annum  RECORDS SYSTEMS ANALYST
Samuels, Jonathan D.           Employee       158500 Per Annum  DEPUTY ASSISTANT TO THE PRESIDENT FOR LEGISLATIVE AFFAIRS AND HOUSE LIAISON
Sahgal, Rishi R.               Employee        99000 Per Annum  DEPUTY ASSOCIATE COUNSEL
Schuelke, James D.             Employee        42000 Per Annum  STAFF ASSISTANT
Russell, Racquel S.            Employee       120000 Per Annum  DEPUTY ASSISTANT TO THE PRESIDENT FOR URBAN AFFAIRS AND ECONOMIC MOBILITY
Ruiz, Alexandria V.            Employee        45000 Per Annum  LEGISLATIVE ASSISTANT
Ruemmler, Kathryn H.           Employee       172200 Per Annum  ASSISTANT TO THE PRESIDENT AND COUNSEL TO THE PRESIDENT
Rouse, Peter M.                Employee       172200 Per Annum  COUNSELOR TO THE PRESIDENT
Rosholm, Joanna S.             Employee        70000 Per Annum  REGIONAL COMMUNICATIONS DIRECTOR
Rosa, Luke B.                  Employee        45000 Per Annum  ADVANCE COORDINATOR
Rodriguez, Roberto J.          Employee       120000 Per Annum  SPECIAL ASSISTANT TO THE PRESIDENT FOR EDUCATION POLICY
Rodriguez, Miguel E.           Employee       130500 Per Annum  SPECIAL ASSISTANT TO THE PRESIDENT FOR LEGISLATIVE AFFAIRS
Rodriguez, Julie C.            Employee        60000 Per Annum  ASSOCIATE DIRECTOR OF PUBLIC ENGAGEMENT
Roddick, Gertrude A.           Employee        89846 Per Annum  PRESIDENTIAL SUPPORT SPECIALIST
Robinson, Tonya T.             Employee       100000 Per Annum  SPECIAL ASSISTANT TO THE PRESIDENT FOR JUSTICE AND REGULATORY POLICY
Robinson, Derrick J.           Employee        45000 Per Annum  VETTER    
Robertson, Iain T.             Employee        45000 Per Annum  COORDINATOR
Smith, Jamie E.                Employee       110500 Per Annum  SPECIAL ASSISTANT TO THE PRESIDENT AND DEPUTY PRESS SECRETARY
Su, Chun-Wei J.                Employee       130500 Per Annum  SPECIAL ASSISTANT TO THE PRESIDENT AND ASSOCIATE COUNSEL TO THE PRESIDENT
Strautmanis, Michael A.        Employee       150000 Per Annum  DEPUTY ASSISTANT TO THE PRESIDENT AND COUNSELOR TO THE SENIOR ADVISOR FOR STRATEGIC ENGAGEMENT
Stone, Wandra E.               Employee       112774 Per Annum  SUPERVISOR OF SEARCH AND FILE
Stoev, Ivan S.                 Employee        50000 Per Annum  ASSISTANT DIRECTOR
Stevens, Clark W.              Employee        84250 Per Annum  ASSISTANT PRESS SECRETARY
Stephens, Semonti M.           Employee        75000 Per Annum  DEPUTY COMMUNICATIONS DIRECTOR
Starr, Kodiak H.               Employee        72500 Per Annum  NEW MEDIA CREATIVE DIRECTOR
Srinivasagam, Kamala M.        Employee       113000 Per Annum  SPECIAL ASSISTANT TO THE PRESIDENT FOR PRESIDENTIAL PERSONNEL
Spooner, Sarah C.              Employee        42565 Per Annum  SENIOR ANALYST
Sperling, Eugene B.            Employee       172200 Per Annum  ASSISTANT TO THE PRESIDENT FOR ECONOMIC POLICY AND DIRECTOR OF THE NATIONAL ECONOMIC COUNCIL
Sobel, Charlie J.              Employee        72000 Per Annum  DIRECTOR OF TECHNOLOGY
Smith, Zakiya W.               Employee        93000 Per Annum  SENIOR POLICY ADVISOR FOR EDUCATION
Smith, Jason J.                Employee        65000 Per Annum  SYSTEMS ADMINISTRATOR
Abrevaya, Sandra               Employee        90000 Per Annum  ASSOCIATE COMMUNICATIONS DIRECTOR
Small, Anne K.                 Employee       130500 Per Annum  SPECIAL ASSISTANT TO THE PRESIDENT AND ASSOCIATE COUNSEL TO THE PRESIDENT
Slack, Megan                   Employee        47500 Per Annum  ASSOCIATE DIRECTOR OF DIGITAL CONTENT
Siskel, Edward N.              Employee       130500 Per Annum  SPECIAL ASSISTANT TO THE PRESIDENT AND SPECIAL COUNSEL TO THE PRESIDENT
Simon, Jennifer J.             Employee        85000 Per Annum  DEPUTY DIRECTOR OF POLICY AND PROJECTS FOR THE FIRST LADY
Siegel, Avra C.                Employee        65000 Per Annum  DEPUTY EXECUTIVE DIRECTOR FOR THE COUNCIL ON WOMEN AND GIRLS
Showers, Wendy W.              Employee        87350 Per Annum  PRESIDENTIAL SUPPORT SPECIALIST
Sheehy, Kathleen M.            Employee        62000 Per Annum  SPECIAL ASSISTANT TO THE WHITE HOUSE COUNSEL
Shapiro, Michael P.            Employee        55000 Per Annum  POLICY ADVISOR
Selfridge, Peter A.            Employee       130000 Per Annum  DEPUTY ASSISTANT TO THE PRESIDENT AND DIRECTOR OF ADVANCE AND OPERATIONS
Selak, Dawn M.                 Employee        57500 Per Annum  EXECUTIVE ASSISTANT
Schumer, Jessica E.            Employee        60000 Per Annum  DEPUTY CHIEF OF STAFF OF THE NATIONAL ECONOMIC COUNCIL
Schultz, Eric H.               Employee        90000 Per Annum  ASSOCIATE COMMUNICATIONS DIRECTOR
Schulman, Kori S.              Employee        72500 Per Annum  DIRECTOR OF ONLINE ENGAGEMENT
Cuellar, Martin E.             Employee        91800 Per Annum  "DEPUTY DIRECTOR
Doohan, Kelly C.               Employee        50000 Per Annum  SCHEDULING ASSISTANT AND TRIP COORDINATOR
Donovan, Michael W.            Employee        54000 Per Annum  ASSOCIATE DIRECTOR OF SCHEDULING
Donilon, Thomas E.             Employee       172200 Per Annum  ASSISTANT TO THE PRESIDENT AND NATIONAL SECURITY ADVISOR
DeParle, Nancy-Ann M.          Employee       172200 Per Annum  ASSISTANT TO THE PRESIDENT AND DEPUTY CHIEF OF STAFF FOR POLICY
DeGuzman, Jr., Danilo          Employee        74958 Per Annum  PRESIDENTIAL SUPPORT SPECIALIST
DeGuzman, Brian K.             Employee        55000 Per Annum  DIRECTOR OF INFORMATION SERVICES
Deese, Brian C.                Employee       147500 Per Annum  "DEPUTY ASSISTANT TO THE PRESIDENT AND DEPUTY DIRECTOR
Dean, Laura A.                 Employee        50000 Per Annum  ASSISTANT SPEECHWRITER
Davis-Van Atta, Casey R.       Employee        50000 Per Annum  SENIOR WRITER
Davis, Ashlee J.               Employee        42000 Per Annum  ENERGY AND ENVIRONMENT STAFF ASSISTANT
Dale, Kareem A.                Employee        80000 Per Annum  SPECIAL ASSISTANT TO THE PRESIDENT AND DEPUTY ASSOCIATE DIRECTOR OF PUBLIC ENGAGEMENT
Cushman, Chase M.              Employee        58000 Per Annum  SENIOR SCHEDULER
Curtis, Colleen A.             Employee        72500 Per Annum  DIRECTOR OF DIGITAL CONTENT
Cunnane, Patrick J.            Employee        42000 Per Annum  PRESS ASSISTANT
Dorsainvil, Monique            Employee        50000 Per Annum  DEPUTY DIRECTOR OF ADVANCE AND SPECIAL EVENTS FOR THE OFFICE OF PUBLIC ENGAGEMENT AND INTERGOVERNMENTAL AFFAIRS
Crutchfield, Danielle M.       Employee       140000 Per Annum  DEPUTY ASSISTANT TO THE PRESIDENT AND DIRECTOR OF SCHEDULING AND ADVANCE
Croley, Steven P.              Employee       135000 Per Annum  SPECIAL ASSISTANT TO THE PRESIDENT AND SENIOR COUNSEL TO THE PRESIDENT
Covey, Francesca-Maria L.      Employee        42000 Per Annum  DEPUTY TO THE COUNSELOR FOR STRATEGIC ENGAGEMENT
Coscia, Caroline M.            Employee        50000 Per Annum  SPECIAL ASSISTANT AND PRESS LEAD
Compton, Matthew V.            Employee        67500 Per Annum  DEPUTY DIRECTOR OF DIGITAL CONTENT
Colfax, Grant N.               Employee       100000 Per Annum  DIRECTOR OF THE OFFICE OF NATIONAL AIDS POLICY
Cokley, Rebecca A.             Employee        72000 Per Annum  PRIORITY PLACEMENT DIRECTOR
Cohen, David Z.                Employee        42000 Per Annum  EXECUTIVE ASSISTANT
Coccaro, Kasie M.              Employee        47500 Per Annum  ASSOCIATE DIRECTOR OF ONLINE OUTREACH AND OPERATIONS
Cobbina, Kwesi A.              Employee        65000 Per Annum  "CHIEF OF STAFF
Click, John S.                 Employee        43616 Per Annum  INFORMATION SERVICES OPERATOR
Claude, Lilia H.               Employee        60232 Per Annum  INFORMATION SERVICES OPERATOR
Cho, Ronnie S.                 Employee        65000 Per Annum  ASSOCIATE DIRECTOR OF PUBLIC ENGAGEMENT
Epstein, Michael S.            Employee        55000 Per Annum  SPECIAL ASSISTANT AND ADVANCE LEAD
Foster, Heather J.             Employee        60000 Per Annum  ASSOCIATE DIRECTOR OF PUBLIC ENGAGEMENT
Ford, Harrison A.              Employee        65000 Per Annum  ASSISTANT DIRECTOR FOR INFORMATION TECHNOLOGY
Fletcher, Brian H.             Employee       114000 Per Annum  SPECIAL ASSISTANT TO THE PRESIDENT AND ASSOCIATE COUNSEL TO THE PRESIDENT
Fitzgerald, Quinn S.           Employee        42000 Per Annum  STAFF ASSISTANT
Fisher, Alyssa D.              Employee       115000 Per Annum  SPECIAL ASSISTANT TO THE PRESIDENT FOR LEGISLATIVE AFFAIRS
Langner, Emily R.              Employee        60000 Per Annum  ASSISTANT STAFF SECRETARY
Filipic, Anne E.               Employee        92000 Per Annum  DEPUTY DIRECTOR OF PUBLIC ENGAGEMENT
Feuerstein, Sara A.            Employee        42000 Per Annum  WEST WING RECEPTIONIST
Fernandez, Micaela J.          Employee       102000 Per Annum  SPECIAL ASSISTANT TO THE PRESIDENT AND DIRECTOR OF EVENTS AND PROTOCOL
Fenn, Sarah B.                 Employee        60000 Per Annum  ASSISTANT COUNSEL OF ETHICS
Fay, Jennifer M.               Employee        85000 Per Annum  DIRECTOR OF WHITE HOUSE PERSONNEL
Favreau, Jonathan E.           Employee       172200 Per Annum  ASSISTANT TO THE PRESIDENT AND DIRECTOR OF SPEECHWRITING
Espinel, Zulima L.             Employee       130500 Per Annum  SPECIAL ASSISTANT TO THE PRESIDENT AND ASSOCIATE COUNSEL TO THE PRESIDENT
Escobar, Felicia A.            Employee        93000 Per Annum  SENIOR POLICY DIRECTOR FOR IMMIGRATION
Chiodo, Theodore A.            Employee        90000 Per Annum  "CHIEF OF STAFF
Elhassani, Layth S.            Employee       130500 Per Annum  SPECIAL ASSISTANT TO THE PRESIDENT FOR LEGISLATIVE AFFAIRS
Egan, Brian J.                 Employee       130500 Per Annum  SPECIAL ASSISTANT TO THE PRESIDENT AND ASSOCIATE COUNSEL TO THE PRESIDENT
Edmonds, Anita J.              Employee        51630 Per Annum  RECORDS MANAGEMENT ANALYST
Earnest, Joshua R.             Employee       123000 Per Annum  SPECIAL ASSISTANT TO THE PRESIDENT AND PRINCIPAL DEPUTY PRESS SECRETARY
Dyer, Deesha A.                Employee        60000 Per Annum  DEPUTY DIRECTOR AND HOTEL PROGRAM DIRECTOR
Durheim, Joseph T.             Employee        42000 Per Annum  ANALYST   
Dunlap, Meghann L.             Employee        80000 Per Annum  DEPUTY ASSOCIATE COUNSEL FOR PRESIDENTIAL PERSONNEL
Duncan, Julia L.               Employee        42000 Per Annum  STAFF ASSISTANT
Duceman, Katherine I.          Employee        42000 Per Annum  STAFF ASSISTANT
DuBois, Joshua P.              Employee       100000 Per Annum  SPECIAL ASSISTANT TO THE PRESIDENT AND EXECUTIVE DIRECTOR OF THE WHITE HOUSE OFFICE OF FAITH-BASED AND NEIGHBORHOOD PARTNERSHIPS
Droege, Philip C.              Employee       140259 Per Annum  DIRECTOR OF RECORDS MANAGEMENT
Doumet, Mark A.                Employee        50000 Per Annum  SPECIAL ASSISTANT TO THE WHITE HOUSE COUNSEL
Dorsett, Craig M.              Employee        50000 Per Annum  SPECIAL ASSISTANT TO THE CHIEF OF STAFF
Babler, Joseph L.              Employee        42000 Per Annum  STAFF ASSISTANT
Block, Michael R.              Employee        60000 Per Annum  ASSOCIATE DIRECTOR OF INTERGOVERNMENTAL AFFAIRS
Blakemore, Jessica M.          Employee        60000 Per Annum  SPECIAL ASSISTANT TO THE COUNSELOR TO THE PRESIDENT
Blair, Patricia A.             Employee        96725 Per Annum  CHIEF CALLIGRAPHER
Bisi, Rachel I.                Employee        42000 Per Annum  LEGISLATIVE ASSISTANT
Binns, Mary U.                 Employee        72022 Per Annum  SPECIAL ASSISTANT
Bhowmik, Rachana               Employee       130000 Per Annum  DEPUTY ASSISTANT TO THE PRESIDENT AND DEPUTY CABINET SECRETARY
Bernard, Jeremy M.             Employee       118000 Per Annum  SPECIAL ASSISTANT TO THE PRESIDENT AND WHITE HOUSE SOCIAL SECRETARY
Beliveau, Emmett S.            Employee       130000 Per Annum  "DEPUTY ASSISTANT TO THE PRESIDENT AND DIRECTOR
Belford, Brandon M.            Employee        90000 Per Annum  SENIOR POLICY ADVISOR
Beechem, Stephanie             Employee        45000 Per Annum  RESEARCHER
Bates, Andrew J.               Employee        45000 Per Annum  RESEARCHER
Baskerville, Mary E.           Employee        47000 Per Annum  ASSOCIATE DIRECTOR FOR TRAVEL PLANNING
Bartoloni, Kristen A.          Employee        55000 Per Annum  ASSOCIATE RESEARCH DIRECTOR
Baker, Sarah E.                Employee        80000 Per Annum  DEPUTY ASSOCIATE COUNSEL FOR PRESIDENTIAL PERSONNEL
Blount, Patricia H.            Employee        51630 Per Annum  RECORDS MANAGEMENT ANALYST
Ayling, Lindsay A.             Employee        50000 Per Annum  SENIOR WRITER
Avila, Steven A.               Employee        42000 Per Annum  ANALYST   
August, Hannah M.              Employee        70000 Per Annum  PRESS SECRETARY TO THE FIRST LADY
Atkinson, Caroline M.          Employee       130500 Per Annum  SPECIAL ASSISTANT TO THE PRESIDENT FOR INTERNATIONAL ECONOMIC AFFAIRS
Asen, Jonathan D.              Employee        50000 Per Annum  SPECIAL ASSISTANT TO THE DIRECTOR
Aron-Dine, Aviva R.            Employee       130500 Per Annum  SPECIAL ASSISTANT TO THE PRESIDENT FOR ECONOMIC POLICY
Arguelles, Adam J.             Employee       102000 Per Annum  SPECIAL ASSISTANT TO THE PRESIDENT FOR LEGISLATIVE AFFAIRS
Anderson, Amanda D.            Employee       102000 Per Annum  SPECIAL ASSISTANT TO THE PRESIDENT FOR LEGISLATIVE AFFAIRS
Alcantara, Elias               Employee        42000 Per Annum  STAFF ASSISTANT
Albino, James                  Employee        93000 Per Annum  SENIOR PROGRAM MANAGER
Ahmed, Rumana A.               Employee        42565 Per Annum  EXECUTIVE ASSISTANT TO THE DIRECTOR OF PUBLIC ENGAGEMENT
Agnew, David P.                Employee       153500 Per Annum  DEPUTY ASSISTANT TO THE PRESIDENT AND DIRECTOR OF INTERGOVERNMENTAL AFFAIRS
Aberger, Marie E.              Employee        42000 Per Annum  PRESS ASSISTANT
Burger, Jillian M.             Employee        42000 Per Annum  ANALYST   
Childress, Mark B.             Employee       172200 Per Annum  ASSISTANT TO THE PRESIDENT AND DEPUTY CHIEF OF STAFF FOR PLANNING
Cheng, Caroline K.             Employee       158500 Per Annum  DEPUTY ASSISTANT TO THE PRESIDENT AND PRINCIPAL DEPUTY COUNSEL TO THE PRESIDENT
Chaurand, Teresa R.            Employee       113000 Per Annum  SPECIAL ASSISTANT TO THE PRESIDENT FOR PRESIDENTIAL PERSONNEL
Chatalas, Hannah R.            Employee        42000 Per Annum  RESEARCH ASSOCIATE
Casey, Kinsey E.               Employee        55000 Per Annum  NATIONAL SECURITY DIRECTOR
Case, Michael A.               Employee        50000 Per Annum  ASSISTANT DIRECTOR
Carson, Jonathan K.            Employee       153500 Per Annum  DEPUTY ASSISTANT TO THE PRESIDENT AND DIRECTOR OF THE OFFICE OF PUBLIC ENGAGEMENT
Carroll, Bradley W.            Employee        78000 Per Annum  COMMUNICATIONS DIRECTOR OF THE DOMESTIC POLICY COUNCIL AND OFFICE OF NATIONAL AIDS POLICY
Carney, James F.               Employee       172200 Per Annum  ASSISTANT TO THE PRESIDENT AND PRESS SECRETARY
Campoverdi, Alejandra M.       Employee        65000 Per Annum  DEPUTY DIRECTOR OF HISPANIC MEDIA
Campos, David R.               Employee        42565 Per Annum  SENIOR ANALYST
Campbell, Frances L.           Employee       103872 Per Annum  "SUPERVISOR
Burke, Jordan M.               Employee        82500 Per Annum  SPECIAL ASSISTANT TO THE PRESIDENT AND ASSISTANT COMMUNICATIONS DIRECTOR
Finke, Samantha D.             Employee        52500 Per Annum  SPECIAL ASSISTANT AND PRESS MANAGER
Buffa, Nicole                  Employee        80000 Per Annum  DEPUTY DIRECTOR OF CABINET AFFAIRS
Buckhout, Scott E.             Employee        45000 Per Annum  POLICY ASSISTANT
Brush, Michael P.              Employee       102000 Per Annum  SPECIAL ASSISTANT TO THE PRESIDENT AND DEPUTY DIRECTOR OF ADVANCE
Brundage, Daniel W.            Employee        60000 Per Annum  SPECIAL ASSISTANT TO THE SENIOR ADVISOR AND DEPUTY CHIEF OF STAFF
Brundage, Amy J.               Employee       103000 Per Annum  SPECIAL ASSISTANT TO THE PRESIDENT AND DEPUTY PRESS SECRETARY
Brown, Debra S.                Employee        85953 Per Annum  CALLIGRAPHER
Brooks, Jordan A.              Employee        50000 Per Annum  SPECIAL ASSISTANT TO THE CHIEF OF STAFF TO THE FIRST LADY
Brooke, Mary J.                Employee        94969 Per Annum  SUPERVISOR OF CORRESPONDENCE REVIEW
Brennan, John O.               Employee       172200 Per Annum  ASSISTANT TO THE PRESIDENT FOR HOMELAND SECURITY AND COUNTERTERRORISM
Breckenridge, Anita J.         Employee        95000 Per Annum  PERSONAL AIDE TO THE PRESIDENT
Branch, Katherine Y.           Employee        61200 Per Annum  SPECIAL ASSISTANT TO THE SENIOR ADVISOR
Bookey-Baker, Natalie F.       Employee        55000 Per Annum  DEPUTY ASSOCIATE DIRECTOR
Bollinger, Chelsea M.          Employee        42000 Per Annum  STAFF ASSISTANT
Jackson, Bartlett W.           Employee        45000 Per Annum  VETTER    
Kaden, David M.                Employee            0 Per Annum  SENIOR POLICY ADVISOR
Jones, Kristin T.              Employee        50000 Per Annum  SPECIAL ASSISTANT AND PERSONAL AIDE TO THE FIRST LADY
Jones, Isabel C.               Employee        42000 Per Annum  STAFF ASSISTANT
Jones, Crystal B.              Employee        87350 Per Annum  "ASSISTANT SUPERVISOR
Jones, Corey J.                Employee        42000 Per Annum  STAFF ASSISTANT
Johnson, Linda M.              Employee        68230 Per Annum  INFORMATION SERVICES OPERATOR
Jimenez, Luis A.               Employee       130500 Per Annum  SPECIAL ASSISTANT TO THE PRESIDENT FOR LEGISLATIVE AFFAIRS
Jenkins, Bradley L.            Employee        65000 Per Annum  ASSOCIATE DIRECTOR
Jarvis, Kristen E.             Employee        65000 Per Annum  DEPUTY DIRECTOR OF ADVANCE AND TRAVELING AIDE FOR THE FIRST LADY
Jarrett, Valerie B.            Employee       172200 Per Annum  SENIOR ADVISOR AND ASSISTANT TO THE PRESIDENT FOR INTERGOVERNMENTAL AFFAIRS AND PUBLIC ENGAGEMENT
James, Jewel A.                Employee        92000 Per Annum  SPECIAL ASSISTANT TO THE PRESIDENT FOR INTERGOVERNMENTAL AFFAIRS
Jackson, Theresa R.            Employee        66335 Per Annum  INFORMATION SERVICES OPERATOR
Jackson, Elizabeth J.          Employee        43616 Per Annum  RECORDS MANAGEMENT ANALYST
Kalbaugh, David E.             Employee       140259 Per Annum  EXECUTIVE CLERK
Isaac, Nicole M.               Employee       115000 Per Annum  SPECIAL ASSISTANT TO THE PRESIDENT FOR LEGISLATIVE AFFAIRS
Inouye, Shinichi               Employee        78000 Per Annum  DIRECTOR OF SPECIALTY MEDIA
Hurwitz, Sarah K.              Employee       100000 Per Annum  "SPECIAL ASSISTANT TO THE PRESIDENT
Hurley, Caitlin G.             Employee        60000 Per Annum  ASSISTANT STAFF SECRETARY
Hull, Carolyn A.               Employee        42565 Per Annum  SENIOR ANALYST
Hughes, Caroline E.            Employee        70000 Per Annum  REGIONAL COMMUNICATIONS DIRECTOR
Hsu, Irene                     Employee        55000 Per Annum  SPECIAL ASSISTANT TO THE DIRECTOR OF INTERGOVERNMENTAL AFFAIRS
Houshower, Samuel B.           Employee        50000 Per Annum  ASSISTANT COUNSEL
Holzer, Benjamin S.            Employee       100000 Per Annum  SPECIAL ASSISTANT TO THE PRESIDENT AND DIRECTOR OF RESEARCH
Hogan, Nancy D.                Employee       162900 Per Annum  ASSISTANT TO THE PRESIDENT AND DIRECTOR OF PRESIDENTIAL PERSONNEL
Hoang, Vy T.                   Employee        51630 Per Annum  RECORDS MANAGEMENT ANALYST
Highsmith, Brian D.            Employee        50000 Per Annum  POLICY ADVISOR
Kiley, Bradley J.              Employee       162900 Per Annum  ASSISTANT TO THE PRESIDENT FOR MANAGEMENT AND ADMINISTRATION
Lambrew, Jeanne M.             Employee       158500 Per Annum  DEPUTY ASSISTANT TO THE PRESIDENT FOR HEALTH POLICY
Kulma, Monika                  Employee        42000 Per Annum  STAFF ASSISTANT
Kukla, Alison C.               Employee        42000 Per Annum  SPECIAL ASSISTANT TO THE COUNSELOR TO THE SENIOR ADVISOR FOR STRATEGIC ENGAGEMENT
Kramer, Douglas J.             Employee       158500 Per Annum  DEPUTY ASSISTANT TO THE PRESIDENT AND STAFF SECRETARY
Kornell, Clarissa H.           Employee        42000 Per Annum  NATIONAL SECURITY STAFF ASSISTANT
Koo, Stacy J.                  Employee        75000 Per Annum  DEPUTY CHIEF OF STAFF FOR PRESIDENTIAL PERSONNEL
Kolachalam, Namrata            Employee        45000 Per Annum  DEPUTY ASSISTANT DIRECTOR OF BROADCAST MEDIA
Kohn, Lisa M.                  Employee        50000 Per Annum  POLICY ASSISTANT
Kline, Lacy R.                 Employee        50000 Per Annum  SPECIAL ASSISTANT
King, Taeshonnda C.            Employee        61952 Per Annum  RECORDS MANAGEMENT ANALYST
King, Colleen M.               Employee        45000 Per Annum  SPECIAL ASSISTANT TO THE CABINET SECRETARY
Kimball, Emilie A.             Employee        42565 Per Annum  SENIOR ANALYST
Freeman, Myra B.               Employee        73917 Per Annum  RECORDS MANAGEMENT ANALYST
Kiernan, Leslie B.             Employee       158500 Per Annum  DEPUTY ASSISTANT TO THE PRESIDENT AND DEPUTY COUNSEL TO THE PRESIDENT
Keohane, Nathaniel O.          Employee       130500 Per Annum  SPECIAL ASSISTANT TO THE PRESIDENT FOR ENERGY AND ENVIRONMENT
Kelly, Zachary M.              Employee        50000 Per Annum  SPECIAL ASSISTANT TO THE DEPUTY CHIEF OF STAFF
Kelly, Nijah C.                Employee        42000 Per Annum  INFORMATION SERVICES OPERATOR
Kelly, Lauren M.               Employee        55000 Per Annum  DEPUTY ASSOCIATE DIRECTOR
Kelly, Allison K.              Employee        50000 Per Annum  ASSISTANT DIRECTOR FOR VETTING
Kellermann, Sarah A.           Employee        42565 Per Annum  SENIOR ANALYST
Keeney, Andrew J.              Employee        42565 Per Annum  SENIOR ANALYST
Keenan, Cody S.                Employee       100000 Per Annum  SPECIAL ASSISTANT TO THE PRESIDENT AND DEPUTY DIRECTOR OF SPEECHWRITING
Kang, Eugene J.                Employee        60000 Per Annum  SPECIAL ASSISTANT TO THE PRESIDENT AND TRAVELING AIDE
Kang, Christopher D.           Employee       135000 Per Annum  SPECIAL ASSISTANT TO THE PRESIDENT AND SENIOR COUNSEL TO THE PRESIDENT
Kale, Katy A.                  Employee       153300 Per Annum  DEPUTY ASSISTANT TO THE PRESIDENT FOR MANAGEMENT AND ADMINISTRATION
Goepfert, Stephen M.           Employee        50000 Per Annum  ASSISTANT DIRECTOR
Greenblatt, Jonathan A.        Employee       120000 Per Annum  "SPECIAL ASSISTANT TO THE PRESIDENT AND DIRECTOR
Greenawalt, Andrei M.          Employee       100000 Per Annum  POLICY ADVISOR TO THE OFFICE OF THE CHIEF OF STAFF
Green, Jason G.                Employee       114000 Per Annum  SPECIAL ASSISTANT TO THE PRESIDENT AND ASSOCIATE COUNSEL TO THE PRESIDENT
Gray, Danielle C.              Employee       147500 Per Annum  "DEPUTY ASSISTANT TO THE PRESIDENT AND DEPUTY DIRECTOR
Grant, Kathryn A.              Employee        45000 Per Annum  LEGISLATIVE ASSISTANT AND ASSOCIATE DIRECTOR FOR LEGISLATIVE CORRESPONDENCE
Granholm, Timothy C.           Employee        45000 Per Annum  LEGISLATIVE ASSISTANT AND ASSISTANT TO THE SENATE LIAISON
Graham, Lottie B.              Employee        63673 Per Annum  INFORMATION SERVICES OPERATOR
Graham, Douglas E.             Employee        45000 Per Annum  RESEARCHER
Grady, Sean M.                 Employee        42565 Per Annum  SENIOR ANALYST
Gottschalk-Marconi, Emily C.   Employee        42000 Per Annum  STAFF ASSISTANT
Gottlieb, Michael J.           Employee       130500 Per Annum  SPECIAL ASSISTANT TO THE PRESIDENT AND ASSOCIATE COUNSEL TO THE PRESIDENT
Gottlieb, Graham D.            Employee        42000 Per Annum  BOARDS AND COMMISSIONS STAFF ASSISTANT
Gonzalez, Ximena               Employee        45000 Per Annum  EXECUTIVE ASSISTANT
Hendricks, Catherine L.        Employee        42000 Per Annum  ANALYST   
Gilson, Shannon I.             Employee       102000 Per Annum  SPECIAL ASSISTANT TO THE PRESIDENT AND CABINET COMMUNICATONS DIRECTOR
Gillette, Jodi A.              Employee       100000 Per Annum  SENIOR POLICY ADVISOR FOR NATIVE AMERICAN AFFAIRS
Gerst, Jennifer T.             Employee        55000 Per Annum  BOARDS AND COMMISSIONS DIRECTOR
Gershuny, Gregory E.           Employee        55000 Per Annum  ENERGY AND ENVIRONMENT DIRECTOR
Geraghty, Melissa K.           Employee        95000 Per Annum  EXECUTIVE ASSISTANT TO THE CHIEF OF STAFF
Gardaphe, Frederico C.         Employee        75000 Per Annum  DEPUTY DIRECTOR
Garber, Adam W.                Employee        62500 Per Annum  DEPUTY DIRECTOR OF DIGITAL CONTENT
Galbraith, Charles W.          Employee        70000 Per Annum  ASSOCIATE DIRECTOR OF INTERGOVERNMENTAL AFFAIRS
Furman, Jason L.               Employee       147500 Per Annum  ASSISTANT TO THE PRESIDENT AND PRINCIPAL DEPUTY DIRECTOR OF THE NATIONAL ECONOMIC COUNCIL
Frye, Jocelyn C.               Employee       140000 Per Annum  DEPUTY ASSISTANT TO THE PRESIDENT AND DIRECTOR OF POLICY AND PROJECTS FOR THE FIRST LADY
Froman, Michael B.             Employee       172200 Per Annum  ASSISTANT TO THE PRESIDENT AND DEPUTY NATIONAL SECURITY ADVISOR FOR INTERNATIONAL ECONOMICS
Freshwater, Margaret E.        Employee        50000 Per Annum  DIRECTOR OF CORRESPONDENCE FOR THE FIRST LADY
Fowler, Elizabeth J.           Employee       130500 Per Annum  SPECIAL ASSISTANT TO THE PRESIDENT FOR HEALTHCARE AND ECONOMIC POLICY
Greene, Norman A.              Employee        70000 Per Annum  DIRECTOR FOR FINANCE
Haines, Avril D.               Employee       158500 Per Annum  DEPUTY ASSISTANT TO THE PRESIDENT AND DEPUTY COUNSEL TO THE PRESIDENT
Gwynn, II, Artemus R.          Employee        42000 Per Annum  INFORMATION SERVICES OPERATOR
Hall, Christa A.               Employee        47500 Per Annum  ASSOCIATE DIRECTOR AND TRIP MANAGER
Hankins, Hannah R.             Employee        42000 Per Annum  MEDIA MONITOR
Gustavson, Matthew J.          Employee        43616 Per Annum  INFORMATION SERVICES OPERATOR
Hanson, Jr., Terry P.          Employee        55000 Per Annum  DOMESTIC DIRECTOR
Harris, Jacqueline B.          Employee        42000 Per Annum  ANALYST   
Gupta, Anuj K.                 Employee        70000 Per Annum  ASSOCIATE STAFF SECRETARY
Hartnett, Kathleen R.          Employee       130500 Per Annum  SPECIAL ASSISTANT TO THE PRESIDENT AND ASSOCIATE COUNSEL TO THE PRESIDENT
Hartz, Timothy S.              Employee        55000 Per Annum  SPECIAL ASSISTANT AND ADVANCE LEAD
Groth, Travis R.               Employee        48000 Per Annum  ASSOCIATE DIRECTOR
Gronniger, Jerome T.           Employee       100000 Per Annum  SENIOR POLICY ADVISOR
Grimes, Stephen H.             Employee        50000 Per Annum  ASSISTANT DIRECTOR
Harwood, Maria-Zena A.         Employee        42000 Per Annum  RECORDS MANAGEMENT ANALYST
Griffith, Kyla F.              Employee        45000 Per Annum  LEGAL ASSISTANT
Haynes, Quintin L.             Employee        47500 Per Annum  ASSOCIATE DIRECTOR FOR FINANCE
Helmrick-Blossom, Kellyn       Employee        70000 Per Annum  ASSOCIATE DIRECTOR OF INTERGOVERNMENTAL AFFAIRS
Hernandez, Philip M.           Employee        50000 Per Annum  SENIOR POLICY ANALYST
Lee, Noelle C.                 Detailee        92001 Per Annum  ASSOCIATE DIRECTOR FOR POLICY AND EVENTS
Finberg, Max B.                Detailee       132009 Per Annum  SENIOR POLICY ADVISOR
Anello, Russell M.             Detailee        92001 Per Annum  ASSISTANT COUNSEL
Cooper, II, Charles B.         Detailee       115800 Per Annum  "EXECUTIVE DIRECTOR
Olmos, Daniel B.               Detailee       140259 Per Annum  SENIOR POLICY ADVISOR
Yuen, Jessica                  Detailee        89033 Per Annum  POLICY ADVISOR
Zaidi, Ali A.                  Detailee        68712 Per Annum  POLICY ADVISOR
Langan, Andrew B.              Detailee        74872 Per Annum  SENIOR POLICY ADVISOR
Toomajian, Philip M.           Detailee       127883 Per Annum  ASSISTANT COUNSEL
Johnson, Carole A.             Detailee       155500 Per Annum  SENIOR POLICY ADVISOR
Johnson, Ashlee N.             Detailee        74958 Per Annum  POLICY ASSISTANT
Parrott, James M.              Detailee       144385 Per Annum  "SENIOR ADVISOR FOR HOUSING
McKalip, Douglas J.            Detailee       165300 Per Annum  SENIOR POLICY ADVISOR
Matusiak, Ari A.               Detailee       108717 Per Annum  ASSOCIATE DIRECTOR OF PUBLIC ENGAGEMENT 
Jin, Kelly X.                  Detailee        89033 Per Annum  POLICY ASSISTANT
Vetter, Ruth M.S.              Detailee       136134 Per Annum  ETHICS ADVISOR
Mason, Christine D.            Detailee       132009 Per Annum  CLEARANCE ADVISOR
Williams, Roy J.               Detailee       157500 Per Annum  DEPUTY DIRECTOR OF INTERGOVERNMENTAL AFFAIRS
Duswalt, Marissa N.            Detailee        51630 Per Annum  ASSOCIATE DIRECTOR FOR POLICY AND EVENTS LET'S MOVE! INITIATIVE 
Wallace, Shana M.              Detailee       136134 Per Annum  DEPUTY ASSOCIATE COUNSEL FOR PRESIDENTIAL PERSONNEL
Gottry, Heather C.             Detailee       140259 Per Annum  ASSOCIATE COUNSEL FOR ETHICS
Bernstein, Jarrod N.           Detailee       138000 Per Annum  ASSOCIATE DIRECTOR OF PUBLIC ENGAGEMENT
Kelly, Mara V.                 Detailee       127883 Per Annum  SENIOR POLICY ADVISOR
Lopata, Aaron M.               Detailee       112224 Per Annum  SENIOR POLICY ADVISOR
Jacobi, William P.             Detailee       140259 Per Annum  ETHICS ADVISOR
Williams, Nikki E.             Detailee        88350 Per Annum  TECHNOLOGY PROJECT MANAGER
