Name                           Status         Salary Pay Basis  Position Title
====================================================================================================================================
Wheeler, Seth F.               Detailee       225000 Per Annum  SENIOR POLICY ADVISOR
Palmieri, Jennifer M.          Employee       172200 Per Annum  ASSISTANT TO THE PRESIDENT AND DIRECTOR OF COMMUNICATIONS
Kale, Katy A.                  Employee       172200 Per Annum  ASSISTANT TO THE PRESIDENT FOR MANAGEMENT AND ADMINISTRATION
Keenan, Cody S.                Employee       172200 Per Annum  ASSISTANT TO THE PRESIDENT AND DIRECTOR OF SPEECHWRITING
Ruemmler, Kathryn H.           Employee       172200 Per Annum  ASSISTANT TO THE PRESIDENT AND COUNSEL TO THE PRESIDENT
Rouse, Peter M.                Employee       172200 Per Annum  COUNSELOR TO THE PRESIDENT
Rodriguez, Miguel E.           Employee       172200 Per Annum  "ASSISTANT TO THE PRESIDENT AND DIRECTOR
Blinken, Antony J.             Employee       172200 Per Annum  ASSISTANT TO THE PRESIDENT AND DEPUTY NATIONAL SECURITY ADVISOR
Pfeiffer, Howard D.            Employee       172200 Per Annum  ASSISTANT TO THE PRESIDENT AND SENIOR ADVISOR
Childress, Mark B.             Employee       172200 Per Annum  ASSISTANT TO THE PRESIDENT AND DEPUTY CHIEF OF STAFF FOR PLANNING
Donilon, Thomas E.             Employee       172200 Per Annum  ASSISTANT TO THE PRESIDENT AND NATIONAL SECURITY ADVISOR
Carney, James F.               Employee       172200 Per Annum  ASSISTANT TO THE PRESIDENT AND PRESS SECRETARY
Nabors, II, Robert L.          Employee       172200 Per Annum  ASSISTANT TO THE PRESIDENT AND DEPUTY CHIEF OF STAFF FOR POLICY
Muñoz, Cecilia                Employee       172200 Per Annum  ASSISTANT TO THE PRESIDENT AND DIRECTOR OF THE DOMESTIC POLICY COUNCIL
Mastromonaco, Alyssa M.        Employee       172200 Per Annum  ASSISTANT TO THE PRESIDENT AND DEPUTY CHIEF OF STAFF FOR OPERATIONS
Monaco, Lisa O.                Employee       172200 Per Annum  ASSISTANT TO THE PRESIDENT FOR HOMELAND SECURITY AND COUNTERTERRORISM AND DEPUTY NATIONAL SECURITY ADVISOR
McDonough, Denis R.            Employee       172200 Per Annum  ASSISTANT TO THE PRESIDENT AND CHIEF OF STAFF
Jarrett, Valerie B.            Employee       172200 Per Annum  SENIOR ADVISOR AND ASSISTANT TO THE PRESIDENT FOR INTERGOVERNMENTAL AFFAIRS AND PUBLIC ENGAGEMENT
Tchen, Christina M.            Employee       172200 Per Annum  ASSISTANT TO THE PRESIDENT AND CHIEF OF STAFF TO THE FIRST LADY
Gray, Danielle C.              Employee       172200 Per Annum  ASSISTANT TO THE PRESIDENT AND CABINET SECRETARY
Crutchfield, Danielle M.       Employee       172200 Per Annum  ASSISTANT TO THE PRESIDENT AND DIRECTOR OF SCHEDULING AND ADVANCE
Sperling, Eugene B.            Employee       172200 Per Annum  ASSISTANT TO THE PRESIDENT FOR ECONOMIC POLICY AND DIRECTOR OF THE NATIONAL ECONOMIC COUNCIL
Simas, David M.                Employee       172200 Per Annum  ASSISTANT TO THE PRESIDENT AND DEPUTY SENIOR ADVISOR FOR COMMUNICATIONS AND STRATEGY
Hogan, Nancy D.                Employee       162900 Per Annum  ASSISTANT TO THE PRESIDENT AND DIRECTOR OF PRESIDENTIAL PERSONNEL
Montoya, Elisa D.              Detailee       162400 Per Annum  NATIONAL SECURITY DIRECTOR FOR PRESIDENTIAL PERSONNEL
Siskel, Edward N.              Employee       158500 Per Annum  DEPUTY ASSISTANT TO THE PRESIDENT AND DEPUTY COUNSEL TO THE PRESIDENT
Kiernan, Leslie B.             Employee       158500 Per Annum  DEPUTY ASSISTANT TO THE PRESIDENT AND DEPUTY COUNSEL TO THE PRESIDENT
Beliveau, Emmett S.            Employee       158500 Per Annum  DEPUTY ASSISTANT TO THE PRESIDENT AND DIRECTOR OF THE WHITE HOUSE MILITARY OFFICE
Haines, Avril D.               Employee       158500 Per Annum  DEPUTY ASSISTANT TO THE PRESIDENT AND DEPUTY COUNSEL TO THE PRESIDENT
Samuels, Jonathan D.           Employee       158500 Per Annum  DEPUTY ASSISTANT TO THE PRESIDENT FOR LEGISLATIVE AFFAIRS AND HOUSE LIAISON
Croley, Steven P.              Employee       158500 Per Annum  DEPUTY ASSISTANT TO THE PRESIDENT AND DEPUTY COUNSEL TO THE PRESIDENT
Lambrew, Jeanne M.             Employee       158500 Per Annum  DEPUTY ASSISTANT TO THE PRESIDENT FOR HEALTH POLICY
Kramer, Douglas J.             Employee       158500 Per Annum  DEPUTY ASSISTANT TO THE PRESIDENT AND STAFF SECRETARY
Kvaal, James R.                Employee       158500 Per Annum  DEPUTY ASSISTANT TO THE PRESIDENT AND DEPUTY DIRECTOR OF THE DOMESTIC POLICY COUNCIL
Pagano, Jules E.               Employee       158500 Per Annum  DEPUTY ASSISTANT TO THE PRESIDENT FOR LEGISLATIVE AFFAIRS AND SENATE LIAISON
Calderon, Tovah R.             Detailee       155500 Per Annum  SENIOR POLICY ADVISOR
Aniskoff, Paulette L.          Employee       153500 Per Annum  DEPUTY ASSISTANT TO THE PRESIDENT AND DIRECTOR OF THE OFFICE OF PUBLIC ENGAGEMENT
Agnew, David P.                Employee       153500 Per Annum  DEPUTY ASSISTANT TO THE PRESIDENT AND DIRECTOR OF INTERGOVERNMENTAL AFFAIRS
Berrigan, Elizabeth D.         Detailee       152635 Per Annum  ETHICS COUNSEL
Rhodes, Benjamin J.            Employee       150000 Per Annum  "DEPUTY ASSISTANT TO THE PRESIDENT
Riesen, Peter A.               Detailee       148510 Per Annum  ETHICS COUNSEL
Furman, Jason L.               Employee       147500 Per Annum  ASSISTANT TO THE PRESIDENT AND PRINCIPAL DEPUTY DIRECTOR OF THE NATIONAL ECONOMIC COUNCIL
Clark, Melanca D.              Detailee       140259 Per Annum  SENIOR POLICY ADVISOR
Droege, Philip C.              Employee       140259 Per Annum  DIRECTOR OF RECORDS MANAGEMENT
Kalbaugh, David E.             Employee       140259 Per Annum  EXECUTIVE CLERK
Fallon, Katherine B.           Employee       140000 Per Annum  DEPUTY ASSISTANT TO THE PRESIDENT AND DEPUTY DIRECTOR OF COMMUNICATIONS
Zichal, Heather R.             Employee       140000 Per Annum  DEPUTY ASSISTANT TO THE PRESIDENT FOR ENERGY AND CLIMATE CHANGE
Ferrell, Taylor N.             Detailee       136134 Per Annum  DEPUTY ASSOCIATE COUNSEL FOR PRESIDENTIAL PERSONNEL
Dawe, Christopher J.           Detailee       136134 Per Annum  POLICY ADVISOR FOR HEALTH CARE
Kang, Christopher D.           Employee       135000 Per Annum  SPECIAL ASSISTANT TO THE PRESIDENT AND SENIOR COUNSEL TO THE PRESIDENT
Earnest, Joshua R.             Employee       135000 Per Annum  "SPECIAL ASSISTANT TO THE PRESIDENT
Maltby, Jeremy                 Employee       135000 Per Annum  SPECIAL ASSISTANT TO THE PRESIDENT AND SENIOR COUNSEL TO THE PRESIDENT
Baker, Lamar W.                Detailee       134999 Per Annum  ASSOCIATE COUNSEL
Mehrbani, Rodin A.             Detailee       132009 Per Annum  DOMESTIC DIRECTOR FOR PRESIDENTIAL PERSONNEL
Fazili, Sameera                Detailee       132009 Per Annum  SENIOR POLICY ADVISOR
Marquez, Laura R.              Detailee       132009 Per Annum  OUTREACH AND RECRUITMENT DIRECTOR FOR PRESIDENTIAL PERSONNEL
Winter, Melissa E.             Employee       132000 Per Annum  DEPUTY ASSISTANT TO THE PRESIDENT AND SENIOR ADVISOR TO THE FIRST LADY
Levine, Sarah L.               Employee       130500 Per Annum  SPECIAL ASSISTANT TO THE PRESIDENT AND ASSOCIATE COUNSEL TO THE PRESIDENT
Su, Chun-Wei J.                Employee       130500 Per Annum  SPECIAL ASSISTANT TO THE PRESIDENT AND SPECIAL COUNSEL TO THE PRESIDENT
Pérez, Alejandro              Employee       130500 Per Annum  SPECIAL ASSISTANT TO THE PRESIDENT FOR LEGISLATIVE AFFAIRS
Pyle, Michael J.               Employee       130500 Per Annum  SPECIAL ASSISTANT TO THE PRESIDENT FOR ECONOMIC POLICY
Elhassani, Layth S.            Employee       130500 Per Annum  SPECIAL ASSISTANT TO THE PRESIDENT FOR LEGISLATIVE AFFAIRS
Wall, Anne E.                  Employee       130500 Per Annum  SPECIAL ASSISTANT TO THE PRESIDENT FOR LEGISLATIVE AFFAIRS
Vogel, Matthew A.              Employee       130500 Per Annum  SPECIAL ASSISTANT TO THE PRESIDENT FOR ECONOMIC POLICY
Stout, Jennifer P.             Employee       130500 Per Annum  SPECIAL ASSISTANT TO THE PRESIDENT FOR LEGISLATIVE AFFAIRS
Atkinson, Caroline M.          Employee       130500 Per Annum  SPECIAL ASSISTANT TO THE PRESIDENT FOR INTERNATIONAL ECONOMIC AFFAIRS
Minsk, Ronald E.               Employee       130500 Per Annum  SPECIAL ASSISTANT TO THE PRESIDENT FOR ENERGY AND ENVIRONMENT
Jimenez, Luis A.               Employee       130500 Per Annum  SPECIAL ASSISTANT TO THE PRESIDENT FOR LEGISLATIVE AFFAIRS
Cohen, Ilona R.                Employee       130500 Per Annum  SPECIAL ASSISTANT TO THE PRESIDENT AND ASSOCIATE COUNSEL TO THE PRESIDENT
McBride, Jonathan D.           Employee       130000 Per Annum  DEPUTY ASSISTANT TO THE PRESIDENT AND DEPUTY DIRECTOR OF PRESIDENTIAL PERSONNEL
Wright, Jessica N.             Employee       130000 Per Annum  DEPUTY ASSISTANT TO THE PRESIDENT AND DIRECTOR OF SCHEDULING
Selfridge, Peter A.            Employee       130000 Per Annum  DEPUTY ASSISTANT TO THE PRESIDENT AND DIRECTOR OF ADVANCE AND OPERATIONS
Nicholson, Jr., Marvin D.      Employee       130000 Per Annum  "SPECIAL ASSISTANT TO THE PRESIDENT
Kass, Samuel D.                Employee       125000 Per Annum  EXECUTIVE DIRECTOR OF LET'S MOVE! AND SENIOR POLICY ADVISOR FOR NUTRITION POLICY
Samuelson, Heather F.          Detailee       123758 Per Annum  ASSISTANT COUNSEL  
Leonard, Shelley D.            Detailee       123758 Per Annum  CLEARANCE COUNSEL
Abraham, Yohannes A.           Employee       120000 Per Annum  SPECIAL ASSISTANT TO THE PRESIDENT AND CHIEF OF STAFF FOR THE OFFICE OF PUBLIC ENGAGEMENT AND INTERGOVERNMENTAL AFFAIRS
Valencia, Stephanie M.         Employee       120000 Per Annum  SPECIAL ASSISTANT TO THE PRESIDENT AND PRINCIPAL DEPUTY DIRECTOR OF PUBLIC ENGAGEMENT
Greenblatt, Jonathan A.        Employee       120000 Per Annum  "SPECIAL ASSISTANT TO THE PRESIDENT AND DIRECTOR
Russell, Racquel S.            Employee       120000 Per Annum  DEPUTY ASSISTANT TO THE PRESIDENT FOR URBAN AFFAIRS AND ECONOMIC MOBILITY
Rodriguez, Roberto J.          Employee       120000 Per Annum  SPECIAL ASSISTANT TO THE PRESIDENT FOR EDUCATION POLICY
Robertson, Michael J.          Employee       120000 Per Annum  DEPUTY ASSISTANT TO THE PRESIDENT AND DEPUTY CABINET SECRETARY
Quillian, Natalie H.           Employee       120000 Per Annum  SPECIAL ASSISTANT TO THE PRESIDENT AND ADVISOR TO THE CHIEF OF STAFF
Nelson, Gregory S.             Employee       120000 Per Annum  CHIEF OF STAFF OF THE NATIONAL ECONOMIC COUNCIL
Monje, Jr., Carlos A.          Employee       120000 Per Annum  SPECIAL ASSISTANT TO THE PRESIDENT AND CHIEF OF STAFF OF THE DOMESTIC POLICY COUNCIL
Miller, Jason S.               Employee       120000 Per Annum  SPECIAL ASSISTANT TO THE PRESIDENT FOR MANUFACTURING POLICY
McLaughlin, Margaret T.        Employee       120000 Per Annum  SPECIAL ASSISTANT TO THE PRESIDENT AND CHIEF OF STAFF FOR PRESIDENTIAL PERSONNEL
Canegallo, Kristie A.          Employee       120000 Per Annum  SPECIAL ASSISTANT TO THE PRESIDENT AND ADVISOR TO THE CHIEF OF STAFF
Breckenridge, Anita J.         Employee       120000 Per Annum  SPECIAL ASSISTANT TO THE PRESIDENT AND PERSONAL AIDE TO THE PRESIDENT
Thurston, Robin F.             Detailee       119238 Per Annum  DEPUTY ASSOCIATE COUNSEL FOR PRESIDENTIAL PERSONNEL
Sharma, Avin P.                Detailee       119238 Per Annum  ECONOMICS DIRECTOR FOR PRESIDENTIAL PERSONNEL
Bernard, Jeremy M.             Employee       118000 Per Annum  SPECIAL ASSISTANT TO THE PRESIDENT AND WHITE HOUSE SOCIAL SECRETARY
McQuaid, Nicholas L.           Detailee       117637 Per Annum  DEPUTY ASSOCIATE COUNSEL
Morales, Ricardo O.            Detailee       116535 Per Annum  "EXECUTIVE DIRECTOR
Isaac, Nicole M.               Employee       115000 Per Annum  SPECIAL ASSISTANT TO THE PRESIDENT FOR LEGISLATIVE AFFAIRS
Phillips, III, Robert M.       Employee       115000 Per Annum  SPECIAL ASSISTANT TO THE PRESIDENT AND DIRECTOR OF DIGITAL STRATEGY
Maher, Jessica A.              Employee       115000 Per Annum  SPECIAL ASSISTANT TO THE PRESIDENT FOR LEGISLATIVE AFFAIRS
Matusiak, Ari A.               Employee       115000 Per Annum  SPECIAL ASSISTANT TO THE PRESIDENT AND DIRECTOR OF PRIVATE SECTOR ENGAGEMENT
Platt, Katherine A.            Employee       115000 Per Annum  SPECIAL ASSISTANT TO THE PRESIDENT FOR MANAGEMENT AND ADMINISTRATION
Fonzone, Christopher C.        Employee       114000 Per Annum  SPECIAL ASSISTANT TO THE PRESIDENT AND ASSOCIATE COUNSEL TO THE PRESIDENT
Schake, Kristina K.            Employee       114000 Per Annum  SPECIAL ASSISTANT TO THE PRESIDENT AND DIRECTOR OF COMMUNICATIONS FOR THE FIRST LADY
Florence, Justin G.            Employee       114000 Per Annum  SPECIAL ASSISTANT TO THE PRESIDENT AND ASSOCIATE COUNSEL TO THE PRESIDENT
Dominguez, Daniel J.           Employee       114000 Per Annum  SPECIAL ASSISTANT TO THE PRESIDENT AND ASSOCIATE COUNSEL TO THE PRESIDENT
Sandler, David J.              Employee       114000 Per Annum  SPECIAL ASSISTANT TO THE PRESIDENT AND ASSOCIATE COUNSEL TO THE PRESIDENT
Herwig, Paige L.               Employee       114000 Per Annum  SPECIAL ASSISTANT TO THE PRESIDENT AND ASSOCIATE COUNSEL TO THE PRESIDENT
Gottlieb, Michael D.           Employee       114000 Per Annum  SPECIAL ASSISTANT TO THE PRESIDENT AND ASSOCIATE COUNSEL TO THE PRESIDENT
Raizk, Paul S.                 Employee       113605 Per Annum  DEPUTY DIRECTOR OF RECORDS MANAGEMENT
Chaurand, Teresa R.            Employee       113000 Per Annum  SPECIAL ASSISTANT TO THE PRESIDENT FOR PRESIDENTIAL PERSONNEL
Vasagam, Kamala M.             Employee       113000 Per Annum  SPECIAL ASSISTANT TO THE PRESIDENT FOR PRESIDENTIAL PERSONNEL
Noble, David L.                Employee       113000 Per Annum  SPECIAL ASSISTANT TO THE PRESIDENT FOR PRESIDENTIAL PERSONNEL
Moose, Amanda D.               Employee       113000 Per Annum  SPECIAL ASSISTANT TO THE PRESIDENT FOR PRESIDENTIAL PERSONNEL
McMahon, Collin T.             Employee       113000 Per Annum  SPECIAL ASSISTANT TO THE PRESIDENT FOR PRESIDENTIAL PERSONNEL
Stone, Wandra E.               Employee       112774 Per Annum  SUPERVISOR OF SEARCH AND FILE
Heinzelman, Kate E.            Employee       112000 Per Annum  ASSOCIATE COUNSEL
MacFarquhar, Rory A.           Employee       110500 Per Annum  DIRECTOR  
Smith, Jamie E.                Employee       110500 Per Annum  SPECIAL ASSISTANT TO THE PRESIDENT AND DEPUTY PRESS SECRETARY
Phadke, Shilpa D.              Employee       110000 Per Annum  SPECIAL ASSISTANT TO THE PRESIDENT AND SENIOR DIRECTOR OF CABINET AFFAIRS
Reeves, Fiona O.               Employee       110000 Per Annum  SPECIAL ASSISTANT TO THE PRESIDENT AND DIRECTOR OF PRESIDENTIAL CORRESPONDENCE
Morales, Esther F.             Detailee       108717 Per Annum  ASSOCIATE DIRECTOR FOR POLICY
Parker, JaLynda L.             Detailee       108717 Per Annum  DEPUTY ASSOCIATE COUNSEL FOR PRESIDENTIAL PERSONNEL
McCathran, William W.          Employee       106839 Per Annum  ASSISTANT EXECUTIVE CLERK
Lee, Marisa R.                 Detailee       105211 Per Annum  SENIOR POLICY ADVISOR
Leibenluft, Jacob D.           Employee       105000 Per Annum  SPECIAL ASSISTANT TO THE PRESIDENT FOR ECONOMIC POLICY
Roach, Cynthia L.              Employee       103872 Per Annum  SUPERVISOR OF CLASSIFICATION
Campbell, Frances L.           Employee       103872 Per Annum  "SUPERVISOR
Mokros, Andrea K.              Employee       103000 Per Annum  SPECIAL ASSISTANT TO THE PRESIDENT AND DIRECTOR OF STRATEGIC PLANNING
Schultz, Eric H.               Employee       103000 Per Annum  SPECIAL ASSISTANT TO THE PRESIDENT AND DEPUTY PRESS SECRETARY
Brundage, Amy J.               Employee       103000 Per Annum  SPECIAL ASSISTANT TO THE PRESIDENT AND DEPUTY PRESS SECRETARY
Pollack, Joshua D.             Employee       102000 Per Annum  SPECIAL ASSISTANT TO THE PRESIDENT FOR LEGISLATIVE AFFAIRS
Arguelles, Adam J.             Employee       102000 Per Annum  SPECIAL ASSISTANT TO THE PRESIDENT FOR LEGISLATIVE AFFAIRS
Anderson, Amanda D.            Employee       102000 Per Annum  SPECIAL ASSISTANT TO THE PRESIDENT FOR LEGISLATIVE AFFAIRS
Brush, Michael P.              Employee       102000 Per Annum  SPECIAL ASSISTANT TO THE PRESIDENT AND DEPUTY DIRECTOR OF ADVANCE
Gilson, Shannon I.             Employee       102000 Per Annum  SPECIAL ASSISTANT TO THE PRESIDENT AND CABINET COMMUNICATONS DIRECTOR
Fernandez, Micaela J.          Employee       102000 Per Annum  SPECIAL ASSISTANT TO THE PRESIDENT AND DIRECTOR OF EVENTS AND PROTOCOL
Thomas, III, Edwin R.          Employee       100904 Per Annum  ASSISTANT EXECUTIVE CLERK
Gunja, Mushtaq Z.              Detailee       100206 Per Annum  DEPUTY ASSOCIATE COUNSEL
Fay, Jennifer M.               Employee       100000 Per Annum  DIRECTOR OF WHITE HOUSE PERSONNEL AND ADVISOR FOR MANAGEMENT AND ADMINISTRATION
Colfax, Grant N.               Employee       100000 Per Annum  DIRECTOR OF THE OFFICE OF NATIONAL AIDS POLICY
O'Connor, Kyle P.              Employee       100000 Per Annum  SPECIAL ASSISTANT TO THE PRESIDENT AND DEPUTY DIRECTOR OF SPEECHWRITING
Rogers, Melissa                Employee       100000 Per Annum  SPECIAL ASSISTANT TO THE PRESIDENT AND EXECUTIVE DIRECTOR OF THE WHITE HOUSE OFFICE OF FAITH-BASED AND NEIGHBORHOOD PARTNERSHIPS
Hurwitz, Sarah K.              Employee       100000 Per Annum  "SPECIAL ASSISTANT TO THE PRESIDENT
Gronniger, Jerome T.           Employee       100000 Per Annum  SENIOR POLICY ADVISOR
Wu, Portia Y.                  Employee       100000 Per Annum  SPECIAL ASSISTANT TO THE PRESIDENT FOR LABOR AND WORKFORCE POLICY
Schafer, Ellie S.              Employee       100000 Per Annum  SPECIAL ASSISTANT TO THE PRESIDENT AND DIRECTOR OF VISITORS OFFICE
Gillette, Jodi A.              Employee       100000 Per Annum  SENIOR POLICY ADVISOR FOR NATIVE AMERICAN AFFAIRS
McGuinness, Tara D.            Employee       100000 Per Annum  SENIOR COMMUNICATIONS ADVISOR
O'Neil, Michael P.             Employee       100000 Per Annum  "SPECIAL ASSISTANT TO THE PRESIDENT AND DIRECTOR OF SPECIAL PROJECTS
Vega, Dagoberto                Employee       100000 Per Annum  SPECIAL ASSISTANT TO THE PRESIDENT AND DIRECTOR OF BROADCAST MEDIA
Holzer, Benjamin S.            Employee       100000 Per Annum  SPECIAL ASSISTANT TO THE PRESIDENT AND DIRECTOR OF RESEARCH
Utech, Dan G.                  Employee       100000 Per Annum  DEPUTY DIRECTOR FOR ENERGY AND CLIMATE CHANGE
Robinson, Tonya T.             Employee       100000 Per Annum  SPECIAL ASSISTANT TO THE PRESIDENT FOR JUSTICE AND REGULATORY POLICY
Leinwand, Jessica B.           Employee        99000 Per Annum  DEPUTY ASSOCIATE COUNSEL
Sahgal, Rishi R.               Employee        99000 Per Annum  DEPUTY ASSOCIATE COUNSEL
Friedman, Joshua N.            Employee        99000 Per Annum  DEPUTY ASSOCIATE COUNSEL
Brooke, Mary J.                Employee        97936 Per Annum  SUPERVISOR OF CORRESPONDENCE REVIEW
Tucker, Phyllis J.             Employee        97936 Per Annum  SUPERVISOR OF COMPUTER ADMINISTRATION
Blair, Patricia A.             Employee        96725 Per Annum  CHIEF CALLIGRAPHER
Paige, Lauren R.               Employee        95000 Per Annum  SPECIAL ASSISTANT TO THE PRESIDENT AND DIRECTOR OF MESSAGE PLANNING
Mosteller, Brian D.            Employee        95000 Per Annum  DIRECTOR OF OVAL OFFICE OPERATIONS
Ogden, Peter R.                Employee        95000 Per Annum  SENIOR POLICY DIRECTOR
Cobbina, Kwesi A.              Employee        95000 Per Annum  SPECIAL ASSISTANT TO THE PRESIDENT AND POLICY ADVISOR TO THE OFFICE OF THE CHIEF OF STAFF
Taggart, Jr., Hugh T.          Employee        94837 Per Annum  ASSISTANT SUPERVISOR OF SEARCH AND FILE
Muffler, Richard T.            Employee        94372 Per Annum  CALLIGRAPHER
Escobar, Felicia A.            Employee        93000 Per Annum  SENIOR POLICY DIRECTOR FOR IMMIGRATION
Talwalker, Ajita R.            Employee        93000 Per Annum  SENIOR POLICY ADVISOR FOR EDUCATION
Albino, James                  Employee        93000 Per Annum  SENIOR PROGRAM MANAGER
Roddick, Gertrude A.           Employee        92341 Per Annum  PRESIDENTIAL SUPPORT SPECIALIST
Johnson, Guy A.                Detailee        92001 Per Annum  SENIOR POLICY ADVISOR
Brandt, Kate E.                Detailee        92001 Per Annum  ENERGY/ENVIRONMENT DIRECTOR FOR PRESIDENTIAL PERSONNEL
James, Jewel A.                Employee        92000 Per Annum  SPECIAL ASSISTANT TO THE PRESIDENT FOR INTERGOVERNMENTAL AFFAIRS
Simon, Jennifer J.             Employee        90000 Per Annum  DIRECTOR OF INTERNATIONAL AFFAIRS AND SENIOR POLICY ADVISOR
Belford, Brandon M.            Employee        90000 Per Annum  SENIOR POLICY ADVISOR
Chiodo, Theodore A.            Employee        90000 Per Annum  "CHIEF OF STAFF
Smith, Jason J.                Employee        90000 Per Annum  "DEPUTY DIRECTOR
Aguilar, Rita C.               Employee        90000 Per Annum  SENIOR CONFIRMATIONS ADVISOR
Stephens, Jeffrey M.           Employee        90000 Per Annum  SENIOR CONFIRMATIONS ADVISOR
Jones, Crystal B.              Employee        89846 Per Annum  "ASSISTANT SUPERVISOR
Suvor, Daniel R.               Detailee        89033 Per Annum  SENIOR DIRECTOR OF CABINET AFFAIRS
Showers, Wendy W.              Employee        87350 Per Annum  PRESIDENTIAL SUPPORT SPECIALIST
Racusen, Rachel J.             Employee        87000 Per Annum  ASSOCIATE COMMUNICATIONS DIRECTOR
Brown, Debra S.                Employee        85953 Per Annum  CALLIGRAPHER
Paulsen, Joseph B.             Employee        85000 Per Annum  SPECIAL ASSISTANT TO THE PRESIDENT AND SENIOR ADVISOR TO THE DEPUTY CHIEF OF STAFF
Turk, Andrea E.                Employee        85000 Per Annum  DIRECTOR OF WHITE HOUSE SERVICES
Trueblood, Kimberly P.         Employee        85000 Per Annum  DIRECTOR OF OPERATIONS
Schmuck, Robert E.             Employee        85000 Per Annum  SPECIAL ASSISTANT TO THE PRESIDENT AND SENIOR ADVISOR TO THE DEPUTY CHIEF OF STAFF
Tate, Lucas L.                 Employee        85000 Per Annum  SENIOR POLICY ADVISOR
Parker, Doris D.               Employee        84855 Per Annum  ASSISTANT SUPERVISOR OF CLASSIFICATION
Lehrich, Matthew A.            Employee        84250 Per Annum  ASSISTANT PRESS SECRETARY
Nelson, Elizabeth W.           Employee        83000 Per Annum  PRINCIPAL DEPUTY DIRECTOR OF SCHEDULING AND SCHEDULING MANAGER
Burke, Jordan M.               Employee        82500 Per Annum  SPECIAL ASSISTANT TO THE PRESIDENT AND ASSISTANT COMMUNICATIONS DIRECTOR
Elliott, Brandace N.           Detailee        80223 Per Annum  ANALYST   
Gurman, Jesse A.               Employee        80000 Per Annum  DEPUTY ASSOCIATE COUNSEL FOR PRESIDENTIAL PERSONNEL
Presser, Jeremy S.             Employee        80000 Per Annum  DEPUTY ASSOCIATE COUNSEL FOR PRESIDENTIAL PERSONNEL
Zaidi, Ali A.                  Employee        80000 Per Annum  SENIOR DIRECTOR OF CABINET AFFAIRS
Moran, Tyler T.                Employee        80000 Per Annum  DEPUTY POLICY DIRECTOR FOR IMMIGRATION
Wilson, Taj N.                 Employee        80000 Per Annum  DEPUTY ASSOCIATE COUNSEL FOR PRESIDENTIAL PERSONNEL
Maska, Johanna M.              Employee        80000 Per Annum  DEPUTY DIRECTOR OF ADVANCE AND DIRECTOR OF PRESS ADVANCE
Then, Corey M.                 Employee        80000 Per Annum  DEPUTY ASSOCIATE COUNSEL FOR PRESIDENTIAL PERSONNEL
Lubin, Nathaniel J.            Employee        80000 Per Annum  DEPUTY DIRECTOR OF DIGITAL STRATEGY
Inouye, Shinichi               Employee        78000 Per Annum  DIRECTOR OF SPECIALTY MEDIA
Carroll, Bradley W.            Employee        78000 Per Annum  COMMUNICATIONS DIRECTOR OF THE DOMESTIC POLICY COUNCIL AND OFFICE OF NATIONAL AIDS POLICY
Lewis, Kevin S.                Employee        78000 Per Annum  DIRECTOR OF AFRICAN-AMERICAN MEDIA
Vargas, Katherine A.           Employee        78000 Per Annum  DIRECTOR OF HISPANIC MEDIA
Barrett, Alexis S.             Employee        78000 Per Annum  SENIOR POLICY ADVISOR
Neiman, Wanda M.               Employee        77040 Per Annum  ASSISTANT TO THE EXECUTIVE CLERK
Williams, Sherman A.           Employee        77040 Per Annum  ASSISTANT TO THE EXECUTIVE CLERK
Adler, Caroline E.             Employee        75000 Per Annum  DEPUTY COMMUNICATIONS DIRECTOR
Tate-Gilmore, Ashley R.        Employee        75000 Per Annum  DIRECTOR OF TRAVEL OFFICE
Gardaphe, Frederico C.         Employee        75000 Per Annum  DEPUTY DIRECTOR
Rooney, Megan E.               Employee        75000 Per Annum  SENIOR PRESIDENTIAL SPEECHWRITER
Koo, Stacy J.                  Employee        75000 Per Annum  DEPUTY CHIEF OF STAFF FOR PRESIDENTIAL PERSONNEL
Wang, Ya Wei                   Employee        75000 Per Annum  SPECIAL ASSISTANT TO THE CHIEF OF STAFF
DeGuzman, Jr., Danilo          Employee        74958 Per Annum  PRESIDENTIAL SUPPORT SPECIALIST
Pearlman, Amanda J.            Detailee        74872 Per Annum  "ASSOCIATE DIRECTOR FOR POLICY
Freeman, Myra B.               Employee        73917 Per Annum  RECORDS MANAGEMENT ANALYST
Starr, Kodiak H.               Employee        72500 Per Annum  NEW MEDIA CREATIVE DIRECTOR
Schulman, Kori S.              Employee        72500 Per Annum  DIRECTOR OF ONLINE ENGAGEMENT
Lee, Jesse C.                  Employee        72500 Per Annum  DIRECTOR OF PROGRESSIVE MEDIA AND ONLINE RESPONSE
Binns, Mary U.                 Employee        72022 Per Annum  SPECIAL ASSISTANT
Sobel, Charlie J.              Employee        72000 Per Annum  DIRECTOR OF TECHNOLOGY
Trainor, Gregory T.            Employee        70126 Per Annum  SPECIAL ASSISTANT
Gupta, Anuj K.                 Employee        70000 Per Annum  ASSOCIATE STAFF SECRETARY
Raman, Aneesh V.               Employee        70000 Per Annum  PRESIDENTIAL SPEECHWRITER
Galbraith, Charles W.          Employee        70000 Per Annum  ASSOCIATE DIRECTOR OF INTERGOVERNMENTAL AFFAIRS
August, Hannah M.              Employee        70000 Per Annum  PRESS SECRETARY TO THE FIRST LADY
Branch, Katherine Y.           Employee        70000 Per Annum  DIRECTOR OF SPECIAL PROJECTS AND SPECIAL ASSISTANT TO THE SENIOR ADVISOR
Maley, Keith R.                Employee        70000 Per Annum  REGIONAL COMMUNICATIONS DIRECTOR
Schumer, Jessica E.            Employee        70000 Per Annum  SENIOR POLICY ADVISOR AND DEPUTY CHIEF OF STAFF OF THE NATIONAL ECONOMIC COUNCIL
Rosholm, Joanna S.             Employee        70000 Per Annum  REGIONAL COMMUNICATIONS DIRECTOR
Platkin, Alexandra R.          Employee        70000 Per Annum  DEPUTY DIRECTOR
Blossom, Kellyn H.             Employee        70000 Per Annum  ASSOCIATE DIRECTOR OF INTERGOVERNMENTAL AFFAIRS
Lechtenberg, Tyler A.          Employee        70000 Per Annum  PRESIDENTIAL SPEECHWRITER
Montz, Ellen J.                Employee        70000 Per Annum  POLICY ADVISOR
Doumet, Mark A.                Employee        68500 Per Annum  CHIEF OF STAFF TO THE WHITE HOUSE COUNSEL
Johnson, Linda M.              Employee        68230 Per Annum  INFORMATION SERVICES OPERATOR
Lorjuste, Gregory              Employee        68000 Per Annum  DEPUTY DIRECTOR OF SCHEDULING
Cushman, Chase M.              Employee        68000 Per Annum  DEPUTY DIRECTOR OF SCHEDULING
Compton, Matthew V.            Employee        67500 Per Annum  DEPUTY DIRECTOR OF DIGITAL CONTENT
Samuels, Jr., Wendell A.       Employee        66335 Per Annum  RECORDS SYSTEMS ANALYST
Jackson, Theresa R.            Employee        66335 Per Annum  INFORMATION SERVICES OPERATOR
Corrigan, Tara C.              Employee        65000 Per Annum  ASSOCIATE DIRECTOR OF INTERGOVERNMENTAL AFFAIRS
Schneir, Hallie R.             Employee        65000 Per Annum  ASSOCIATE DIRECTOR OF PUBLIC ENGAGEMENT
Richardson, Karen E.           Employee        65000 Per Annum  PUBLIC ENGAGEMENT ADVISOR
Raghavan, Gautam               Employee        65000 Per Annum  PUBLIC ENGAGEMENT ADVISOR
Cho, Ronnie S.                 Employee        65000 Per Annum  ASSOCIATE DIRECTOR OF PUBLIC ENGAGEMENT
Dyer, Deesha A.                Employee        65000 Per Annum  DEPUTY DIRECTOR AND DEPUTY SOCIAL SECRETARY
Siegel, Avra C.                Employee        65000 Per Annum  DEPUTY EXECUTIVE DIRECTOR FOR THE COUNCIL ON WOMEN AND GIRLS
Foster, Heather J.             Employee        65000 Per Annum  PUBLIC ENGAGEMENT ADVISOR
Monteiro, Darron P.            Employee        65000 Per Annum  PUBLIC ENGAGEMENT ADVISOR
Jarvis, Kristen E.             Employee        65000 Per Annum  DEPUTY DIRECTOR OF ADVANCE AND TRAVELING AIDE FOR THE FIRST LADY
Litt, David M.                 Employee        65000 Per Annum  PRESIDENTIAL SPEECHWRITER
Jenkins, Bradley L.            Employee        65000 Per Annum  ASSOCIATE DIRECTOR
Ford, Harrison A.              Employee        65000 Per Annum  ASSISTANT DIRECTOR FOR INFORMATION TECHNOLOGY
Peele, Christian B.            Employee        65000 Per Annum  DEPUTY DIRECTOR FOR OPERATIONS  
Rodriguez, Julie C.            Employee        65000 Per Annum  PUBLIC ENGAGEMENT ADVISOR
Lezotte, Darin R.              Employee        64439 Per Annum  RECORDS MANAGEMENT ANALYST
Donovan, Michael W.            Employee        64000 Per Annum  SENIOR SCHEDULER
Welsch, Peter A.               Employee        62500 Per Annum  DEPUTY DIRECTOR OF ONLINE PLATFORM
Lindsay, Erin E.               Employee        62500 Per Annum  DEPUTY DIRECTOR OF ONLINE ENGAGEMENT
Garber, Adam W.                Employee        62500 Per Annum  DEPUTY DIRECTOR OF DIGITAL CONTENT
Slack, Megan                   Employee        62500 Per Annum  DEPUTY DIRECTOR OF DIGITAL CONTENT
Teater, Louis D.               Employee        62000 Per Annum  SENIOR ADVANCE LEAD
Mattson, Philip C.             Employee        61952 Per Annum  SPECIAL ASSISTANT
Young, Jr., Reginald D.        Employee        61952 Per Annum  RECORDS MANAGEMENT ANALYST
Millison, Chad L.              Employee        61952 Per Annum  RECORDS MANAGEMENT ANALYST
Young, Latoya A.               Employee        61952 Per Annum  RECORDS MANAGEMENT ANALYST
King, Taeshonnda C.            Employee        61952 Per Annum  RECORDS MANAGEMENT ANALYST
Lartey, Solomon D.             Employee        60232 Per Annum  RECORDS MANAGEMENT ANALYST
Claude, Lilia H.               Employee        60232 Per Annum  INFORMATION SERVICES OPERATOR
Sass, Joan C.                  Employee        60232 Per Annum  INFORMATION SERVICES OPERATOR
Varghese, Maju S.              Employee        60000 Per Annum  SENIOR ADVANCE LEAD
Langner, Emily R.              Employee        60000 Per Annum  ASSISTANT STAFF SECRETARY
Dumas, Clay A.                 Employee        60000 Per Annum  SPECIAL ASSISTANT TO THE SENIOR ADVISOR AND THE DEPUTY CHIEF OF STAFF
Lee, Stephanie A.              Employee        60000 Per Annum  DEPUTY DIRECTOR OF SCHEDULING
Fenn, Sarah B.                 Employee        60000 Per Annum  ASSISTANT COUNSEL OF ETHICS
Owens, Maurice M.              Employee        60000 Per Annum  SPECIAL ASSISTANT TO THE CHIEF OF STAFF
Blakemore, Jessica M.          Employee        60000 Per Annum  SPECIAL ASSISTANT TO THE COUNSELOR TO THE PRESIDENT
Noyes, Diana L.                Employee        60000 Per Annum  DIRECTOR OF RESEARCH
Ting, Wayne H.                 Employee        60000 Per Annum  POLICY ADVISOR
Liddell-Westefeld, Christopher S.  Employee        60000 Per Annum  ASSISTANT STAFF SECRETARY
Houshower, Samuel B.           Employee        60000 Per Annum  ASSISTANT COUNSEL OF ETHICS
Pappas, Louis S.               Employee        60000 Per Annum  SENIOR LEGAL ASSISTANT
Hegde, Shilpa S.               Employee        60000 Per Annum  ASSISTANT STAFF SECRETARY
Wong, Evelyn H.                Employee        60000 Per Annum  SPEECHWRITER
Shevlin, Paige L.              Employee        60000 Per Annum  POLICY ADVISOR
Hartz, Timothy S.              Employee        60000 Per Annum  SENIOR ADVANCE LEAD
McCarthy, Brayden T.           Employee        60000 Per Annum  SENIOR POLICY ADVISOR
Selak, Dawn M.                 Employee        57500 Per Annum  EXECUTIVE ASSISTANT
Ledbetter, Howli J.            Employee        57500 Per Annum  SPECIAL ASSISTANT TO THE PRESS SECRETARY
DeGuzman, Brian K.             Employee        56791 Per Annum  DIRECTOR OF INFORMATION SERVICES
Wang-Levine, Adam Y.           Employee        55080 Per Annum  POLICY ADVISOR
Pate, Brian E.                 Employee        55070 Per Annum  ASSISTANT TO THE EXECUTIVE CLERK
Bartoloni, Kristen A.          Employee        55000 Per Annum  ASSOCIATE RESEARCH DIRECTOR
Miterko, Kelly C.              Employee        55000 Per Annum  DEPUTY ASSOCIATE DIRECTOR OF LET'S MOVE!
Epstein, Michael S.            Employee        55000 Per Annum  SPECIAL ASSISTANT AND ADVANCE LEAD
Gershuny, Gregory E.           Employee        55000 Per Annum  ENERGY AND ENVIRONMENT DIRECTOR
Gerst, Jennifer T.             Employee        55000 Per Annum  BOARDS AND COMMISSIONS DIRECTOR
Asen, Jonathan D.              Employee        55000 Per Annum  SPECIAL ASSISTANT TO THE DEPUTY CHIEF OF STAFF
Gonzalez, Ximena               Employee        55000 Per Annum  DEPUTY ASSOCIATE DIRECTOR
Groth, Travis R.               Employee        55000 Per Annum  DIRECTOR OF OPERATIONS
Tiller, Jeffrey D.             Employee        55000 Per Annum  SENIOR PRESS LEAD
Coleman, Pamela D.             Employee        55000 Per Annum  OUTREACH AND RECRUITMENT DIRECTOR
Hsu, Irene                     Employee        55000 Per Annum  SPECIAL ASSISTANT TO THE DIRECTOR OF INTERGOVERNMENTAL AFFAIRS
Cohen, Nora E.                 Employee        55000 Per Annum  SPECIAL ASSISTANT AND ADVANCE LEAD
Jones, Kristin T.              Employee        55000 Per Annum  PERSONAL AIDE TO THE FIRST LADY AND EAST WING OPERATIONS COORDINATOR
Wertheimer, Clay S.            Employee        55000 Per Annum  DEPUTY ASSOCIATE DIRECTOR
Pojman, Natalie R.             Employee        55000 Per Annum  DEPUTY PRESS SECRETARY AND EXECUTIVE SECRETARY
Ramsey, Ryan P.                Employee        55000 Per Annum  OUTREACH AND RECRUITMENT DIRECTOR (CONGRESSIONAL)
Rangel, Antoinette N.          Employee        55000 Per Annum  DEPUTY DIRECTOR OF HISPANIC MEDIA
Reinarman, Blair C.            Employee        55000 Per Annum  ECONOMICS DIRECTOR
Bernton, Jeremy W.             Employee        55000 Per Annum  OUTREACH AND RECRUITMENT DIRECTOR (COMMUNITY ORGANIZATIONS)
Lesko, Max S.                  Employee        55000 Per Annum  DOMESTIC DIRECTOR FOR PRESIDENTIAL PERSONNEL
Casey, Kinsey E.               Employee        55000 Per Annum  NATIONAL SECURITY DIRECTOR FOR PRESIDENTIAL PERSONNEL
Kelly, Lauren M.               Employee        55000 Per Annum  DEPUTY ASSOCIATE DIRECTOR
Hoang, Vy T.                   Employee        53350 Per Annum  RECORDS MANAGEMENT ANALYST
Edmonds, Anita J.              Employee        53350 Per Annum  RECORDS MANAGEMENT ANALYST
Flores, Andrea R.              Detailee        51630 Per Annum  POLICY ASSISTANT
Blount, Patricia H.            Employee        51630 Per Annum  RECORDS MANAGEMENT ANALYST
Ayling, Lindsay A.             Employee        50000 Per Annum  SENIOR WRITER
Temaat, Stephanie M.           Employee        50000 Per Annum  PRESS LEAD
Swartz, Samuel M.              Employee        50000 Per Annum  SPECIAL ASSISTANT TO THE CABINET SECRETARY
Schaub, Matthew J.             Employee        50000 Per Annum  ASSISTANT DIRECTOR
Wall, Mary C.                  Employee        50000 Per Annum  POLICY ASSISTANT
McCombs, Claire E.             Employee        50000 Per Annum  EXECUTIVE ASSISTANT
Gillum, Bria L.                Employee        50000 Per Annum  POLICY ASSISTANT
Goepfert, Stephen M.           Employee        50000 Per Annum  ASSISTANT DIRECTOR
Main, Galen E.                 Employee        50000 Per Annum  ASSISTANT DIRECTOR
Grimes, Stephen H.             Employee        50000 Per Annum  ASSISTANT DIRECTOR
Mahoney, Caitria L.            Employee        50000 Per Annum  SPECIAL ASSISTANT TO THE DEPUTY SENIOR ADVISOR FOR COMMUNICATIONS AND STRATEGY
Lillie, Jordan N.              Employee        50000 Per Annum  SENIOR WRITER
Lessne, Allison B.             Employee        50000 Per Annum  SPECIAL ASSISTANT TO THE DIRECTOR OF THE NATIONAL ECONOMIC COUNCIL
Perkins, Nathaniel M.          Employee        50000 Per Annum  SPECIAL ASSISTANT TO THE DIRECTOR
Hayes, Lindsay B.              Employee        50000 Per Annum  DEPUTY DIRECTOR AND HOTEL PROGRAM DIRECTOR
Highsmith, Brian D.            Employee        50000 Per Annum  POLICY ADVISOR
Kline, Lacy R.                 Employee        50000 Per Annum  SPECIAL ASSISTANT
Whithorne, Robert D.           Employee        50000 Per Annum  WRITER    
Washington, Andrea J.          Employee        50000 Per Annum  ASSISTANT DIRECTOR
Kelly, Zachary M.              Employee        50000 Per Annum  SPECIAL ASSISTANT TO THE DEPUTY CHIEF OF STAFF
Kelly, Allison K.              Employee        50000 Per Annum  ASSISTANT DIRECTOR FOR VETTING
Cohen, David Z.                Employee        50000 Per Annum  ASSISTANT DIRECTOR FOR CABINET AFFAIRS OPERATIONS
Davis-Van Atta, Casey R.       Employee        50000 Per Annum  SENIOR WRITER
Mulhall, Erin C.               Employee        50000 Per Annum  PRESS LEAD
Brown, Tramaine D.             Employee        50000 Per Annum  SCHEDULING ASSISTANT AND TRIP COORDINATOR 
Dean, Laura A.                 Employee        50000 Per Annum  ASSISTANT SPEECHWRITER
Merrick, Kelsey R.             Employee        50000 Per Annum  POLICY ADVISOR
Dorsainvil, Monique            Employee        50000 Per Annum  DEPUTY DIRECTOR OF ADVANCE AND SPECIAL EVENTS FOR THE OFFICE OF PUBLIC ENGAGEMENT AND INTERGOVERNMENTAL AFFAIRS
Freshwater, Margaret E.        Employee        50000 Per Annum  DIRECTOR OF CORRESPONDENCE FOR THE FIRST LADY
Brooks, Jordan A.              Employee        50000 Per Annum  SPECIAL ASSISTANT TO THE CHIEF OF STAFF TO THE FIRST LADY
Zarzuelo, Diane                Employee        50000 Per Annum  POLICY ASSISTANT FOR URBAN AFFAIRS AND ECONOMIC MOBILITY
Coscia, Caroline M.            Employee        50000 Per Annum  SPECIAL ASSISTANT AND PRESS LEAD
Jones, Takesha R.              Employee        48303 Per Annum  INFORMATION SERVICES OPERATOR
Luck, Deatrice N.              Employee        48303 Per Annum  INFORMATION SERVICES OPERATOR
Perry, Seamus T.               Employee        47500 Per Annum  ASSOCIATE DIRECTOR AND TRIP MANAGER
Wall, Alexander B.             Employee        47500 Per Annum  ASSOCIATE DIRECTOR OF DIGITAL CONTENT
Hall, Christa A.               Employee        47500 Per Annum  ASSOCIATE DIRECTOR AND TRIP MANAGER
Coccaro, Kasie M.              Employee        47500 Per Annum  ASSOCIATE DIRECTOR OF ONLINE OUTREACH AND OPERATIONS
Kulma, Monika                  Employee        47500 Per Annum  ASSOCIATE DIRECTOR FOR FINANCE
Baskerville, Mary E.           Employee        47000 Per Annum  ASSOCIATE DIRECTOR FOR TRAVEL PLANNING
Crabtree, Alexandra M.         Employee        47000 Per Annum  ASSOCIATE DIRECTOR OF WHITE HOUSE PERSONNEL
Randle, Cole A.                Employee        47000 Per Annum  ASSOCIATE DIRECTOR FOR TRAVEL PLANNING
Varghese, Elizabeth J.         Employee        46745 Per Annum  RECORDS MANAGEMENT ANALYST
Click, John S.                 Employee        45024 Per Annum  INFORMATION SERVICES OPERATOR
Gustavson, Matthew J.          Employee        45024 Per Annum  INFORMATION SERVICES OPERATOR
Rana, Yasmin S.                Employee        45024 Per Annum  INFORMATION SERVICES OPERATOR
Jackson, Bartlett W.           Employee        45000 Per Annum  VETTER    
Williamson, Justina R.         Employee        45000 Per Annum  COORDINATOR
Swanson, Gregory C.            Employee        45000 Per Annum  COORDINATOR
Fistonich, George M.           Employee        45000 Per Annum  POLICY ASSISTANT
Griffith, Kyla F.              Employee        45000 Per Annum  LEGAL ASSISTANT
Grant, Kathryn A.              Employee        45000 Per Annum  LEGISLATIVE ASSISTANT AND ASSOCIATE DIRECTOR FOR LEGISLATIVE CORRESPONDENCE
Sanchez, Roque T.              Employee        45000 Per Annum  POLICY ANALYST
Graham, Douglas E.             Employee        45000 Per Annum  RESEARCHER
Satkowiak, Karly M.            Employee        45000 Per Annum  ASSOCIATE DIRECTOR AND SCHEDULING RESEARCHER
Moscoso, Patricia G.           Employee        45000 Per Annum  LEGISLATIVE ASSISTANT
Buckhout, Scott E.             Employee        45000 Per Annum  POLICY ASSISTANT
Rakestraw, London C.           Employee        45000 Per Annum  LEGISLATIVE ASSISTANT AND ASSISTANT TO THE HOUSE LIAISON
McCullough, Duncan J.          Employee        45000 Per Annum  COORDINATOR
Broadie, Kristina T.           Employee        45000 Per Annum  TRAVEL PLANNER
Wagstaff, Jesica E.            Employee        45000 Per Annum  LEGISLATIVE ASSISTANT
Travis, Austin M.              Employee        45000 Per Annum  EXECUTIVE ASSISTANT TO THE DIRECTOR OF SCHEDULING AND ADVANCE
Robinson, Derrick J.           Employee        45000 Per Annum  VETTER    
Levy, Noemie C.                Employee        45000 Per Annum  POLICY ASSISTANT
Keeney, Andrew J.              Employee        45000 Per Annum  COORDINATOR
Kolachalam, Namrata            Employee        45000 Per Annum  DEPUTY ASSISTANT DIRECTOR OF BROADCAST MEDIA
Kellermann, Sarah A.           Employee        45000 Per Annum  COORDINATOR
Rosa, Luke B.                  Employee        45000 Per Annum  ADVANCE COORDINATOR
Beechem, Stephanie             Employee        45000 Per Annum  RESEARCHER
Bates, Andrew J.               Employee        45000 Per Annum  RESEARCHER
Myricks, Shannon L.            Employee        43616 Per Annum  INFORMATION SERVICES OPERATOR
Gwynn, II, Artemus R.          Employee        43616 Per Annum  INFORMATION SERVICES OPERATOR
Kelly, Nijah C.                Employee        43616 Per Annum  INFORMATION SERVICES OPERATOR
Harwood, Maria-Zena A.         Employee        43616 Per Annum  RECORDS MANAGEMENT ANALYST
Young, Valerie A.              Employee        43616 Per Annum  RECORDS MANAGEMENT ANALYST
Kimball, Emilie A.             Employee        42565 Per Annum  SENIOR ANALYST
Ahmed, Rumana A.               Employee        42565 Per Annum  EXECUTIVE ASSISTANT TO THE DIRECTOR OF PUBLIC ENGAGEMENT
Campos, David R.               Employee        42565 Per Annum  SENIOR ANALYST
Durheim, Joseph T.             Employee        42565 Per Annum  SENIOR ANALYST
Grady, Sean M.                 Employee        42565 Per Annum  SENIOR ANALYST
Spooner, Sarah C.              Employee        42565 Per Annum  SENIOR ANALYST
Owens, Rodrick T.              Employee        42565 Per Annum  SENIOR ANALYST
Hull, Carolyn A.               Employee        42565 Per Annum  SENIOR ANALYST
Payne, John H.                 Employee        42565 Per Annum  SENIOR ANALYST
Harris, Jacqueline B.          Employee        42565 Per Annum  SENIOR ANALYST
Aberger, Marie E.              Employee        42000 Per Annum  PRESS ASSISTANT
Wylie, Allison G.              Employee        42000 Per Annum  STAFF ASSISTANT
Amo, Jr., Gabriel F.           Employee        42000 Per Annum  STAFF ASSISTANT
Velz, Peter T.                 Employee        42000 Per Annum  PRESS ASSISTANT
Alcantara, Elias               Employee        42000 Per Annum  STAFF ASSISTANT
Vrazilek, Lauren S.            Employee        42000 Per Annum  DEPUTY ASSOCIATE DIRECTOR OF CORRESPONDENCE FOR THE FIRST LADY
Wright, Frank B.               Employee        42000 Per Annum  STAFF ASSISTANT
Woodbury, Victoria M.          Employee        42000 Per Annum  OUTREACH AND RECRUITMENT STAFF ASSISTANT
Wong, Frederick L.             Employee        42000 Per Annum  DOMESTIC STAFF ASSISTANT
Hankins, Hannah R.             Employee        42000 Per Annum  PRESS ASSISTANT
Tedmon, Dirk A.                Employee        42000 Per Annum  ANALYST   
Kissinger, Alexa M.            Employee        42000 Per Annum  OUTREACH AND RECRUITMENT STAFF ASSISTANT
Kimball, Chase E.              Employee        42000 Per Annum  ANALYST   
Katz-Hernandez, Leah B.        Employee        42000 Per Annum  RESEARCH ASSOCIATE
Jones, Isabel C.               Employee        42000 Per Annum  STAFF ASSISTANT
Cohen, Evan N.                 Employee        42000 Per Annum  ANALYST   
Hunt, Thomas F.                Employee        42000 Per Annum  STAFF ASSISTANT
Hunn, Allison D.               Employee        42000 Per Annum  EXECUTIVE ASSISTANT
Hendricks, Catherine L.        Employee        42000 Per Annum  ANALYST   
Hassan, Zaid B.                Employee        42000 Per Annum  STAFF ASSISTANT
Harvey, Kendra E.              Employee        42000 Per Annum  ENERGY AND ENVIRONMENT STAFF ASSISTANT 
Krueger, Benjamin S.           Employee        42000 Per Annum  ANALYST   
Greer, Kaitlin J.              Employee        42000 Per Annum  RECORDS MANAGEMENT ANALYST
Greenberg, Justin S.           Employee        42000 Per Annum  BOARDS AND COMMISSIONS STAFF ASSISTANT
Fitzgerald, Quinn S.           Employee        42000 Per Annum  STAFF ASSISTANT
Feuerstein, Sara A.            Employee        42000 Per Annum  WEST WING RECEPTIONIST
Covey, Francesca-Maria L.      Employee        42000 Per Annum  PUBLIC ENGAGEMENT LIAISON
Cunnane, Patrick J.            Employee        42000 Per Annum  PRESS ASSISTANT
Duncan, Julia L.               Employee        42000 Per Annum  EXECUTIVE ASSISTANT TO THE DIRECTOR OF THE PRESIDENTIAL PERSONNEL OFFICE
Duceman, Katherine I.          Employee        42000 Per Annum  STAFF ASSISTANT
Dietz, David R.                Employee        42000 Per Annum  SPECIAL ASSISTANT TO THE CHIEF OF STAFF FOR THE OFFICE OF PUBLIC ENGAGEMENT AND INTERGOVERNMENTAL AFFAIRS
Dennis, Stacie I.              Employee        42000 Per Annum  ANALYST   
McNamara Lawder, Claudia       Employee        42000 Per Annum  ASSISTANT FOR ARRANGEMENTS
Robertson, Dominique E.        Employee        42000 Per Annum  STAFF ASSISTANT
Roberts, Brian D.              Employee        42000 Per Annum  ANALYST   
Phillips, Niara E.             Employee        42000 Per Annum  OUTREACH AND RECRUITMENT STAFF ASSISTANT
Bollinger, Chelsea M.          Employee        42000 Per Annum  STAFF ASSISTANT
Pan, Elizabeth H.              Employee        42000 Per Annum  STAFF ASSISTANT
Norris, Amanda J.              Employee        42000 Per Annum  STAFF ASSISTANT
Burger, Jillian M.             Employee        42000 Per Annum  ANALYST   
Schuelke, Gregory L.           Employee        42000 Per Annum  ANALYST   
Barnes, Desiree N.             Employee        42000 Per Annum  PRESS ASSISTANT
McNaught, John D.              Employee        42000 Per Annum  ECONOMICS STAFF ASSISTANT
McHaney, Cynthia Y.            Employee        42000 Per Annum  INFORMATION SERVICES OPERATOR
McAllister, Matthew J.         Employee        42000 Per Annum  OPERATIONS STAFF ASSISTANT
Martin, Darren D.              Employee        42000 Per Annum  ANALYST   
Avila, Steven A.               Employee        42000 Per Annum  ANALYST   
Cardenas, Anne R.              Employee        42000 Per Annum  ANALYST   
Larrimore, Zachary T.          Employee        42000 Per Annum  ANALYST   
Carmen, Evan S.                Employee        42000 Per Annum  ANALYST   
Lierman, Kyle J.               Employee        42000 Per Annum  PUBLIC ENGAGEMENT LIAISON
Lee, Monica M.                 Employee        42000 Per Annum  PRESS ASSISTANT
Sullivan, Sarah E.             Employee        41000 Per Annum  SENIOR WRITER
Mechaber, Ezra L.              Employee        41000 Per Annum  ASSOCIATE DIRECTOR OF ONLINE ENGAGEMENT
McSwain, Jr., Michael S.       Employee        41000 Per Annum  ASSOCIATE DIRECTOR FOR SCHEDULING CORRESPONDENCE
Cohen, Elyse                   Employee            0 Per Annum  "DEPUTY DIRECTOR
Kelly, Elizabeth A.            Employee            0 Per Annum  POLICY ADVISOR
