Name                           Status         Salary Pay Basis  Position Title
====================================================================================================================================
Johnston, Jr., Robert O.       Detailee       113346 Per Annum  DEPUTY ASSOCIATE COUNSEL FOR PRESIDENTIAL PERSONNEL
Graham, Carlissia N.           Detailee        92922 Per Annum  SPECIAL ASSISTANT FOR PRESIDENTIAL PERSONNEL
Lagana, Susan P.               Detailee       157100 Per Annum  DEPUTY ASSOCIATE COUNSEL FOR PRESIDENTIAL PERSONNEL
Walsh, Jason M.                Detailee       146660 Per Annum  SENIOR POLICY ADVISOR
Secreto, James V.              Detailee       106263 Per Annum  DEPUTY ASSOCIATE COUNSEL
Waldo, Eric W.                 Detailee       141660 Per Annum  "EXECUTIVE DIRECTOR AND POLICY ADVISOR
Burgard, Kirsten M.            Detailee       107909 Per Annum  TECHNOLOGY MANAGER FOR PRESIDENTIAL PERSONNEL
Rowell, Theresa A.             Detailee       120429 Per Annum  ETHICS COUNSEL
Bumpus, Kirby L.               Detailee        80662 Per Annum  "ASSOCIATE DIRECTOR FOR POLICY
Grant, Richard E.              Detailee       137494 Per Annum  ETHICS COUNSEL
Bollinger, Anne M.             Detailee        92922 Per Annum  POLICY ASSISTANT
Theis, John K.                 Detailee       137494 Per Annum  DEPUTY ASSOCIATE COUNSEL
Sander, Kirk M.                Detailee        92922 Per Annum  DOMESTIC DIRECTOR FOR PRESIDENTIAL PERSONNEL
Turner, Shawn S.               Detailee       165353 Per Annum  DEPUTY PRESS SECRETARY  
Haq, Nayyera                   Detailee       141660 Per Annum  SENIOR DIRECTOR OF CABINET AFFAIRS
Brown, Crystal L.              Detailee       158118 Per Annum  SENIOR DIRECTOR OF CABINET AFFAIRS
Bringer, Norah E.              Detailee       124995 Per Annum  CLEARANCE COUNSEL
Parker, Steven L.              Detailee       121615 Per Annum  "EXECUTIVE DIRECTOR
Bailey, Kevin T.               Detailee        65194 Per Annum  POLICY ASSISTANT
Sutton, Yasaman S.             Detailee       116887 Per Annum  ETHICS COUNSEL
Shi, Hong H.                   Detailee       157100 Per Annum  DEPUTY ASSOCIATE COUNSEL FOR PRESIDENTIAL PERSONNEL
Lopez, Oliva A.                Detailee        92922 Per Annum  ASSOCIATE POLICY DIRECTOR
Gardner, Meagan R.             Detailee        92922 Per Annum  ASSOCIATE DIRECTOR OF PUBLIC ENGAGEMENT AND INTERGOVERNMENTAL AFFAIRS
Moskowitz, Laura M.            Detailee       129161 Per Annum  SENIOR POLICY ADVISOR
Langley, Koby J.               Detailee       141400 Per Annum  ASSOCIATE DIRECTOR OF PUBLIC ENGAGEMENT
Owens, Rodrick T.              Employee        42990 Per Annum  SENIOR ANALYST
Miterko, Kelly C.              Employee        55550 Per Annum  DEPUTY ASSOCIATE DIRECTOR OF LET'S MOVE!
Parker, Doris D.               Employee        85703 Per Annum  ASSISTANT SUPERVISOR OF CLASSIFICATION
Pan, Elizabeth H.              Employee        42420 Per Annum  STAFF ASSISTANT
Myricks, Shannon L.            Employee        45474 Per Annum  INFORMATION SERVICES OPERATOR
Palmieri, Jennifer M.          Employee       172200 Per Annum  ASSISTANT TO THE PRESIDENT AND DIRECTOR OF COMMUNICATIONS
Neiman, Wanda M.               Employee        77813 Per Annum  ASSISTANT TO THE EXECUTIVE CLERK
Nelson, Gregory S.             Employee       130500 Per Annum  SPECIAL ASSISTANT TO THE PRESIDENT AND SENIOR ADVISOR FOR THE NATIONAL ECONOMIC COUNCIL
Neri, Jorge A.                 Employee        65000 Per Annum  ASSOCIATE DIRECTOR OF PUBLIC ENGAGEMENT
Pagán Motta, Tomás A.        Employee        63000 Per Annum  STENOGRAPHER
Nicholson, Jr., Marvin D.      Employee       130000 Per Annum  "SPECIAL ASSISTANT TO THE PRESIDENT
Owens, Maurice M.              Employee        60600 Per Annum  SPECIAL ASSISTANT TO THE CHIEF OF STAFF
Noble, David L.                Employee       130000 Per Annum  DEPUTY ASSISTANT TO THE PRESIDENT FOR PRESIDENTIAL PERSONNEL
Norris, Amanda J.              Employee        52520 Per Annum  ASSOCIATE DIRECTOR FOR TECHNOLOGY
O'Neil, Michael P.             Employee       100000 Per Annum  SPECIAL ASSISTANT TO THE PRESIDENT AND ADVISOR FOR THE OFFICE OF POLITICAL STRATEGY AND OUTREACH
O'Connor, Jennifer M.          Employee       158500 Per Annum  DEPUTY ASSISTANT TO THE PRESIDENT AND DEPUTY COUNSEL TO THE PRESIDENT
Muñoz, Cecilia                Employee       172200 Per Annum  ASSISTANT TO THE PRESIDENT AND DIRECTOR OF THE DOMESTIC POLICY COUNCIL
Olinsky, Benjamin C.           Employee        93000 Per Annum  SENIOR POLICY ADVISOR FOR LABOR AND WORKFORCE
O'Connor, Kyle P.              Employee       100000 Per Annum  SPECIAL ASSISTANT TO THE PRESIDENT AND DEPUTY DIRECTOR OF SPEECHWRITING
Platt, Katherine A.            Employee       153000 Per Annum  DEPUTY ASSISTANT TO THE PRESIDENT FOR MANAGEMENT AND ADMINISTRATION
Rhodes, Benjamin J.            Employee       172200 Per Annum  ASSISTANT TO THE PRESIDENT AND DEPUTY NATIONAL SECURITY ADVISOR FOR STRATEGIC COMMUNICATIONS AND SPEECHWRITING
Reeves, Fiona O.               Employee       110000 Per Annum  SPECIAL ASSISTANT TO THE PRESIDENT AND DIRECTOR OF PRESIDENTIAL CORRESPONDENCE
Raynor, Jessica J.             Employee        58000 Per Annum  SENIOR POLICY ADVISOR
Rana, Yasmin S.                Employee        45474 Per Annum  INFORMATION SERVICES OPERATOR
Raizk, Paul S.                 Employee       114741 Per Annum  DEPUTY DIRECTOR OF RECORDS MANAGEMENT
Raghavan, Gautam               Employee        65650 Per Annum  PUBLIC ENGAGEMENT ADVISOR
Rafi, Hina A.                  Employee        42420 Per Annum  INFORMATION SERVICES OPERATOR
Racusen, Rachel J.             Employee        87870 Per Annum  ASSOCIATE COMMUNICATIONS DIRECTOR
Quillian, Natalie H.           Employee       120000 Per Annum  SPECIAL ASSISTANT TO THE PRESIDENT AND ADVISOR TO THE CHIEF OF STAFF
Price, Ryan L.                 Employee        45450 Per Annum  LEGISLATIVE ASSISTANT
Presser, Jeremy S.             Employee        80800 Per Annum  DEPUTY ASSOCIATE COUNSEL FOR PRESIDENTIAL PERSONNEL
Pollack, Joshua D.             Employee       125000 Per Annum  SPECIAL ASSISTANT TO THE PRESIDENT AND SENATE LEGISLATIVE AFFAIRS LIAISON
Podesta, John D.               Employee       172200 Per Annum  COUNSELOR TO THE PRESIDENT
Pate, Brian E.                 Employee        57360 Per Annum  ASSISTANT TO THE EXECUTIVE CLERK
Platkin, Alexandra R.          Employee        70700 Per Annum  DEPUTY DIRECTOR
Pieh, Lusani J.                Employee        80000 Per Annum  SENIOR DIRECTOR OF CABINET AFFAIRS
Phadke, Shilpa D.              Employee       110000 Per Annum  SPECIAL ASSISTANT TO THE PRESIDENT AND SENIOR DIRECTOR OF CABINET AFFAIRS
Pfeiffer, Howard D.            Employee       172200 Per Annum  ASSISTANT TO THE PRESIDENT AND SENIOR ADVISOR
Peterson, Ann R.               Employee        55550 Per Annum  OPERATIONS DIRECTOR FOR PRESIDENTIAL PERSONNEL
Perkins, Nathaniel M.          Employee        50500 Per Annum  SPECIAL ASSISTANT TO THE DIRECTOR
Perez, Maria G.                Employee        42420 Per Annum  NATIONAL SECURITY STAFF ASSISTANT FOR PRESIDENTIAL PERSONNEL
Pérez, Alejandro              Employee       130500 Per Annum  SPECIAL ASSISTANT TO THE PRESIDENT FOR LEGISLATIVE AFFAIRS
Peele, Christian B.            Employee        65650 Per Annum  DEPUTY DIRECTOR FOR OPERATIONS
Payne, John H.                 Employee        45450 Per Annum  COORDINATOR
Paulsen, Joseph  B.            Employee       105000 Per Annum  SPECIAL ASSISTANT TO THE PRESIDENT AND DEPUTY DIRECTOR OF THE OFFICE OF POLITICAL STRATEGY AND OUTREACH
Patel, Rohan S.                Employee        92000 Per Annum  SPECIAL ASSISTANT TO THE PRESIDENT AND DEPUTY DIRECTOR OF INTERGOVERNMENTAL AFFAIRS
MacFarquhar, Rory A.           Employee       130500 Per Annum  SPECIAL ASSISTANT TO THE PRESIDENT FOR INTERNATIONAL ECONOMICS
Mayber, Dana M.                Employee        42000 Per Annum  ECONOMICS STAFF ASSISTANT FOR PRESIDENTIAL PERSONNEL
Matusiak, Ari A.               Employee       115000 Per Annum  SPECIAL ASSISTANT TO THE PRESIDENT AND DIRECTOR OF PRIVATE SECTOR ENGAGEMENT
Mattson, Philip C.             Employee        64311 Per Annum  SPECIAL ASSISTANT
Maska, Johanna M.              Employee        80800 Per Annum  DEPUTY DIRECTOR OF ADVANCE AND DIRECTOR OF PRESS ADVANCE
Martin, Darren D.              Employee        45450 Per Annum  COORDINATOR
Marshall, Marlon D.            Employee       120000 Per Annum  SPECIAL ASSISTANT TO THE PRESIDENT AND PRINCIPAL DEPUTY DIRECTOR OF PUBLIC ENGAGEMENT
Marcus, Robert N.              Employee       115000 Per Annum  SPECIAL ASSISTANT TO THE PRESIDENT FOR LEGISLATIVE AFFAIRS
Mann, Dominique J.             Employee        42000 Per Annum  PRESS ASSISTANT
Maltby, Jeremy                 Employee       135000 Per Annum  SPECIAL ASSISTANT TO THE PRESIDENT AND SENIOR COUNSEL TO THE PRESIDENT
Maley, Keith R.                Employee        70700 Per Annum  REGIONAL COMMUNICATIONS DIRECTOR
Main, Galen E.                 Employee        77265 Per Annum  PRINCIPAL DEPUTY DIRECTOR
Mahoney, Caitria L.            Employee        50500 Per Annum  SPECIAL ASSISTANT TO THE DIRECTOR OF THE OFFICE OF POLITICAL STRATEGY AND OUTREACH
Maher, Jessica A.              Employee       125000 Per Annum  SPECIAL ASSISTANT TO THE PRESIDENT AND SENATE LEGISLATIVE AFFAIRS LIAISON
McBride, Jonathan D.           Employee       162900 Per Annum  ASSISTANT TO THE PRESIDENT AND DIRECTOR OF PRESIDENTIAL PERSONNEL
Lustig, Taylor J.              Employee        45000 Per Annum  POLICY ASSISTANT
Lubin, Nathaniel J.            Employee        80800 Per Annum  DEPUTY DIRECTOR OF DIGITAL STRATEGY
Lorjuste, Gregory              Employee       102000 Per Annum  SPECIAL ASSISTANT TO THE PRESIDENT AND PRINCIPAL DEPUTY DIRECTOR OF SCHEDULING
Lopez, David J.                Employee        50000 Per Annum  SPECIAL ASSISTANT TO THE DEPUTY CHIEF OF STAFF
Loewentheil, Nathaniel F.      Employee            0 Per Annum  POLICY ADVISOR
Loeb, Emily M.                 Employee        99000 Per Annum  DEPUTY ASSOCIATE COUNSEL
Litt, David M.                 Employee        65650 Per Annum  PRESIDENTIAL SPEECHWRITER
Lin, Austin Y.                 Employee        42000 Per Annum  OPERATIONS STAFF ASSISTANT FOR PRESIDENTIAL PERSONNEL
Lillie, Jordan N.              Employee        50500 Per Annum  ASSISTANT DIRECTOR
Lierman, Kyle J.               Employee        65000 Per Annum  ASSOCIATE DIRECTOR OF PUBLIC ENGAGEMENT
Liddell, Marquis J.            Employee        42420 Per Annum  STAFF ASSISTANT
L'Heureux, Miguel J.           Employee        55000 Per Annum  ECONOMICS DIRECTOR FOR PRESIDENTIAL PERSONNEL
Menon, Ajita T.                Employee        93930 Per Annum  SENIOR POLICY ADVISOR FOR EDUCATION
Moussavian, Roxana             Employee        50500 Per Annum  POLICY ADVISOR
Mosteller, Brian D.            Employee        95950 Per Annum  DIRECTOR OF OVAL OFFICE OPERATIONS
Moose, Amanda D.               Employee       113000 Per Annum  SPECIAL ASSISTANT TO THE PRESIDENT FOR PRESIDENTIAL PERSONNEL
Moore, Jesse D.                Employee        60600 Per Annum  SPEECHWRITER
Monaco, Lisa O.                Employee       172200 Per Annum  ASSISTANT TO THE PRESIDENT FOR HOMELAND SECURITY AND COUNTERTERRORISM AND DEPUTY NATIONAL SECURITY ADVISOR
Mokros, Andrea K.              Employee       103000 Per Annum  SPECIAL ASSISTANT TO THE PRESIDENT AND DIRECTOR OF STRATEGIC PLANNING FOR THE FIRST LADY
Rodolfa, Christopher T.        Employee        72500 Per Annum  DIRECTOR OF DIGITAL ANALYTICS
Minsk, Ronald E.               Employee       130500 Per Annum  SPECIAL ASSISTANT TO THE PRESIDENT FOR ENERGY AND ENVIRONMENT
Millison, Chad L.              Employee        64311 Per Annum  RECORDS MANAGEMENT ANALYST
Miller, Jason S.               Employee       130500 Per Annum  "SPECIAL ASSISTANT TO THE PRESIDENT AND DEPUTY DIRECTOR
Millben, Michelle J.           Employee        55000 Per Annum  OUTREACH AND RECRUITMENT DIRECTOR FOR PRESIDENTIAL PERSONNEL (CONGRESSIONAL)
Meyer, Kenneth A.              Employee        47500 Per Annum  ASSOCIATE DIRECTOR OF ONLINE ENGAGEMENT 
Merrick, Kelsey R.             Employee        58000 Per Annum  SENIOR POLICY ADVISOR
Mulhall, Erin C.               Employee        50500 Per Annum  PRESS LEAD
Mehrbani, Rodin A.             Employee       130500 Per Annum  SPECIAL ASSISTANT TO THE PRESIDENT AND ASSOCIATE COUNSEL TO THE PRESIDENT
Mechaber, Ezra L.              Employee        63125 Per Annum  DEPUTY DIRECTOR OF EMAIL AND PETITIONS
McSwain, Jr., Michael S.       Employee        55550 Per Annum  ASSOCIATE DIRECTOR OF SCHEDULING
McQuaid, Nicholas L.           Employee       114000 Per Annum  SPECIAL ASSISTANT TO THE PRESIDENT AND ASSOCIATE COUNSEL TO THE PRESIDENT
McNamara Lawder, Claudia       Employee        42420 Per Annum  ASSISTANT FOR ARRANGEMENTS
McMahon, Collin T.             Employee       113000 Per Annum  SPECIAL ASSISTANT TO THE PRESIDENT FOR PRESIDENTIAL PERSONNEL
McLaughlin, Margaret T.        Employee       130000 Per Annum  DEPUTY ASSISTANT TO THE PRESIDENT FOR PRESIDENTIAL PERSONNEL
McGuinness, Tara D.            Employee       100000 Per Annum  SENIOR COMMUNICATIONS ADVISOR
McDonough, Denis R.            Employee       172200 Per Annum  ASSISTANT TO THE PRESIDENT AND CHIEF OF STAFF
McCormick, Michael J.          Employee        75000 Per Annum  DEPUTY DIRECTOR OF STENOGRAPHY
McCombs, Claire E.             Employee        60600 Per Annum  SPECIAL ASSISTANT TO THE WHITE HOUSE COUNSEL
McCathran, William W.          Employee       107909 Per Annum  ASSISTANT EXECUTIVE CLERK
Temaat, Stephanie M.           Employee        55000 Per Annum  SENIOR PRESS LEAD
Vargas, Katherine A.           Employee        78780 Per Annum  DIRECTOR OF HISPANIC MEDIA
Vahlsing, Candace M.           Employee        57500 Per Annum  SENIOR POLICY ANALYST
Utech, Dan G.                  Employee       120000 Per Annum  SPECIAL ASSISTANT TO THE PRESIDENT FOR ENERGY AND CLIMATE CHANGE
Twigg, Carri B.                Employee        65650 Per Annum  ASSOCIATE DIRECTOR OF PUBLIC ENGAGEMENT
Turnbull, Nathaniel S.         Employee       113000 Per Annum  SPECIAL ASSISTANT TO THE PRESIDENT FOR PRESIDENTIAL PERSONNEL
Tucker, Phyllis J.             Employee        98916 Per Annum  SUPERVISOR OF COMPUTER ADMINISTRATION
Trueblood, Kimberly P.         Employee        85850 Per Annum  DIRECTOR OF OPERATIONS
Trainor, Gregory T.            Employee        70825 Per Annum  SPECIAL ASSISTANT
Tiller, Jeffrey D.             Employee        58075 Per Annum  SPECIAL ASSISTANT TO THE PRESS SECRETARY
Thomas, III, Edwin R.          Employee       101914 Per Annum  ASSISTANT EXECUTIVE CLERK
Thomas, Debbie A.              Employee        42000 Per Annum  ANALYST   
Thiele, Raina D.               Employee        65000 Per Annum  ASSOCIATE DIRECTOR OF INTERGOVERNMENTAL AFFAIRS
Then, Corey M.                 Employee        80800 Per Annum  DEPUTY ASSOCIATE COUNSEL FOR PRESIDENTIAL PERSONNEL
Varghese, Elizabeth J.         Employee        52146 Per Annum  RECORDS MANAGEMENT ANALYST
Tedmon, Dirk A.                Employee        50000 Per Annum  SENIOR WRITER
Teater, Louis D.               Employee        67000 Per Annum  SPECIAL ASSISTANT AND SENIOR ADVANCE LEAD
Tchen, Christina M.            Employee       172200 Per Annum  ASSISTANT TO THE PRESIDENT AND CHIEF OF STAFF TO THE FIRST LADY
Tate-Gilmore, Ashley R.        Employee        75750 Per Annum  DIRECTOR OF TRAVEL OFFICE
Tate, Lucas L.                 Employee        85850 Per Annum  SENIOR POLICY ADVISOR
Taggart, Jr., Hugh T.          Employee        95785 Per Annum  ASSISTANT SUPERVISOR OF SEARCH AND FILE
Swartz, Samuel M.              Employee        50500 Per Annum  SPECIAL ASSISTANT TO THE CABINET SECRETARY
Swanson, Gregory C.            Employee        45450 Per Annum  COORDINATOR
Suntum, Margaret M.            Employee       115000 Per Annum  DIRECTOR OF STENOGRAPHY
Sullivan, Sarah E.             Employee        50500 Per Annum  SENIOR WRITER
Strong, Stephen L.             Employee        42420 Per Annum  STAFF ASSISTANT
Strome, Grace W.               Employee        45000 Per Annum  COORDINATOR
Stone, Wandra E.               Employee       113904 Per Annum  SUPERVISOR OF SEARCH AND FILE
Wheeler, Seth F.               Employee       130500 Per Annum  SPECIAL ASSISTANT TO THE PRESIDENT FOR ECONOMIC POLICY
Zients, Jeffrey D.             Employee       172200 Per Annum  ASSISTANT TO THE PRESIDENT FOR ECONOMIC POLICY AND DIRECTOR OF THE NATIONAL ECONOMIC COUNCIL
Zaidi, Ali A.                  Employee       100000 Per Annum  DEPUTY DIRECTOR FOR ENERGY POLICY
Young, Valerie A.              Employee        47212 Per Annum  RECORDS MANAGEMENT ANALYST
Young, Jr., Reginald D.        Employee        64311 Per Annum  RECORDS MANAGEMENT ANALYST
Young, Christen L.             Employee        90000 Per Annum  SENIOR POLICY ADVISOR FOR HEALTH AND THE OFFICE OF NATIONAL AIDS POLICY
Young, Caitlin E.              Employee        63000 Per Annum  STENOGRAPHER
Wright, Frank B.               Employee        52000 Per Annum  ASSOCIATE DIRECTOR FOR FINANCE
Wong, Frederick L.             Employee        42420 Per Annum  DOMESTIC STAFF ASSISTANT
Winter, Melissa E.             Employee       132000 Per Annum  DEPUTY ASSISTANT TO THE PRESIDENT AND SENIOR ADVISOR TO THE FIRST LADY
Williams, Sherman A.           Employee        79916 Per Annum  ASSISTANT TO THE EXECUTIVE CLERK
Wild, Clayton S.               Employee        42000 Per Annum  ANALYST   
White, Danielle M.             Employee       172200 Per Annum  ASSISTANT TO THE PRESIDENT AND DIRECTOR OF SCHEDULING AND ADVANCE
Whisenant, Addie M.            Employee        78000 Per Annum  DIRECTOR OF AFRICAN-AMERICAN MEDIA
Stephens, Jeffrey M.           Employee        90900 Per Annum  SENIOR CONFIRMATIONS ADVISOR
Wertheimer, Clay S.            Employee        55550 Per Annum  DEPUTY ASSOCIATE DIRECTOR
Washington, Andrea J.          Employee        55550 Per Annum  DIRECTOR OF WRITERS AND PRODUCTION
Waples, Gregory M.             Employee        45000 Per Annum  COORDINATOR
Wang, Ya Wei                   Employee        75750 Per Annum  SPECIAL ASSISTANT TO THE CHIEF OF STAFF
Walsh, Joan L.                 Employee       158500 Per Annum  DEPUTY ASSISTANT TO THE PRESIDENT AND STAFF SECRETARY
Wall, Anne E.                  Employee       158500 Per Annum  DEPUTY ASSISTANT TO THE PRESIDENT FOR LEGISLATIVE AFFAIRS AND SENATE LIAISON
Wall, Alexander B.             Employee        62500 Per Annum  DEPUTY DIRECTOR OF ONLINE ENGAGEMENT
Wagstaff, Jesica E.            Employee        45450 Per Annum  LEGISLATIVE ASSISTANT
Vrazilek, Lauren S.            Employee        42420 Per Annum  DEPUTY ASSOCIATE DIRECTOR OF CORRESPONDENCE FOR THE FIRST LADY
Velz, Peter T.                 Employee        42420 Per Annum  PRESS ASSISTANT
Vega, Dagoberto                Employee       100000 Per Annum  SPECIAL ASSISTANT TO THE PRESIDENT AND DIRECTOR OF BROADCAST MEDIA
Varghese, Maju S.              Employee       102000 Per Annum  SPECIAL ASSISTANT TO THE PRESIDENT AND DEPUTY DIRECTOR OF ADVANCE
Rosenbaum, Amy D.              Employee       158500 Per Annum  DEPUTY ASSISTANT TO THE PRESIDENT FOR LEGISLATIVE AFFAIRS
Sandler, David J.              Employee       114000 Per Annum  SPECIAL ASSISTANT TO THE PRESIDENT AND ASSOCIATE COUNSEL TO THE PRESIDENT
Samuels, Jr., Wendell A.       Employee        66997 Per Annum  RECORDS SYSTEMS ANALYST
Samuels, Jonathan D.           Employee       158500 Per Annum  DEPUTY ASSISTANT TO THE PRESIDENT FOR LEGISLATIVE AFFAIRS AND HOUSE LIAISON
Sahgal, Rishi R.               Employee        99990 Per Annum  DEPUTY ASSOCIATE COUNSEL
Saenz, Adrian                  Employee        92920 Per Annum  SPECIAL ASSISTANT TO THE PRESIDENT AND DEPUTY DIRECTOR OF INTERGOVERNMENTAL AFFAIRS
Ruvin, Hallie M.               Employee        42000 Per Annum  ASSOCIATE REGIONAL COMMUNICATIONS DIRECTOR
Rubinstein, Stefanie N.        Employee        42000 Per Annum  STAFF ASSISTANT
Rowe, Zawadi J.                Employee        42420 Per Annum  RECORDS MANAGEMENT ANALYST
Rothman, Mika L.               Employee        42000 Per Annum  STAFF ASSISTANT
Rothblum, Michelle L.          Employee        45450 Per Annum  EXECUTIVE ASSISTANT TO THE DIRECTOR OF SCHEDULING AND ADVANCE
Roth, Dena M.                  Employee        42000 Per Annum  OUTREACH AND RECRUITMENT STAFF ASSISTANT FOR PRESIDENTIAL PERSONNEL
Rosholm, Joanna S.             Employee        70700 Per Annum  PRESS SECRETARY TO THE FIRST LADY
Roshan, Nila                   Employee        42000 Per Annum  ANALYST   
Santillo, Jessica R.           Employee        85092 Per Annum  ASSISTANT PRESS SECRETARY
Rosa, Luke B.                  Employee        47975 Per Annum  ASSOCIATE DIRECTOR AND TRIP MANAGER
Rooney, Megan E.               Employee        75750 Per Annum  SENIOR PRESIDENTIAL SPEECHWRITER
Rogers, Melissa                Employee       100000 Per Annum  SPECIAL ASSISTANT TO THE PRESIDENT AND EXECUTIVE DIRECTOR OF THE WHITE HOUSE OFFICE OF FAITH-BASED AND NEIGHBORHOOD PARTNERSHIPS
Rodriguez, Roberto J.          Employee       120000 Per Annum  SPECIAL ASSISTANT TO THE PRESIDENT FOR EDUCATION POLICY
Rodriguez, Julie C.            Employee        92920 Per Annum  DEPUTY DIRECTOR OF PUBLIC ENGAGEMENT
Lehrich, Matthew A.            Employee        85092 Per Annum  ASSISTANT PRESS SECRETARY
Roddick, Gertrude A.           Employee        93264 Per Annum  PRESIDENTIAL SUPPORT SPECIALIST
Robinson, Tonya T.             Employee       100000 Per Annum  SPECIAL ASSISTANT TO THE PRESIDENT FOR JUSTICE AND REGULATORY POLICY
Robertson, Michael J.          Employee       120000 Per Annum  DEPUTY ASSISTANT TO THE PRESIDENT AND DEPUTY CABINET SECRETARY
Roberts, Brian D.              Employee        42420 Per Annum  ANALYST   
Roach, Cynthia L.              Employee       104911 Per Annum  SUPERVISOR OF CLASSIFICATION
Rikkers, Samuel H.             Employee        55550 Per Annum  ENERGY AND ENVIRONMENT DIRECTOR FOR PRESIDENTIAL PERSONNEL
Richards, Kaelan E.            Employee        70000 Per Annum  REGIONAL COMMUNICATONS DIRECTOR
Sgro, Max C.                   Employee        42420 Per Annum  ANALYST   
Spooner, Sarah C.              Employee        45450 Per Annum  COORDINATOR
Sopko, Alexandra L.            Employee        45000 Per Annum  EXECUTIVE ASSISTANT
Smith, Mackenzie R.            Employee        60000 Per Annum  DEPUTY DIRECTOR OF SCHEDULING
Smith, Jason J.                Employee        90900 Per Annum  "DEPUTY DIRECTOR
Smart, Christopher W.          Employee       130500 Per Annum  SPECIAL ASSISTANT TO THE PRESIDENT FOR INTERNATIONAL ECONOMICS
Slabey, Jill D.                Employee        55000 Per Annum  ASSOCIATE DIRECTOR OF SCHEDULING
Singletary, Barvetta           Employee       125000 Per Annum  SPECIAL ASSISTANT TO THE PRESIDENT AND HOUSE LEGISLATIVE AFFAIRS LIAISON
Simon, Jennifer J.             Employee        90900 Per Annum  DIRECTOR OF INTERNATIONAL AFFAIRS AND SENIOR POLICY ADVISOR
Simas, David M.                Employee       172200 Per Annum  ASSISTANT TO THE PRESIDENT AND DIRECTOR OF THE OFFICE OF POLITICAL STRATEGY AND OUTREACH
Siegel, Avra C.                Employee        65650 Per Annum  DEPUTY EXECUTIVE DIRECTOR FOR THE COUNCIL ON WOMEN AND GIRLS
Shulman, Sophie M.             Employee        55000 Per Annum  DEPUTY PRESS SECRETARY AND EXECUTIVE SECRETARY FOR THE DOMESTIC POLICY COUNCIL
Showers, Wendy W.              Employee        90744 Per Annum  PRESIDENTIAL SUPPORT SPECIALIST
Shevlin, Paige L.              Employee        70000 Per Annum  SENIOR POLICY ADVISOR
Rice, Susan E.                 Employee       172200 Per Annum  ASSISTANT TO THE PRESIDENT AND NATIONAL SECURITY ADVISOR
Sepp, Eryn M.                  Employee        55000 Per Annum  SPECIAL ASSISTANT TO THE COUNSELOR TO THE PRESIDENT
Schultz, Eric H.               Employee       103000 Per Annum  SPECIAL ASSISTANT TO THE PRESIDENT AND DEPUTY PRESS SECRETARY
Schulman, Kori S.              Employee        73225 Per Annum  DIRECTOR OF ONLINE ENGAGEMENT
Schneir, Hallie R.             Employee        65650 Per Annum  ASSOCIATE DIRECTOR OF PUBLIC ENGAGEMENT
Schneider, Michael P.          Employee        42000 Per Annum  STAFF ASSISTANT
Schmuck, Robert E.             Employee       105000 Per Annum  SPECIAL ASSISTANT TO THE PRESIDENT AND DEPUTY DIRECTOR OF THE OFFICE OF POLITICAL STRATEGY AND OUTREACH
Schinazi, Yann D.              Employee        42000 Per Annum  ANALYST   
Schaub, Matthew J.             Employee        50500 Per Annum  ASSISTANT DIRECTOR
Schafer, Ellie S.              Employee       100000 Per Annum  SPECIAL ASSISTANT TO THE PRESIDENT AND DIRECTOR OF VISITORS OFFICE
Satkowiak, Karly M.            Employee        55000 Per Annum  SPECIAL ASSISTANT AND ADVANCE LEAD
Sass, Joan C.                  Employee        60836 Per Annum  INFORMATION SERVICES OPERATOR
Sarkesian, Lauren A.           Employee        45000 Per Annum  LEGISLATIVE ASSISTANT
Cohen, Nora E.                 Employee        55550 Per Annum  SPECIAL ASSISTANT AND ADVANCE LEAD
Dinneen, James J.              Employee        55550 Per Annum  BOARDS AND COMMISSIONS DIRECTOR FOR PRESIDENTIAL PERSONNEL
Dillon, Molly D.               Employee        45000 Per Annum  POLICY ASSISTANT FOR URBAN AFFAIRS AND ECONOMIC MOBILITY
Dietz, David R.                Employee        42420 Per Annum  SPECIAL ASSISTANT TO THE CHIEF OF STAFF FOR THE OFFICE OF PUBLIC ENGAGEMENT AND INTERGOVERNMENTAL AFFAIRS
DeGuzman, Jr., Danilo          Employee        75710 Per Annum  PRESIDENTIAL SUPPORT SPECIALIST
DeGuzman, Brian K.             Employee        57358 Per Annum  DIRECTOR OF INFORMATION SERVICES
Degen, Gregory R.              Employee        60000 Per Annum  ASSISTANT STAFF SECRETARY
Dansky Bari, Dominique A.      Employee        75000 Per Annum  DEPUTY DIRECTOR OF STENOGRAPHY
Cushman, Chase M.              Employee       130000 Per Annum  DEPUTY ASSISTANT TO THE PRESIDENT AND DIRECTOR OF SCHEDULING
Cunnane, Patrick J.            Employee        55000 Per Annum  SENIOR WRITER
Crabtree, Alexandra M.         Employee        65650 Per Annum  DEPUTY DIRECTOR OF WHITE HOUSE PERSONNEL AND DIRECTOR OF THE WHITE HOUSE INTERNSHIP PROGRAM
Costa, Kristina L.             Employee        60000 Per Annum  ADVISOR TO THE COUNSELOR TO THE PRESIDENT
Coscia, Caroline M.            Employee        55000 Per Annum  SENIOR PRESS LEAD
Corrigan, Tara C.              Employee        65650 Per Annum  ASSOCIATE DIRECTOR OF INTERGOVERNMENTAL AFFAIRS
Dominguez, Daniel J.           Employee       114000 Per Annum  SPECIAL ASSISTANT TO THE PRESIDENT AND ASSOCIATE COUNSEL TO THE PRESIDENT
Cohen, Mitchell R.             Employee        42565 Per Annum  WRITER    
Cohen, Ilona R.                Employee       130500 Per Annum  SPECIAL ASSISTANT TO THE PRESIDENT AND ASSOCIATE COUNSEL TO THE PRESIDENT
Cohen, Evan N.                 Employee        45450 Per Annum  LEGISLATIVE ASSISTANT AND ASSISTANT TO THE SENATE LIAISON
Cohen, Elyse                   Employee            0 Per Annum  "DEPUTY DIRECTOR
Coccaro, Kasie M.              Employee        62500 Per Annum  DEPUTY DIRECTOR OF DIGITAL PROGRAMS
Cobbina, Kwesi A.              Employee        95950 Per Annum  SPECIAL ASSISTANT TO THE PRESIDENT AND POLICY ADVISOR TO THE OFFICE OF THE CHIEF OF STAFF
Coates, Kelsey A.              Employee        45000 Per Annum  VETTER    
Click, John S.                 Employee        45474 Per Annum  INFORMATION SERVICES OPERATOR
Claude, Lilia H.               Employee        62573 Per Annum  INFORMATION SERVICES OPERATOR
Chiodo, Theodore A.            Employee        90900 Per Annum  "CHIEF OF STAFF
Chaurand, Teresa R.            Employee       113000 Per Annum  SPECIAL ASSISTANT TO THE PRESIDENT FOR PRESIDENTIAL PERSONNEL
Carson, Crystal M.             Employee        50000 Per Annum  EXECUTIVE ASSISTANT
Carmen, Evan S.                Employee        42565 Per Annum  SENIOR ANALYST
Evans, Elisabeth W.            Employee        65000 Per Annum  ASSOCIATE DIRECTOR OF PUBLIC ENGAGEMENT
Fonzone, Christopher C.        Employee       114000 Per Annum  SPECIAL ASSISTANT TO THE PRESIDENT AND ASSOCIATE COUNSEL TO THE PRESIDENT
Florence, Justin G.            Employee       114000 Per Annum  SPECIAL ASSISTANT TO THE PRESIDENT AND ASSOCIATE COUNSEL TO THE PRESIDENT
Fitzgerald, Quinn S.           Employee        42420 Per Annum  STAFF ASSISTANT
Fistonich, George M.           Employee        45450 Per Annum  POLICY ASSISTANT
Fiddler, Leah C.               Employee        42000 Per Annum  ANALYST   
Feuerstein, Sara A.            Employee        42420 Per Annum  WEST WING RECEPTIONIST
Fenn, Sarah B.                 Employee        72000 Per Annum  DEPUTY ASSOCIATE COUNSEL
Fazili, Sameera                Employee        90000 Per Annum  SENIOR POLICY ADVISOR
Fay, Jennifer M.               Employee       100000 Per Annum  DIRECTOR OF WHITE HOUSE PERSONNEL AND ADVISOR FOR MANAGEMENT AND ADMINISTRATION
Fatemi, Mandana                Employee        42000 Per Annum  ANALYST   
Fallon, Katherine B.           Employee       172200 Per Annum  ASSISTANT TO THE PRESIDENT AND DIRECTOR OF THE OFFICE OF LEGISLATIVE AFFAIRS
Faed, Pantea                   Employee        45450 Per Annum  EXECUTIVE ASSISTANT
Evans, Karen M.                Employee        50000 Per Annum  SPECIAL ASSISTANT
Cardenas, Anne R.              Employee        42420 Per Annum  ANALYST   
Escobar, Felicia A.            Employee       100000 Per Annum  SPECIAL ASSISTANT TO THE PRESIDENT FOR IMMIGRATION POLICY
Elhassani, Layth S.            Employee       130500 Per Annum  SPECIAL ASSISTANT TO THE PRESIDENT FOR LEGISLATIVE AFFAIRS
Eggleston, Warren N.           Employee       172200 Per Annum  ASSISTANT TO THE PRESIDENT AND COUNSEL TO THE PRESIDENT
Egan, Brian J.                 Employee       158500 Per Annum  DEPUTY ASSISTANT TO THE PRESIDENT AND DEPUTY COUNSEL TO THE PRESIDENT
Edmonds, Anita J.              Employee        55620 Per Annum  RECORDS MANAGEMENT ANALYST
Earnest, Joshua R.             Employee       172200 Per Annum  ASSISTANT TO THE PRESIDENT AND PRESS SECRETARY
Dyer, Deesha A.                Employee        65650 Per Annum  DEPUTY DIRECTOR AND DEPUTY SOCIAL SECRETARY
Durheim, Joseph T.             Employee        50500 Per Annum  ASSISTANT DIRECTOR
Dumas, Clay A.                 Employee        60600 Per Annum  SPECIAL ASSISTANT TO THE SENIOR ADVISOR AND THE DEPUTY CHIEF OF STAFF
Droege, Philip C.              Employee       141660 Per Annum  DIRECTOR OF RECORDS MANAGEMENT
Dorsainvil, Monique            Employee        60600 Per Annum  DIRECTOR OF PLANNING AND EVENTS FOR THE OFFICE OF PUBLIC ENGAGEMENT AND INTERGOVERNMENTAL AFFAIRS
Dorey-Stein, Rebecca C.        Employee        63000 Per Annum  STENOGRAPHER
Donovan, Michael W.            Employee        68000 Per Annum  DEPUTY DIRECTOR OF SCHEDULING
Ayling, Lindsay A.             Employee        50500 Per Annum  SENIOR WRITER
Blakemore, Emily D.            Employee        50000 Per Annum  ASSISTANT DIRECTOR FOR CABINET AFFAIRS OPERATIONS
Blair, Patricia A.             Employee        97692 Per Annum  CHIEF CALLIGRAPHER
Binns, Mary U.                 Employee        74654 Per Annum  SPECIAL ASSISTANT
Bertagnoll, Brendan P.         Employee        42420 Per Annum  ANALYST   
Bernton, Jeremy W.             Employee        55550 Per Annum  OUTREACH AND RECRUITMENT DIRECTOR (COMMUNITY ORGANIZATIONS)
Bernard, Jeremy M.             Employee       118000 Per Annum  SPECIAL ASSISTANT TO THE PRESIDENT AND WHITE HOUSE SOCIAL SECRETARY
Bennett, Tabitha R.            Employee        45000 Per Annum  ADVANCE COORDINATOR
Beliveau, Emmett S.            Employee       158500 Per Annum  ASSISTANT TO THE PRESIDENT AND DIRECTOR OF THE WHITE HOUSE MILITARY OFFICE
Batchelder, Lily L.            Employee       147500 Per Annum  "DEPUTY ASSISTANT TO THE PRESIDENT AND DEPUTY DIRECTOR
Bartoloni, Kristen A.          Employee        55550 Per Annum  ASSOCIATE RESEARCH DIRECTOR
Barrett, Alexis S.             Employee        78780 Per Annum  SENIOR POLICY ADVISOR
Barnes, Desiree N.             Employee        42420 Per Annum  PRESS ASSISTANT
Baker, Lamar W.                Employee       130500 Per Annum  SPECIAL ASSISTANT TO THE PRESIDENT AND ASSOCIATE COUNSEL TO THE PRESIDENT
Bleiweis, Alexander A.         Employee        45000 Per Annum  ASSOCIATE DIRECTOR FOR SCHEDULING CORRESPONDENCE
Axios, Ashleigh T.             Employee        72500 Per Annum  DIGITAL CREATIVE DIRECTOR
Austin, Jr., Roy L.            Employee       158500 Per Annum  "DEPUTY ASSISTANT TO THE PRESIDENT FOR THE OFFICE OF URBAN AFFAIRS
Auguste, Byron G.              Employee       147500 Per Annum  "DEPUTY ASSISTANT TO THE PRESIDENT AND DEPUTY DIRECTOR
Asen, Jonathan D.              Employee        90000 Per Annum  CHIEF OF STAFF AND SENIOR ADVISOR TO THE DIRECTOR OF THE OFFICE OF LEGISLATIVE AFFAIRS
Aniskoff, Paulette L.          Employee       153500 Per Annum  DEPUTY ASSISTANT TO THE PRESIDENT AND DIRECTOR OF THE OFFICE OF PUBLIC ENGAGEMENT
Anderson, Amanda D.            Employee       125000 Per Annum  SPECIAL ASSISTANT TO THE PRESIDENT AND HOUSE LEGISLATIVE AFFAIRS LIAISON
Amo, Jr., Gabriel F.           Employee        42420 Per Annum  STAFF ASSISTANT
Amendolare, Vincent C.         Employee        42000 Per Annum  ANALYST   
Allen, Jessica L.              Employee        42420 Per Annum  PRESS ASSISTANT
Alcantara, Elias               Employee        42420 Per Annum  STAFF ASSISTANT
Aguilar, Rita C.               Employee        90900 Per Annum  SENIOR CONFIRMATIONS ADVISOR
Agnew, David P.                Employee       153500 Per Annum  DEPUTY ASSISTANT TO THE PRESIDENT AND DIRECTOR OF INTERGOVERNMENTAL AFFAIRS
Adler, Caroline E.             Employee        75750 Per Annum  DEPUTY COMMUNICATIONS DIRECTOR
Brooks, Douglas M.             Employee       100000 Per Annum  DIRECTOR OF THE OFFICE OF NATIONAL AIDS POLICY
Cantrell, Jeremy B.            Employee        42000 Per Annum  ANALYST   
Canegallo, Kristie A.          Employee       172200 Per Annum  ASSISTANT TO THE PRESIDENT AND DEPUTY CHIEF OF STAFF FOR IMPLEMENTATION
Campbell, Frances L.           Employee       104911 Per Annum  "SUPERVISOR
Burke, Jordan M.               Employee        83325 Per Annum  SPECIAL ASSISTANT TO THE PRESIDENT AND ASSISTANT COMMUNICATIONS DIRECTOR
Burglass, Summer A.            Employee        42000 Per Annum  STAFF ASSISTANT
Burger, Jillian M.             Employee        42990 Per Annum  SENIOR ANALYST
Brush, Michael P.              Employee       130000 Per Annum  DEPUTY ASSISTANT TO THE PRESIDENT AND DIRECTOR OF ADVANCE
Brundage, Amy J.               Employee       140000 Per Annum  DEPUTY ASSISTANT TO THE PRESIDENT AND DEPUTY DIRECTOR OF COMMUNICATIONS
Brown, Tramaine D.             Employee        50500 Per Annum  SCHEDULING ASSISTANT AND TRIP COORDINATOR
Brown, Sam D.                  Employee        65650 Per Annum  DIRECTOR OF THE WHITE HOUSE BUSINESS COUNCIL
Brown, Debra S.                Employee        86812 Per Annum  CALLIGRAPHER
Brosius, Rory M.               Employee        65650 Per Annum  "DEPUTY DIRECTOR
Brooks, Jordan A.              Employee        50500 Per Annum  SPECIAL ASSISTANT TO THE CHIEF OF STAFF TO THE FIRST LADY
Ford, Harrison A.              Employee        55550 Per Annum  SPECIAL ASSISTANT TO THE DEPUTY CHIEF OF STAFF
Brooke, Mary J.                Employee        98916 Per Annum  SUPERVISOR OF CORRESPONDENCE REVIEW
Broadie, Kristina T.           Employee        50500 Per Annum  PRESS LEAD
Briscoe, Rochelle B.           Employee       113000 Per Annum  SPECIAL ASSISTANT TO THE PRESIDENT FOR PRESIDENTIAL PERSONNEL
Breitenbeck, Casey L.          Employee        55000 Per Annum  SPECIAL ASSISTANT AND ADVANCE LEAD
Breckenridge, Anita J.         Employee       172200 Per Annum  ASSISTANT TO THE PRESIDENT AND DEPUTY CHIEF OF STAFF FOR OPERATIONS
Brandenburg, Hilary R.         Employee        50000 Per Annum  SPECIAL ASSISTANT TO THE DIRECTOR OF THE NATIONAL ECONOMIC COUNCIL
Branch, Katherine Y.           Employee        70700 Per Annum  DIRECTOR OF SPECIAL PROJECTS AND SPECIAL ASSISTANT TO THE SENIOR ADVISOR
Bradley, Katherine A.          Employee        47000 Per Annum  TRIP COORDINATOR
Bosworth, Michael S.           Employee       158500 Per Annum  DEPUTY ASSISTANT TO THE PRESIDENT AND DEPUTY COUNSEL TO THE PRESIDENT
Bollinger, Chelsea M.          Employee        52000 Per Annum  ASSOCIATE DIRECTOR
Blount, Patricia H.            Employee        53883 Per Annum  RECORDS MANAGEMENT ANALYST
Blinken, Antony J.             Employee       172200 Per Annum  ASSISTANT TO THE PRESIDENT AND DEPUTY NATIONAL SECURITY ADVISOR
Johnson, Linda M.              Employee        70825 Per Annum  INFORMATION SERVICES OPERATOR
Keeney, Andrew J.              Employee        45450 Per Annum  COORDINATOR
Keenan, Cody S.                Employee       172200 Per Annum  ASSISTANT TO THE PRESIDENT AND DIRECTOR OF SPEECHWRITING
Kawahata, Molly M.             Employee        45000 Per Annum  POLICY ASSISTANT
Katz-Hernandez, Leah B.        Employee        42420 Per Annum  RESEARCH ASSOCIATE
Kass, Samuel D.                Employee       125000 Per Annum  EXECUTIVE DIRECTOR OF LET'S MOVE! AND SENIOR POLICY ADVISOR FOR NUTRITION POLICY
Kang, Christopher D.           Employee       158500 Per Annum  DEPUTY ASSISTANT TO THE PRESIDENT AND DEPUTY COUNSEL TO THE PRESIDENT
Kale, Katy A.                  Employee       172200 Per Annum  ASSISTANT TO THE PRESIDENT FOR MANAGEMENT AND ADMINISTRATION
Kalbaugh, David E.             Employee       141660 Per Annum  EXECUTIVE CLERK
Kader, Gabriel D.              Employee        50000 Per Annum  RESEARCH COORDINATOR FOR PRESIDENTIAL PERSONNEL
Jordan, Megan E.               Employee        45000 Per Annum  TRAVEL PLANNER
Jones, Takesha R.              Employee        50360 Per Annum  INFORMATION SERVICES OPERATOR
Jones, Kristin T.              Employee        55550 Per Annum  PERSONAL AIDE TO THE FIRST LADY AND EAST WING OPERATIONS COORDINATOR
Jones, Crystal B.              Employee        90744 Per Annum  "ASSISTANT SUPERVISOR
Kelly, Lauren M.               Employee        55550 Per Annum  DEPUTY ASSOCIATE DIRECTOR
Johnson, Broderick D.          Employee       172200 Per Annum  ASSISTANT TO THE PRESIDENT AND CABINET SECRETARY
Jenkins, Bradley L.            Employee        65650 Per Annum  ASSOCIATE DIRECTOR
Jarvis, Kristen E.             Employee        85000 Per Annum  DEPUTY SENIOR ADVISOR AND DIRECTOR OF EXTERNAL RELATIONS FOR THE FIRST LADY
Jarrett, Valerie B.            Employee       172200 Per Annum  SENIOR ADVISOR AND ASSISTANT TO THE PRESIDENT FOR INTERGOVERNMENTAL AFFAIRS AND PUBLIC ENGAGEMENT
Jain, Ruchi                    Employee        80000 Per Annum  DEPUTY ASSOCIATE COUNSEL FOR PRESIDENTIAL PERSONNEL
Jain, Ashwani K.               Employee        42000 Per Annum  OUTREACH AND RECRUITMENT STAFF ASSISTANT FOR PRESIDENTIAL PERSONNEL
Jacob, Susannah                Employee        50000 Per Annum  ASSISTANT SPEECHWRITER
Jackson, Theresa R.            Employee        66997 Per Annum  INFORMATION SERVICES OPERATOR
Jackson, Bartlett W.           Employee        45450 Per Annum  RESEARCHER
Inouye, Shinichi               Employee        78780 Per Annum  DIRECTOR OF SPECIALTY MEDIA
Idaszak, Joshua A.             Employee        42420 Per Annum  ANALYST   
Hurwitz, Sarah K.              Employee       100000 Per Annum  "SPECIAL ASSISTANT TO THE PRESIDENT
Hunt, Thomas F.                Employee        52520 Per Annum  ASSOCIATE DIRECTOR FOR OPERATIONS
Langner, Emily R.              Employee        60600 Per Annum  ASSISTANT STAFF SECRETARY
Levy, Noemie C.                Employee        45450 Per Annum  POLICY ASSISTANT
Levine, Sarah L.               Employee       130500 Per Annum  SPECIAL ASSISTANT TO THE PRESIDENT AND ASSOCIATE COUNSEL TO THE PRESIDENT
Lessne, Allison B.             Employee        50500 Per Annum  POLICY ADVISOR
Lesko, Max S.                  Employee        55550 Per Annum  DOMESTIC DIRECTOR FOR PRESIDENTIAL PERSONNEL
Leibenluft, Jacob D.           Employee       105000 Per Annum  SPECIAL ASSISTANT TO THE PRESIDENT FOR ECONOMIC POLICY
Abraham, Yohannes A.           Employee       120000 Per Annum  SPECIAL ASSISTANT TO THE PRESIDENT AND CHIEF OF STAFF FOR THE OFFICE OF PUBLIC ENGAGEMENT AND INTERGOVERNMENTAL AFFAIRS
Lee, Jesse C.                  Employee        95950 Per Annum  SPECIAL ASSISTANT TO THE PRESIDENT AND DIRECTOR OF PROGRESSIVE MEDIA AND ONLINE RESPONSE
Lee, Gi H.                     Employee        42420 Per Annum  SPECIAL ASSISTANT TO THE DIRECTOR OF THE PRESIDENTIAL PERSONNEL OFFICE
Ledbetter, Howli J.            Employee        85092 Per Annum  DIRECTOR OF MESSAGE PLANNING
Lechtenberg, Tyler A.          Employee        70700 Per Annum  PRESIDENTIAL SPEECHWRITER
Layden, William J.             Employee        45000 Per Annum  LEGISLATIVE ASSISTANT
Lartey, Solomon D.             Employee        60836 Per Annum  RECORDS MANAGEMENT ANALYST
Larrimore, Zachary T.          Employee        42990 Per Annum  SENIOR ANALYST
Hunn, Allison D.               Employee        42420 Per Annum  SPECIAL ASSISTANT TO THE OFFICE OF CABINET AFFAIRS
Lambrew, Jeanne M.             Employee       158500 Per Annum  DEPUTY ASSISTANT TO THE PRESIDENT FOR HEALTH POLICY
Kvaal, James R.                Employee       158500 Per Annum  DEPUTY ASSISTANT TO THE PRESIDENT AND DEPUTY DIRECTOR OF THE DOMESTIC POLICY COUNCIL
Kulma, Monika                  Employee        65650 Per Annum  DEPUTY DIRECTOR FOR FINANCE
Krueger, Benjamin S.           Employee        42420 Per Annum  ANALYST   
Koo, Stacy J.                  Employee        85850 Per Annum  CHIEF OF STAFF FOR PRESIDENTIAL PERSONNEL
Kochman, Katherine H.          Employee       120000 Per Annum  SPECIAL ASSISTANT TO THE PRESIDENT AND CHIEF OF STAFF OF THE DOMESTIC POLICY COUNCIL
Kline, Lacy R.                 Employee        52520 Per Annum  ASSOCIATE DIRECTOR OF WHITE HOUSE PERSONNEL
Kissinger, Alexa M.            Employee        42420 Per Annum  STAFF ASSISTANT
King, Taeshonnda C.            Employee        62573 Per Annum  RECORDS MANAGEMENT ANALYST
Kimball, Emilie A.             Employee        50500 Per Annum  SENIOR WRITER
Kimball, Chase E.              Employee        60600 Per Annum  DIRECTOR FOR CORRESPONDENCE SYSTEMS INNOVATION
Kelly, Nijah C.                Employee        44052 Per Annum  INFORMATION SERVICES OPERATOR
Gillette, Jodi A.              Employee       100000 Per Annum  SENIOR POLICY ADVISOR FOR NATIVE AMERICAN AFFAIRS
Gurman, Jesse A.               Employee        85000 Per Annum  ASSOCIATE STAFF SECRETARY
Gronniger, Jerome T.           Employee       100000 Per Annum  SENIOR POLICY ADVISOR
Grimes, Stephen H.             Employee        50500 Per Annum  ASSISTANT DIRECTOR
Greenblatt, Jonathan A.        Employee       120000 Per Annum  "SPECIAL ASSISTANT TO THE PRESIDENT AND DIRECTOR
Greenberg, Justin S.           Employee        42420 Per Annum  BOARDS AND COMMISSIONS STAFF ASSISTANT
Graham, Douglas E.             Employee        70700 Per Annum  VETTING ADVISOR FOR PRESIDENTIAL PERSONNEL
Grady, Sean M.                 Employee        42990 Per Annum  SENIOR ANALYST
Govashiri, Ferial              Employee       108000 Per Annum  SPECIAL ASSISTANT TO THE PRESIDENT AND PERSONAL AIDE TO THE PRESIDENT
Gottlieb, Michael D.           Employee       114000 Per Annum  SPECIAL ASSISTANT TO THE PRESIDENT AND ASSOCIATE COUNSEL TO THE PRESIDENT
Gonzalez, Ximena               Employee        55550 Per Annum  DEPUTY ASSOCIATE DIRECTOR
Gonzalez, Maria C.             Employee       130000 Per Annum  SPECIAL ASSISTANT TO THE PRESIDENT AND DIRECTOR OF COMMUNICATIONS FOR THE FIRST LADY
Goepfert, Stephen M.           Employee        75750 Per Annum  DEPUTY DIRECTOR OF PRESIDENTIAL CORRESPONDENCE
Gillum, Bria L.                Employee        50500 Per Annum  POLICY ASSISTANT
Gustavson, Matthew J.          Employee        46895 Per Annum  INFORMATION SERVICES OPERATOR
Gianotti, Claire L.            Employee        45000 Per Annum  VETTER    
Gaughran, Kaitlin D.           Employee        45450 Per Annum  ADVANCE COORDINATOR
Garcia, Paola M.               Employee        42420 Per Annum  STAFF ASSISTANT
Garber, Adam W.                Employee        72500 Per Annum  DIRECTOR OF VIDEO FOR DIGITAL STRATEGY
Galloway, John M.              Employee       120000 Per Annum  SENIOR ADVISOR AND CHIEF OF STAFF OF THE NATIONAL ECONOMIC COUNCIL
Gallogly, Katharine S.         Employee        42000 Per Annum  SPECIAL ASSISTANT TO THE DIRECTOR OF PUBLIC ENGAGEMENT
Frohlichstein, Richard         Employee        42000 Per Annum  STAFF ASSISTANT
Friedman, Joshua N.            Employee        99990 Per Annum  DEPUTY ASSOCIATE COUNSEL
Friedman, John N.              Employee       130500 Per Annum  SPECIAL ASSISTANT TO THE PRESIDENT FOR ECONOMIC POLICY
Friedman, Jennifer B.          Employee       103000 Per Annum  SENIOR ADVISOR FOR STRATEGIC COMMUNICATIONS FOR THE NATIONAL ECONOMIC COUNCIL
Freshwater, Margaret E.        Employee        50500 Per Annum  DIRECTOR OF CORRESPONDENCE FOR THE FIRST LADY
Freeman, Myra B.               Employee        74654 Per Annum  RECORDS MANAGEMENT ANALYST
Foster, Heather J.             Employee        65650 Per Annum  PUBLIC ENGAGEMENT ADVISOR
Heinzelman, Kate E.            Employee       112000 Per Annum  ASSOCIATE COUNSEL
Hudson, Jr., David L.          Employee        47500 Per Annum  ASSOCIATE DIRECTOR OF CONTENT
Hsu, Irene                     Employee        60600 Per Annum  ASSISTANT DIRECTOR OF INTERGOVERNMENTAL AFFAIRS
Houshower, Samuel B.           Employee        72000 Per Annum  DEPUTY ASSOCIATE COUNSEL
Hoover, Zealan T.              Employee        45000 Per Annum  POLICY ASSISTANT
Holzer, Benjamin S.            Employee       100000 Per Annum  SPECIAL ASSISTANT TO THE PRESIDENT AND DIRECTOR OF RESEARCH
Holst, Lindsay L.              Employee        73225 Per Annum  DIRECTOR OF DIGITAL CONTENT
Hoang, Vy T.                   Employee        55622 Per Annum  RECORDS MANAGEMENT ANALYST
Higley, Lacey E.               Employee        42420 Per Annum  ANALYST   
Highsmith, Brian D.            Employee        50500 Per Annum  POLICY ADVISOR
Hicks Delgado, Tequia M.       Employee        60000 Per Annum  MEMBER RELATIONS ADVISOR
Heyman, Liza R.                Employee        42420 Per Annum  STAFF ASSISTANT
Herwig, Paige L.               Employee       114000 Per Annum  SPECIAL ASSISTANT TO THE PRESIDENT AND ASSOCIATE COUNSEL TO THE PRESIDENT
Hendricks, Catherine L.        Employee        42565 Per Annum  SENIOR ANALYST
Lezotte, Darin R.              Employee        66997 Per Annum  RECORDS MANAGEMENT ANALYST
Hegde, Shilpa S.               Employee        60600 Per Annum  ASSISTANT STAFF SECRETARY
Hedger, Stephen C.             Employee       125000 Per Annum  SPECIAL ASSISTANT TO THE PRESIDENT AND SENATE LEGISLATIVE AFFAIRS LIAISON
Hayes, Lindsay B.              Employee        50500 Per Annum  DEPUTY DIRECTOR AND HOTEL PROGRAM DIRECTOR
Hassan, Zaid B.                Employee        42420 Per Annum  STAFF ASSISTANT
Harwood, Maria-Zena A.         Employee        47212 Per Annum  RECORDS MANAGEMENT ANALYST
Harvey, Kendra E.              Employee        42420 Per Annum  ENERGY AND ENVIRONMENT STAFF ASSISTANT
Harvey, James R.               Employee        80000 Per Annum  DEPUTY ASSOCIATE COUNSEL FOR PRESIDENTIAL PERSONNEL
Hartz, Timothy S.              Employee        65000 Per Annum  SPECIAL ASSISTANT AND SENIOR ADVANCE LEAD
Harris, Jacqueline B.          Employee        45450 Per Annum  LEGISLATIVE ASSISTANT AND ASSOCIATE DIRECTOR FOR LEGISLATIVE CORRESPONDENCE
Hankins, Hannah R.             Employee        42420 Per Annum  PRESS ASSISTANT
Hakim, Neema                   Employee        45000 Per Annum  VETTER    
Gwynn, II, Artemus R.          Employee        44052 Per Annum  INFORMATION SERVICES OPERATOR
